%!PS-Adobe-3.0
%%Creator: graphviz version 2.43.0 (0)
%%Title: SHELL API
%%Pages: (atend)
%%BoundingBox: (atend)
%%EndComments
save
%%BeginProlog
/DotDict 200 dict def
DotDict begin

/setupLatin1 {
mark
/EncodingVector 256 array def
 EncodingVector 0

ISOLatin1Encoding 0 255 getinterval putinterval
EncodingVector 45 /hyphen put

% Set up ISO Latin 1 character encoding
/starnetISO {
        dup dup findfont dup length dict begin
        { 1 index /FID ne { def }{ pop pop } ifelse
        } forall
        /Encoding EncodingVector def
        currentdict end definefont
} def
/Times-Roman starnetISO def
/Times-Italic starnetISO def
/Times-Bold starnetISO def
/Times-BoldItalic starnetISO def
/Helvetica starnetISO def
/Helvetica-Oblique starnetISO def
/Helvetica-Bold starnetISO def
/Helvetica-BoldOblique starnetISO def
/Courier starnetISO def
/Courier-Oblique starnetISO def
/Courier-Bold starnetISO def
/Courier-BoldOblique starnetISO def
cleartomark
} bind def

%%BeginResource: procset graphviz 0 0
/coord-font-family /Times-Roman def
/default-font-family /Times-Roman def
/coordfont coord-font-family findfont 8 scalefont def

/InvScaleFactor 1.0 def
/set_scale {
       dup 1 exch div /InvScaleFactor exch def
       scale
} bind def

% styles
/solid { [] 0 setdash } bind def
/dashed { [9 InvScaleFactor mul dup ] 0 setdash } bind def
/dotted { [1 InvScaleFactor mul 6 InvScaleFactor mul] 0 setdash } bind def
/invis {/fill {newpath} def /stroke {newpath} def /show {pop newpath} def} bind def
/bold { 2 setlinewidth } bind def
/filled { } bind def
/unfilled { } bind def
/rounded { } bind def
/diagonals { } bind def
/tapered { } bind def

% hooks for setting color 
/nodecolor { sethsbcolor } bind def
/edgecolor { sethsbcolor } bind def
/graphcolor { sethsbcolor } bind def
/nopcolor {pop pop pop} bind def

/beginpage {	% i j npages
	/npages exch def
	/j exch def
	/i exch def
	/str 10 string def
	npages 1 gt {
		gsave
			coordfont setfont
			0 0 moveto
			(\() show i str cvs show (,) show j str cvs show (\)) show
		grestore
	} if
} bind def

/set_font {
	findfont exch
	scalefont setfont
} def

% draw text fitted to its expected width
/alignedtext {			% width text
	/text exch def
	/width exch def
	gsave
		width 0 gt {
			[] 0 setdash
			text stringwidth pop width exch sub text length div 0 text ashow
		} if
	grestore
} def

/boxprim {				% xcorner ycorner xsize ysize
		4 2 roll
		moveto
		2 copy
		exch 0 rlineto
		0 exch rlineto
		pop neg 0 rlineto
		closepath
} bind def

/ellipse_path {
	/ry exch def
	/rx exch def
	/y exch def
	/x exch def
	matrix currentmatrix
	newpath
	x y translate
	rx ry scale
	0 0 1 0 360 arc
	setmatrix
} bind def

/endpage { showpage } bind def
/showpage { } def

/layercolorseq
	[	% layer color sequence - darkest to lightest
		[0 0 0]
		[.2 .8 .8]
		[.4 .8 .8]
		[.6 .8 .8]
		[.8 .8 .8]
	]
def

/layerlen layercolorseq length def

/setlayer {/maxlayer exch def /curlayer exch def
	layercolorseq curlayer 1 sub layerlen mod get
	aload pop sethsbcolor
	/nodecolor {nopcolor} def
	/edgecolor {nopcolor} def
	/graphcolor {nopcolor} def
} bind def

/onlayer { curlayer ne {invis} if } def

/onlayers {
	/myupper exch def
	/mylower exch def
	curlayer mylower lt
	curlayer myupper gt
	or
	{invis} if
} def

/curlayer 0 def

%%EndResource
%%EndProlog
%%BeginSetup
14 default-font-family set_font
% /arrowlength 10 def
% /arrowwidth 5 def

% make sure pdfmark is harmless for PS-interpreters other than Distiller
/pdfmark where {pop} {userdict /pdfmark /cleartomark load put} ifelse
% make '<<' and '>>' safe on PS Level 1 devices
/languagelevel where {pop languagelevel}{1} ifelse
2 lt {
    userdict (<<) cvn ([) cvn load put
    userdict (>>) cvn ([) cvn load put
} if

%%EndSetup
setupLatin1
%%Page: 1 1
%%PageBoundingBox: 36 36 262 174
%%PageOrientation: Portrait
0 0 1 beginpage
gsave
36 36 226 138 boxprim clip newpath
1 1 set_scale 0 rotate 40 40 translate
% Node4
gsave
[ /Rect [ 135.5 111 183.5 130 ]
  /Border [ 0 0 0 ]
  /Action << /Subtype /URI /URI ($group__m17nLocale.html) >>
  /Subtype /Link
/ANN pdfmark
0 0 1 nodecolor
newpath 183.5 130 moveto
135.5 130 lineto
135.5 111 lineto
183.5 111 lineto
closepath fill
1 setlinewidth
filled
0 0 0 nodecolor
newpath 183.5 130 moveto
135.5 130 lineto
135.5 111 lineto
183.5 111 lineto
closepath stroke
0 0 0 nodecolor
10 /Helvetica set_font
143.5 118 moveto 32 (Locale) alignedtext
grestore
% Node2
gsave
[ /Rect [ 132.5 74 186.5 93 ]
  /Border [ 0 0 0 ]
  /Action << /Subtype /URI /URI ($group__m17nCharset.html) >>
  /Subtype /Link
/ANN pdfmark
0 0 1 nodecolor
newpath 186.5 93 moveto
132.5 93 lineto
132.5 74 lineto
186.5 74 lineto
closepath fill
1 setlinewidth
filled
0 0 0 nodecolor
newpath 186.5 93 moveto
132.5 93 lineto
132.5 74 lineto
186.5 74 lineto
closepath stroke
0 0 0 nodecolor
10 /Helvetica set_font
140.5 81 moveto 38 (Charset) alignedtext
grestore
% Node5
gsave
[ /Rect [ 101 37 218 56 ]
  /Border [ 0 0 0 ]
  /Action << /Subtype /URI /URI ($group__m17nInputMethod.html) >>
  /Subtype /Link
/ANN pdfmark
0 0 1 nodecolor
newpath 218 56 moveto
101 56 lineto
101 37 lineto
218 37 lineto
closepath fill
1 setlinewidth
filled
0 0 0 nodecolor
newpath 218 56 moveto
101 56 lineto
101 37 lineto
218 37 lineto
closepath stroke
0 0 0 nodecolor
10 /Helvetica set_font
109 44 moveto 101 (Input Method \(basic\)) alignedtext
grestore
% Node3
gsave
[ /Rect [ 110 0 209 19 ]
  /Border [ 0 0 0 ]
  /Action << /Subtype /URI /URI ($group__m17nConv.html) >>
  /Subtype /Link
/ANN pdfmark
0 0 1 nodecolor
newpath 209 19 moveto
110 19 lineto
110 0 lineto
209 0 lineto
closepath fill
1 setlinewidth
filled
0 0 0 nodecolor
newpath 209 19 moveto
110 19 lineto
110 0 lineto
209 0 lineto
closepath stroke
0 0 0 nodecolor
10 /Helvetica set_font
118 7 moveto 83 (Code Conversion) alignedtext
grestore
% Node1
gsave
0 0 0.74902 nodecolor
newpath 65 74 moveto
0 74 lineto
0 55 lineto
65 55 lineto
closepath fill
1 setlinewidth
filled
0 0 0 nodecolor
newpath 65 74 moveto
0 74 lineto
0 55 lineto
65 55 lineto
closepath stroke
0 0 0 nodecolor
10 /Helvetica set_font
8 62 moveto 49 (SHELL API) alignedtext
grestore
% Node1->Node4
gsave
1 setlinewidth
solid
0 0 0 edgecolor
newpath 56.8959 79.2758 moveto
69.6107 86.89 85.8025 95.9297 101 102.5 curveto
112.0417 107.2736 124.7665 111.3908 135.434 114.478 curveto
stroke
0 0 0 edgecolor
newpath 58.6753 76.2614 moveto
48.3161 74.0391 lineto
55.0284 82.2364 lineto
closepath fill
1 setlinewidth
solid
0 0 0 edgecolor
newpath 58.6753 76.2614 moveto
48.3161 74.0391 lineto
55.0284 82.2364 lineto
closepath stroke
grestore
% Node1->Node2
gsave
1 setlinewidth
solid
0 0 0 edgecolor
newpath 74.9421 70.7992 moveto
93.9179 73.6835 115.8264 77.0136 132.4481 79.5401 curveto
stroke
0 0 0 edgecolor
newpath 75.4552 67.3371 moveto
65.0428 69.2945 lineto
74.4032 74.2576 lineto
closepath fill
1 setlinewidth
solid
0 0 0 edgecolor
newpath 75.4552 67.3371 moveto
65.0428 69.2945 lineto
74.4032 74.2576 lineto
closepath stroke
grestore
% Node1->Node5
gsave
1 setlinewidth
solid
0 0 0 edgecolor
newpath 75.0952 58.5103 moveto
83.3001 57.3288 92.0482 56.0691 100.6767 54.8265 curveto
stroke
0 0 0 edgecolor
newpath 74.4418 55.0682 moveto
65.0428 59.9578 lineto
75.4396 61.9967 lineto
closepath fill
1 setlinewidth
solid
0 0 0 edgecolor
newpath 74.4418 55.0682 moveto
65.0428 59.9578 lineto
75.4396 61.9967 lineto
closepath stroke
grestore
% Node1->Node3
gsave
1 setlinewidth
solid
0 0 0 edgecolor
newpath 58.4048 49.9025 moveto
70.9338 42.9004 86.5035 34.7069 101 28.5 curveto
109.0218 25.0653 117.8863 21.8606 126.2037 19.0977 curveto
stroke
0 0 0 edgecolor
newpath 56.4493 46.9881 moveto
49.4847 54.9721 lineto
59.9081 53.0738 lineto
closepath fill
1 setlinewidth
solid
0 0 0 edgecolor
newpath 56.4493 46.9881 moveto
49.4847 54.9721 lineto
59.9081 53.0738 lineto
closepath stroke
grestore
endpage
showpage
grestore
%%PageTrailer
%%EndPage: 1
%%Trailer
%%Pages: 1
%%BoundingBox: 36 36 262 174
end
restore
%%EOF
