%!PS-Adobe-3.0
%%Creator: graphviz version 2.43.0 (0)
%%Title: GUI API
%%Pages: (atend)
%%BoundingBox: (atend)
%%EndComments
save
%%BeginProlog
/DotDict 200 dict def
DotDict begin

/setupLatin1 {
mark
/EncodingVector 256 array def
 EncodingVector 0

ISOLatin1Encoding 0 255 getinterval putinterval
EncodingVector 45 /hyphen put

% Set up ISO Latin 1 character encoding
/starnetISO {
        dup dup findfont dup length dict begin
        { 1 index /FID ne { def }{ pop pop } ifelse
        } forall
        /Encoding EncodingVector def
        currentdict end definefont
} def
/Times-Roman starnetISO def
/Times-Italic starnetISO def
/Times-Bold starnetISO def
/Times-BoldItalic starnetISO def
/Helvetica starnetISO def
/Helvetica-Oblique starnetISO def
/Helvetica-Bold starnetISO def
/Helvetica-BoldOblique starnetISO def
/Courier starnetISO def
/Courier-Oblique starnetISO def
/Courier-Bold starnetISO def
/Courier-BoldOblique starnetISO def
cleartomark
} bind def

%%BeginResource: procset graphviz 0 0
/coord-font-family /Times-Roman def
/default-font-family /Times-Roman def
/coordfont coord-font-family findfont 8 scalefont def

/InvScaleFactor 1.0 def
/set_scale {
       dup 1 exch div /InvScaleFactor exch def
       scale
} bind def

% styles
/solid { [] 0 setdash } bind def
/dashed { [9 InvScaleFactor mul dup ] 0 setdash } bind def
/dotted { [1 InvScaleFactor mul 6 InvScaleFactor mul] 0 setdash } bind def
/invis {/fill {newpath} def /stroke {newpath} def /show {pop newpath} def} bind def
/bold { 2 setlinewidth } bind def
/filled { } bind def
/unfilled { } bind def
/rounded { } bind def
/diagonals { } bind def
/tapered { } bind def

% hooks for setting color 
/nodecolor { sethsbcolor } bind def
/edgecolor { sethsbcolor } bind def
/graphcolor { sethsbcolor } bind def
/nopcolor {pop pop pop} bind def

/beginpage {	% i j npages
	/npages exch def
	/j exch def
	/i exch def
	/str 10 string def
	npages 1 gt {
		gsave
			coordfont setfont
			0 0 moveto
			(\() show i str cvs show (,) show j str cvs show (\)) show
		grestore
	} if
} bind def

/set_font {
	findfont exch
	scalefont setfont
} def

% draw text fitted to its expected width
/alignedtext {			% width text
	/text exch def
	/width exch def
	gsave
		width 0 gt {
			[] 0 setdash
			text stringwidth pop width exch sub text length div 0 text ashow
		} if
	grestore
} def

/boxprim {				% xcorner ycorner xsize ysize
		4 2 roll
		moveto
		2 copy
		exch 0 rlineto
		0 exch rlineto
		pop neg 0 rlineto
		closepath
} bind def

/ellipse_path {
	/ry exch def
	/rx exch def
	/y exch def
	/x exch def
	matrix currentmatrix
	newpath
	x y translate
	rx ry scale
	0 0 1 0 360 arc
	setmatrix
} bind def

/endpage { showpage } bind def
/showpage { } def

/layercolorseq
	[	% layer color sequence - darkest to lightest
		[0 0 0]
		[.2 .8 .8]
		[.4 .8 .8]
		[.6 .8 .8]
		[.8 .8 .8]
	]
def

/layerlen layercolorseq length def

/setlayer {/maxlayer exch def /curlayer exch def
	layercolorseq curlayer 1 sub layerlen mod get
	aload pop sethsbcolor
	/nodecolor {nopcolor} def
	/edgecolor {nopcolor} def
	/graphcolor {nopcolor} def
} bind def

/onlayer { curlayer ne {invis} if } def

/onlayers {
	/myupper exch def
	/mylower exch def
	curlayer mylower lt
	curlayer myupper gt
	or
	{invis} if
} def

/curlayer 0 def

%%EndResource
%%EndProlog
%%BeginSetup
14 default-font-family set_font
% /arrowlength 10 def
% /arrowwidth 5 def

% make sure pdfmark is harmless for PS-interpreters other than Distiller
/pdfmark where {pop} {userdict /pdfmark /cleartomark load put} ifelse
% make '<<' and '>>' safe on PS Level 1 devices
/languagelevel where {pop languagelevel}{1} ifelse
2 lt {
    userdict (<<) cvn ([) cvn load put
    userdict (>>) cvn ([) cvn load put
} if

%%EndSetup
setupLatin1
%%Page: 1 1
%%PageBoundingBox: 36 36 243 248
%%PageOrientation: Portrait
0 0 1 beginpage
gsave
36 36 207 212 boxprim clip newpath
1 1 set_scale 0 rotate 40 40 translate
% Node5
gsave
[ /Rect [ 125 185 163 204 ]
  /Border [ 0 0 0 ]
  /Action << /Subtype /URI /URI ($group__m17nFace.html) >>
  /Subtype /Link
/ANN pdfmark
0 0 1 nodecolor
newpath 163 204 moveto
125 204 lineto
125 185 lineto
163 185 lineto
closepath fill
1 setlinewidth
filled
0 0 0 nodecolor
newpath 163 204 moveto
125 204 lineto
125 185 lineto
163 185 lineto
closepath stroke
0 0 0 nodecolor
10 /Helvetica set_font
133 192 moveto 22 (Face) alignedtext
grestore
% Node7
gsave
[ /Rect [ 89 148 199 167 ]
  /Border [ 0 0 0 ]
  /Action << /Subtype /URI /URI ($group__m17nInputMethodWin.html) >>
  /Subtype /Link
/ANN pdfmark
0 0 1 nodecolor
newpath 199 167 moveto
89 167 lineto
89 148 lineto
199 148 lineto
closepath fill
1 setlinewidth
filled
0 0 0 nodecolor
newpath 199 167 moveto
89 167 lineto
89 148 lineto
199 148 lineto
closepath stroke
0 0 0 nodecolor
10 /Helvetica set_font
97 155 moveto 94 (Input Method \(GUI\)) alignedtext
grestore
% Node1
gsave
0 0 0.74902 nodecolor
newpath 53 111 moveto
0 111 lineto
0 92 lineto
53 92 lineto
closepath fill
1 setlinewidth
filled
0 0 0 nodecolor
newpath 53 111 moveto
0 111 lineto
0 92 lineto
53 92 lineto
closepath stroke
0 0 0 nodecolor
10 /Helvetica set_font
8 99 moveto 37 (GUI API) alignedtext
grestore
% Node1->Node5
gsave
1 setlinewidth
solid
0 0 0 edgecolor
newpath 38.3495 119.9693 moveto
49.184 136.9125 67.3179 161.5751 89 176.5 curveto
99.7449 183.8962 113.766 188.4507 124.8281 191.1276 curveto
stroke
0 0 0 edgecolor
newpath 41.0631 117.7006 moveto
32.8421 111.0174 lineto
35.1011 121.3686 lineto
closepath fill
1 setlinewidth
solid
0 0 0 edgecolor
newpath 41.0631 117.7006 moveto
32.8421 111.0174 lineto
35.1011 121.3686 lineto
closepath stroke
grestore
% Node1->Node7
gsave
1 setlinewidth
solid
0 0 0 edgecolor
newpath 49.5967 116.8867 moveto
61.0074 124.3781 75.3653 133.1208 89 139.5 curveto
95.7132 142.6408 103.1277 145.4863 110.2564 147.9399 curveto
stroke
0 0 0 edgecolor
newpath 51.4013 113.8827 moveto
41.1475 111.2161 lineto
47.5004 119.695 lineto
closepath fill
1 setlinewidth
solid
0 0 0 edgecolor
newpath 51.4013 113.8827 moveto
41.1475 111.2161 lineto
47.5004 119.695 lineto
closepath stroke
grestore
% Node4
gsave
[ /Rect [ 117.5 111 170.5 130 ]
  /Border [ 0 0 0 ]
  /Action << /Subtype /URI /URI ($group__m17nFontset.html) >>
  /Subtype /Link
/ANN pdfmark
0 0 1 nodecolor
newpath 170.5 130 moveto
117.5 130 lineto
117.5 111 lineto
170.5 111 lineto
closepath fill
1 setlinewidth
filled
0 0 0 nodecolor
newpath 170.5 130 moveto
117.5 130 lineto
117.5 111 lineto
170.5 111 lineto
closepath stroke
0 0 0 nodecolor
10 /Helvetica set_font
125.5 118 moveto 37 (Fontset) alignedtext
grestore
% Node1->Node4
gsave
1 setlinewidth
solid
0 0 0 edgecolor
newpath 63.0501 107.3481 moveto
80.6323 110.2404 101.4528 113.6654 117.4385 116.2951 curveto
stroke
0 0 0 edgecolor
newpath 63.5687 103.8864 moveto
53.1332 105.7167 lineto
62.4324 110.7936 lineto
closepath fill
1 setlinewidth
solid
0 0 0 edgecolor
newpath 63.5687 103.8864 moveto
53.1332 105.7167 lineto
62.4324 110.7936 lineto
closepath stroke
grestore
% Node2
gsave
[ /Rect [ 120.5 74 167.5 93 ]
  /Border [ 0 0 0 ]
  /Action << /Subtype /URI /URI ($group__m17nFrame.html) >>
  /Subtype /Link
/ANN pdfmark
0 0 1 nodecolor
newpath 167.5 93 moveto
120.5 93 lineto
120.5 74 lineto
167.5 74 lineto
closepath fill
1 setlinewidth
filled
0 0 0 nodecolor
newpath 167.5 93 moveto
120.5 93 lineto
120.5 74 lineto
167.5 74 lineto
closepath stroke
0 0 0 nodecolor
10 /Helvetica set_font
128.5 81 moveto 31 (Frame) alignedtext
grestore
% Node1->Node2
gsave
1 setlinewidth
solid
0 0 0 edgecolor
newpath 63.0364 95.9619 moveto
81.6438 93.062 103.8812 89.5964 120.1766 87.0569 curveto
stroke
0 0 0 edgecolor
newpath 62.4749 92.507 moveto
53.1332 97.5052 lineto
63.5529 99.4235 lineto
closepath fill
1 setlinewidth
solid
0 0 0 edgecolor
newpath 62.4749 92.507 moveto
53.1332 97.5052 lineto
63.5529 99.4235 lineto
closepath stroke
grestore
% Node6
gsave
[ /Rect [ 115.5 37 172.5 56 ]
  /Border [ 0 0 0 ]
  /Action << /Subtype /URI /URI ($group__m17nDraw.html) >>
  /Subtype /Link
/ANN pdfmark
0 0 1 nodecolor
newpath 172.5 56 moveto
115.5 56 lineto
115.5 37 lineto
172.5 37 lineto
closepath fill
1 setlinewidth
filled
0 0 0 nodecolor
newpath 172.5 56 moveto
115.5 56 lineto
115.5 37 lineto
172.5 37 lineto
closepath stroke
0 0 0 nodecolor
10 /Helvetica set_font
123.5 44 moveto 41 (Drawing) alignedtext
grestore
% Node1->Node6
gsave
1 setlinewidth
solid
0 0 0 edgecolor
newpath 50.988 86.3232 moveto
62.2204 79.4401 76.021 71.5147 89 65.5 curveto
97.386 61.6138 106.8056 58.0436 115.4011 55.0728 curveto
stroke
0 0 0 edgecolor
newpath 48.857 83.5277 moveto
42.2313 91.7951 lineto
52.5665 89.464 lineto
closepath fill
1 setlinewidth
solid
0 0 0 edgecolor
newpath 48.857 83.5277 moveto
42.2313 91.7951 lineto
52.5665 89.464 lineto
closepath stroke
grestore
% Node3
gsave
[ /Rect [ 125 0 163 19 ]
  /Border [ 0 0 0 ]
  /Action << /Subtype /URI /URI ($group__m17nFont.html) >>
  /Subtype /Link
/ANN pdfmark
0 0 1 nodecolor
newpath 163 19 moveto
125 19 lineto
125 0 lineto
163 0 lineto
closepath fill
1 setlinewidth
filled
0 0 0 nodecolor
newpath 163 19 moveto
125 19 lineto
125 0 lineto
163 0 lineto
closepath stroke
0 0 0 nodecolor
10 /Helvetica set_font
133 7 moveto 22 (Font) alignedtext
grestore
% Node1->Node3
gsave
1 setlinewidth
solid
0 0 0 edgecolor
newpath 39.0496 82.8162 moveto
50.0558 66.4183 68.0279 42.987 89 28.5 curveto
99.7938 21.0439 113.8134 16.2254 124.8625 13.3068 curveto
stroke
0 0 0 edgecolor
newpath 35.9002 81.2408 moveto
33.4043 91.5374 lineto
41.7765 85.0446 lineto
closepath fill
1 setlinewidth
solid
0 0 0 edgecolor
newpath 35.9002 81.2408 moveto
33.4043 91.5374 lineto
41.7765 85.0446 lineto
closepath stroke
grestore
endpage
showpage
grestore
%%PageTrailer
%%EndPage: 1
%%Trailer
%%Pages: 1
%%BoundingBox: 36 36 243 248
end
restore
%%EOF
