%!PS-Adobe-3.0
%%Creator: graphviz version 2.43.0 (0)
%%Title: CORE API
%%Pages: (atend)
%%BoundingBox: (atend)
%%EndComments
save
%%BeginProlog
/DotDict 200 dict def
DotDict begin

/setupLatin1 {
mark
/EncodingVector 256 array def
 EncodingVector 0

ISOLatin1Encoding 0 255 getinterval putinterval
EncodingVector 45 /hyphen put

% Set up ISO Latin 1 character encoding
/starnetISO {
        dup dup findfont dup length dict begin
        { 1 index /FID ne { def }{ pop pop } ifelse
        } forall
        /Encoding EncodingVector def
        currentdict end definefont
} def
/Times-Roman starnetISO def
/Times-Italic starnetISO def
/Times-Bold starnetISO def
/Times-BoldItalic starnetISO def
/Helvetica starnetISO def
/Helvetica-Oblique starnetISO def
/Helvetica-Bold starnetISO def
/Helvetica-BoldOblique starnetISO def
/Courier starnetISO def
/Courier-Oblique starnetISO def
/Courier-Bold starnetISO def
/Courier-BoldOblique starnetISO def
cleartomark
} bind def

%%BeginResource: procset graphviz 0 0
/coord-font-family /Times-Roman def
/default-font-family /Times-Roman def
/coordfont coord-font-family findfont 8 scalefont def

/InvScaleFactor 1.0 def
/set_scale {
       dup 1 exch div /InvScaleFactor exch def
       scale
} bind def

% styles
/solid { [] 0 setdash } bind def
/dashed { [9 InvScaleFactor mul dup ] 0 setdash } bind def
/dotted { [1 InvScaleFactor mul 6 InvScaleFactor mul] 0 setdash } bind def
/invis {/fill {newpath} def /stroke {newpath} def /show {pop newpath} def} bind def
/bold { 2 setlinewidth } bind def
/filled { } bind def
/unfilled { } bind def
/rounded { } bind def
/diagonals { } bind def
/tapered { } bind def

% hooks for setting color 
/nodecolor { sethsbcolor } bind def
/edgecolor { sethsbcolor } bind def
/graphcolor { sethsbcolor } bind def
/nopcolor {pop pop pop} bind def

/beginpage {	% i j npages
	/npages exch def
	/j exch def
	/i exch def
	/str 10 string def
	npages 1 gt {
		gsave
			coordfont setfont
			0 0 moveto
			(\() show i str cvs show (,) show j str cvs show (\)) show
		grestore
	} if
} bind def

/set_font {
	findfont exch
	scalefont setfont
} def

% draw text fitted to its expected width
/alignedtext {			% width text
	/text exch def
	/width exch def
	gsave
		width 0 gt {
			[] 0 setdash
			text stringwidth pop width exch sub text length div 0 text ashow
		} if
	grestore
} def

/boxprim {				% xcorner ycorner xsize ysize
		4 2 roll
		moveto
		2 copy
		exch 0 rlineto
		0 exch rlineto
		pop neg 0 rlineto
		closepath
} bind def

/ellipse_path {
	/ry exch def
	/rx exch def
	/y exch def
	/x exch def
	matrix currentmatrix
	newpath
	x y translate
	rx ry scale
	0 0 1 0 360 arc
	setmatrix
} bind def

/endpage { showpage } bind def
/showpage { } def

/layercolorseq
	[	% layer color sequence - darkest to lightest
		[0 0 0]
		[.2 .8 .8]
		[.4 .8 .8]
		[.6 .8 .8]
		[.8 .8 .8]
	]
def

/layerlen layercolorseq length def

/setlayer {/maxlayer exch def /curlayer exch def
	layercolorseq curlayer 1 sub layerlen mod get
	aload pop sethsbcolor
	/nodecolor {nopcolor} def
	/edgecolor {nopcolor} def
	/graphcolor {nopcolor} def
} bind def

/onlayer { curlayer ne {invis} if } def

/onlayers {
	/myupper exch def
	/mylower exch def
	curlayer mylower lt
	curlayer myupper gt
	or
	{invis} if
} def

/curlayer 0 def

%%EndResource
%%EndProlog
%%BeginSetup
14 default-font-family set_font
% /arrowlength 10 def
% /arrowwidth 5 def

% make sure pdfmark is harmless for PS-interpreters other than Distiller
/pdfmark where {pop} {userdict /pdfmark /cleartomark load put} ifelse
% make '<<' and '>>' safe on PS Level 1 devices
/languagelevel where {pop languagelevel}{1} ifelse
2 lt {
    userdict (<<) cvn ([) cvn load put
    userdict (>>) cvn ([) cvn load put
} if

%%EndSetup
setupLatin1
%%Page: 1 1
%%PageBoundingBox: 36 36 238 322
%%PageOrientation: Portrait
0 0 1 beginpage
gsave
36 36 202 286 boxprim clip newpath
1 1 set_scale 0 rotate 40 40 translate
% Node8
gsave
[ /Rect [ 105.5 259 186.5 278 ]
  /Border [ 0 0 0 ]
  /Action << /Subtype /URI /URI ($group__m17nTextProperty.html) >>
  /Subtype /Link
/ANN pdfmark
0 0 1 nodecolor
newpath 186.5 278 moveto
105.5 278 lineto
105.5 259 lineto
186.5 259 lineto
closepath fill
1 setlinewidth
filled
0 0 0 nodecolor
newpath 186.5 278 moveto
105.5 278 lineto
105.5 259 lineto
186.5 259 lineto
closepath stroke
0 0 0 nodecolor
10 /Helvetica set_font
113.5 266 moveto 65 (Text Property) alignedtext
grestore
% Node5
gsave
[ /Rect [ 114 222 178 241 ]
  /Border [ 0 0 0 ]
  /Action << /Subtype /URI /URI ($group__m17nCharacter.html) >>
  /Subtype /Link
/ANN pdfmark
0 0 1 nodecolor
newpath 178 241 moveto
114 241 lineto
114 222 lineto
178 222 lineto
closepath fill
1 setlinewidth
filled
0 0 0 nodecolor
newpath 178 241 moveto
114 241 lineto
114 222 lineto
178 222 lineto
closepath stroke
0 0 0 nodecolor
10 /Helvetica set_font
122 229 moveto 48 (Character) alignedtext
grestore
% Node3
gsave
[ /Rect [ 119.5 185 172.5 204 ]
  /Border [ 0 0 0 ]
  /Action << /Subtype /URI /URI ($group__m17nSymbol.html) >>
  /Subtype /Link
/ANN pdfmark
0 0 1 nodecolor
newpath 172.5 204 moveto
119.5 204 lineto
119.5 185 lineto
172.5 185 lineto
closepath fill
1 setlinewidth
filled
0 0 0 nodecolor
newpath 172.5 204 moveto
119.5 204 lineto
119.5 185 lineto
172.5 185 lineto
closepath stroke
0 0 0 nodecolor
10 /Helvetica set_font
127.5 192 moveto 37 (Symbol) alignedtext
grestore
% Node6
gsave
[ /Rect [ 114 148 178 167 ]
  /Border [ 0 0 0 ]
  /Action << /Subtype /URI /URI ($group__m17nChartable.html) >>
  /Subtype /Link
/ANN pdfmark
0 0 1 nodecolor
newpath 178 167 moveto
114 167 lineto
114 148 lineto
178 148 lineto
closepath fill
1 setlinewidth
filled
0 0 0 nodecolor
newpath 178 167 moveto
114 167 lineto
114 148 lineto
178 148 lineto
closepath stroke
0 0 0 nodecolor
10 /Helvetica set_font
122 155 moveto 48 (Chartable) alignedtext
grestore
% Node1
gsave
0 0 0.74902 nodecolor
newpath 62 148 moveto
0 148 lineto
0 129 lineto
62 129 lineto
closepath fill
1 setlinewidth
filled
0 0 0 nodecolor
newpath 62 148 moveto
0 148 lineto
0 129 lineto
62 129 lineto
closepath stroke
0 0 0 nodecolor
10 /Helvetica set_font
8 136 moveto 46 (CORE API) alignedtext
grestore
% Node1->Node8
gsave
1 setlinewidth
solid
0 0 0 edgecolor
newpath 38.7114 157.7133 moveto
48.2511 182.4056 67.9775 225.1085 98 250.5 curveto
102.0029 253.8855 106.7113 256.6728 111.5745 258.9563 curveto
stroke
0 0 0 edgecolor
newpath 41.8908 156.2189 moveto
35.1452 148.0489 lineto
35.3236 158.6423 lineto
closepath fill
1 setlinewidth
solid
0 0 0 edgecolor
newpath 41.8908 156.2189 moveto
35.1452 148.0489 lineto
35.3236 158.6423 lineto
closepath stroke
grestore
% Node1->Node5
gsave
1 setlinewidth
solid
0 0 0 edgecolor
newpath 43.9595 156.5207 moveto
55.8984 173.2898 75.6492 197.9635 98 213.5 curveto
102.7352 216.7916 108.1528 219.5823 113.5862 221.9117 curveto
stroke
0 0 0 edgecolor
newpath 46.7255 154.3665 moveto
38.1636 148.1259 lineto
40.9651 158.3437 lineto
closepath fill
1 setlinewidth
solid
0 0 0 edgecolor
newpath 46.7255 154.3665 moveto
38.1636 148.1259 lineto
40.9651 158.3437 lineto
closepath stroke
grestore
% Node1->Node3
gsave
1 setlinewidth
solid
0 0 0 edgecolor
newpath 55.8581 153.4469 moveto
68.1911 160.8599 83.6335 169.6649 98 176.5 curveto
104.7856 179.7284 112.3162 182.819 119.3256 185.5002 curveto
stroke
0 0 0 edgecolor
newpath 57.4621 150.3255 moveto
47.1025 148.1051 lineto
53.8163 156.3012 lineto
closepath fill
1 setlinewidth
solid
0 0 0 edgecolor
newpath 57.4621 150.3255 moveto
47.1025 148.1051 lineto
53.8163 156.3012 lineto
closepath stroke
grestore
% Node1->Node6
gsave
1 setlinewidth
solid
0 0 0 edgecolor
newpath 72.3868 145.2907 moveto
86.0265 147.5841 101.0335 150.1074 113.8465 152.2618 curveto
stroke
0 0 0 edgecolor
newpath 72.7239 141.7983 moveto
62.2819 143.5917 lineto
71.5631 148.7014 lineto
closepath fill
1 setlinewidth
solid
0 0 0 edgecolor
newpath 72.7239 141.7983 moveto
62.2819 143.5917 lineto
71.5631 148.7014 lineto
closepath stroke
grestore
% Node7
gsave
[ /Rect [ 121.5 111 170.5 130 ]
  /Border [ 0 0 0 ]
  /Action << /Subtype /URI /URI ($group__m17nMtext.html) >>
  /Subtype /Link
/ANN pdfmark
0 0 1 nodecolor
newpath 170.5 130 moveto
121.5 130 lineto
121.5 111 lineto
170.5 111 lineto
closepath fill
1 setlinewidth
filled
0 0 0 nodecolor
newpath 170.5 130 moveto
121.5 130 lineto
121.5 111 lineto
170.5 111 lineto
closepath stroke
0 0 0 nodecolor
10 /Helvetica set_font
129.5 118 moveto 33 (M-text) alignedtext
grestore
% Node1->Node7
gsave
1 setlinewidth
solid
0 0 0 edgecolor
newpath 72.229 132.0918 moveto
88.7145 129.4658 107.2205 126.518 121.4448 124.2522 curveto
stroke
0 0 0 edgecolor
newpath 71.6068 128.6467 moveto
62.2819 133.6763 lineto
72.708 135.5596 lineto
closepath fill
1 setlinewidth
solid
0 0 0 edgecolor
newpath 71.6068 128.6467 moveto
62.2819 133.6763 lineto
72.708 135.5596 lineto
closepath stroke
grestore
% Node9
gsave
[ /Rect [ 114.5 74 177.5 93 ]
  /Border [ 0 0 0 ]
  /Action << /Subtype /URI /URI ($group__m17nDatabase.html) >>
  /Subtype /Link
/ANN pdfmark
0 0 1 nodecolor
newpath 177.5 93 moveto
114.5 93 lineto
114.5 74 lineto
177.5 74 lineto
closepath fill
1 setlinewidth
filled
0 0 0 nodecolor
newpath 177.5 93 moveto
114.5 93 lineto
114.5 74 lineto
177.5 74 lineto
closepath stroke
0 0 0 nodecolor
10 /Helvetica set_font
122.5 81 moveto 47 (Database) alignedtext
grestore
% Node1->Node9
gsave
1 setlinewidth
solid
0 0 0 edgecolor
newpath 56.9898 123.9844 moveto
69.1868 117.1288 84.1785 109.0366 98 102.5 curveto
105.0016 99.1887 112.7433 95.9089 119.8889 93.03 curveto
stroke
0 0 0 edgecolor
newpath 55.2369 120.9549 moveto
48.2731 128.9396 lineto
58.6963 127.0403 lineto
closepath fill
1 setlinewidth
solid
0 0 0 edgecolor
newpath 55.2369 120.9549 moveto
48.2731 128.9396 lineto
58.6963 127.0403 lineto
closepath stroke
grestore
% Node4
gsave
[ /Rect [ 107 37 185 56 ]
  /Border [ 0 0 0 ]
  /Action << /Subtype /URI /URI ($group__m17nPlist.html) >>
  /Subtype /Link
/ANN pdfmark
0 0 1 nodecolor
newpath 185 56 moveto
107 56 lineto
107 37 lineto
185 37 lineto
closepath fill
1 setlinewidth
filled
0 0 0 nodecolor
newpath 185 56 moveto
107 56 lineto
107 37 lineto
185 37 lineto
closepath stroke
0 0 0 nodecolor
10 /Helvetica set_font
115 44 moveto 62 (Property List) alignedtext
grestore
% Node1->Node4
gsave
1 setlinewidth
solid
0 0 0 edgecolor
newpath 44.5185 120.5397 moveto
56.6133 104.3071 76.2578 80.6942 98 65.5 curveto
103.1942 61.8701 109.1845 58.7791 115.1121 56.211 curveto
stroke
0 0 0 edgecolor
newpath 41.6409 118.546 moveto
38.6105 128.6982 lineto
47.3105 122.6517 lineto
closepath fill
1 setlinewidth
solid
0 0 0 edgecolor
newpath 41.6409 118.546 moveto
38.6105 128.6982 lineto
47.3105 122.6517 lineto
closepath stroke
grestore
% Node2
gsave
[ /Rect [ 98 0 194 19 ]
  /Border [ 0 0 0 ]
  /Action << /Subtype /URI /URI ($group__m17nObject.html) >>
  /Subtype /Link
/ANN pdfmark
0 0 1 nodecolor
newpath 194 19 moveto
98 19 lineto
98 0 lineto
194 0 lineto
closepath fill
1 setlinewidth
filled
0 0 0 nodecolor
newpath 194 19 moveto
98 19 lineto
98 0 lineto
194 0 lineto
closepath stroke
0 0 0 nodecolor
10 /Helvetica set_font
106 7 moveto 80 (Managed Object) alignedtext
grestore
% Node1->Node2
gsave
1 setlinewidth
solid
0 0 0 edgecolor
newpath 39.0199 119.3496 moveto
48.7885 95.1348 68.654 53.5849 98 28.5 curveto
102.4155 24.7256 107.6782 21.6346 113.0578 19.1253 curveto
stroke
0 0 0 edgecolor
newpath 35.688 118.2619 moveto
35.3485 128.8513 lineto
42.2176 120.7849 lineto
closepath fill
1 setlinewidth
solid
0 0 0 edgecolor
newpath 35.688 118.2619 moveto
35.3485 128.8513 lineto
42.2176 120.7849 lineto
closepath stroke
grestore
endpage
showpage
grestore
%%PageTrailer
%%EndPage: 1
%%Trailer
%%Pages: 1
%%BoundingBox: 36 36 238 322
end
restore
%%EOF
