%!PS-Adobe-3.0
%%Creator: graphviz version 2.43.0 (0)
%%Title: m17n-gui.h
%%Pages: (atend)
%%BoundingBox: (atend)
%%EndComments
save
%%BeginProlog
/DotDict 200 dict def
DotDict begin

/setupLatin1 {
mark
/EncodingVector 256 array def
 EncodingVector 0

ISOLatin1Encoding 0 255 getinterval putinterval
EncodingVector 45 /hyphen put

% Set up ISO Latin 1 character encoding
/starnetISO {
        dup dup findfont dup length dict begin
        { 1 index /FID ne { def }{ pop pop } ifelse
        } forall
        /Encoding EncodingVector def
        currentdict end definefont
} def
/Times-Roman starnetISO def
/Times-Italic starnetISO def
/Times-Bold starnetISO def
/Times-BoldItalic starnetISO def
/Helvetica starnetISO def
/Helvetica-Oblique starnetISO def
/Helvetica-Bold starnetISO def
/Helvetica-BoldOblique starnetISO def
/Courier starnetISO def
/Courier-Oblique starnetISO def
/Courier-Bold starnetISO def
/Courier-BoldOblique starnetISO def
cleartomark
} bind def

%%BeginResource: procset graphviz 0 0
/coord-font-family /Times-Roman def
/default-font-family /Times-Roman def
/coordfont coord-font-family findfont 8 scalefont def

/InvScaleFactor 1.0 def
/set_scale {
       dup 1 exch div /InvScaleFactor exch def
       scale
} bind def

% styles
/solid { [] 0 setdash } bind def
/dashed { [9 InvScaleFactor mul dup ] 0 setdash } bind def
/dotted { [1 InvScaleFactor mul 6 InvScaleFactor mul] 0 setdash } bind def
/invis {/fill {newpath} def /stroke {newpath} def /show {pop newpath} def} bind def
/bold { 2 setlinewidth } bind def
/filled { } bind def
/unfilled { } bind def
/rounded { } bind def
/diagonals { } bind def
/tapered { } bind def

% hooks for setting color 
/nodecolor { sethsbcolor } bind def
/edgecolor { sethsbcolor } bind def
/graphcolor { sethsbcolor } bind def
/nopcolor {pop pop pop} bind def

/beginpage {	% i j npages
	/npages exch def
	/j exch def
	/i exch def
	/str 10 string def
	npages 1 gt {
		gsave
			coordfont setfont
			0 0 moveto
			(\() show i str cvs show (,) show j str cvs show (\)) show
		grestore
	} if
} bind def

/set_font {
	findfont exch
	scalefont setfont
} def

% draw text fitted to its expected width
/alignedtext {			% width text
	/text exch def
	/width exch def
	gsave
		width 0 gt {
			[] 0 setdash
			text stringwidth pop width exch sub text length div 0 text ashow
		} if
	grestore
} def

/boxprim {				% xcorner ycorner xsize ysize
		4 2 roll
		moveto
		2 copy
		exch 0 rlineto
		0 exch rlineto
		pop neg 0 rlineto
		closepath
} bind def

/ellipse_path {
	/ry exch def
	/rx exch def
	/y exch def
	/x exch def
	matrix currentmatrix
	newpath
	x y translate
	rx ry scale
	0 0 1 0 360 arc
	setmatrix
} bind def

/endpage { showpage } bind def
/showpage { } def

/layercolorseq
	[	% layer color sequence - darkest to lightest
		[0 0 0]
		[.2 .8 .8]
		[.4 .8 .8]
		[.6 .8 .8]
		[.8 .8 .8]
	]
def

/layerlen layercolorseq length def

/setlayer {/maxlayer exch def /curlayer exch def
	layercolorseq curlayer 1 sub layerlen mod get
	aload pop sethsbcolor
	/nodecolor {nopcolor} def
	/edgecolor {nopcolor} def
	/graphcolor {nopcolor} def
} bind def

/onlayer { curlayer ne {invis} if } def

/onlayers {
	/myupper exch def
	/mylower exch def
	curlayer mylower lt
	curlayer myupper gt
	or
	{invis} if
} def

/curlayer 0 def

%%EndResource
%%EndProlog
%%BeginSetup
14 default-font-family set_font
% /arrowlength 10 def
% /arrowwidth 5 def

% make sure pdfmark is harmless for PS-interpreters other than Distiller
/pdfmark where {pop} {userdict /pdfmark /cleartomark load put} ifelse
% make '<<' and '>>' safe on PS Level 1 devices
/languagelevel where {pop languagelevel}{1} ifelse
2 lt {
    userdict (<<) cvn ([) cvn load put
    userdict (>>) cvn ([) cvn load put
} if

%%EndSetup
setupLatin1
%%Page: 1 1
%%PageBoundingBox: 36 36 328 176
%%PageOrientation: Portrait
0 0 1 beginpage
gsave
36 36 292 140 boxprim clip newpath
1 1 set_scale 0 rotate 40 40 translate
% Node1
gsave
0 0 0.74902 nodecolor
newpath 44 112.5 moveto
44 131.5 lineto
116 131.5 lineto
116 112.5 lineto
closepath fill
1 setlinewidth
filled
0 0 0 nodecolor
newpath 44 112.5 moveto
44 131.5 lineto
116 131.5 lineto
116 112.5 lineto
closepath stroke
0 0 0 nodecolor
10 /Helvetica set_font
52 119.5 moveto 56 (m17n-gui.h) alignedtext
grestore
% Node2
gsave
[ /Rect [ 7.5 56 74.5 76 ]
  /Border [ 0 0 0 ]
  /Action << /Subtype /URI /URI ($m17n-flt_8h.html) >>
  /Subtype /Link
/ANN pdfmark
0 0 1 nodecolor
newpath 7.5 56.5 moveto
7.5 75.5 lineto
74.5 75.5 lineto
74.5 56.5 lineto
closepath fill
1 setlinewidth
filled
0 0 0 nodecolor
newpath 7.5 56.5 moveto
7.5 75.5 lineto
74.5 75.5 lineto
74.5 56.5 lineto
closepath stroke
0 0 0 nodecolor
10 /Helvetica set_font
15.5 63.5 moveto 51 (m17n-flt.h) alignedtext
grestore
% Node1->Node2
gsave
1 setlinewidth
solid
0.66667 0.77647 0.43922 edgecolor
newpath 73.5599 112.083 moveto
68.0511 104.4554 59.9688 93.2645 53.235 83.9408 curveto
stroke
0.66667 0.77647 0.43922 edgecolor
newpath 56.0126 81.8087 moveto
47.3202 75.7511 lineto
50.3378 85.9071 lineto
closepath fill
1 setlinewidth
solid
0.66667 0.77647 0.43922 edgecolor
newpath 56.0126 81.8087 moveto
47.3202 75.7511 lineto
50.3378 85.9071 lineto
closepath stroke
grestore
% Node4
gsave
[ /Rect [ 94.5 56 147.5 76 ]
  /Border [ 0 0 0 ]
  /Action << /Subtype /URI /URI ($m17n_8h.html) >>
  /Subtype /Link
/ANN pdfmark
0 0 1 nodecolor
newpath 94.5 56.5 moveto
94.5 75.5 lineto
147.5 75.5 lineto
147.5 56.5 lineto
closepath fill
1 setlinewidth
filled
0 0 0 nodecolor
newpath 94.5 56.5 moveto
94.5 75.5 lineto
147.5 75.5 lineto
147.5 56.5 lineto
closepath stroke
0 0 0 nodecolor
10 /Helvetica set_font
102.5 63.5 moveto 37 (m17n.h) alignedtext
grestore
% Node1->Node4
gsave
1 setlinewidth
solid
0.66667 0.77647 0.43922 edgecolor
newpath 86.7703 112.083 moveto
92.5616 104.4554 101.0585 93.2645 108.1375 83.9408 curveto
stroke
0.66667 0.77647 0.43922 edgecolor
newpath 111.0961 85.8321 moveto
114.3557 75.7511 lineto
105.521 81.5991 lineto
closepath fill
1 setlinewidth
solid
0.66667 0.77647 0.43922 edgecolor
newpath 111.0961 85.8321 moveto
114.3557 75.7511 lineto
105.521 81.5991 lineto
closepath stroke
grestore
% Node3
gsave
[ /Rect [ 0 0 78 20 ]
  /Border [ 0 0 0 ]
  /Action << /Subtype /URI /URI ($m17n-core_8h.html) >>
  /Subtype /Link
/ANN pdfmark
0 0 1 nodecolor
newpath 0 .5 moveto
0 19.5 lineto
78 19.5 lineto
78 .5 lineto
closepath fill
1 setlinewidth
filled
0 0 0 nodecolor
newpath 0 .5 moveto
0 19.5 lineto
78 19.5 lineto
78 .5 lineto
closepath stroke
0 0 0 nodecolor
10 /Helvetica set_font
8 7.5 moveto 62 (m17n-core.h) alignedtext
grestore
% Node2->Node3
gsave
1 setlinewidth
solid
0.66667 0.77647 0.43922 edgecolor
newpath 40.6697 56.083 moveto
40.4076 49.0059 40.0319 38.8611 39.7032 29.9865 curveto
stroke
0.66667 0.77647 0.43922 edgecolor
newpath 43.1919 29.6147 moveto
39.3241 19.7511 lineto
36.1967 29.8738 lineto
closepath fill
1 setlinewidth
solid
0.66667 0.77647 0.43922 edgecolor
newpath 43.1919 29.6147 moveto
39.3241 19.7511 lineto
36.1967 29.8738 lineto
closepath stroke
grestore
% Node4->Node3
gsave
1 setlinewidth
solid
0.66667 0.77647 0.43922 edgecolor
newpath 107.8253 56.324 moveto
95.1532 47.979 75.7666 35.2122 60.7944 25.3524 curveto
stroke
0.66667 0.77647 0.43922 edgecolor
newpath 62.4187 22.2313 moveto
52.142 19.6545 lineto
58.5688 28.0776 lineto
closepath fill
1 setlinewidth
solid
0.66667 0.77647 0.43922 edgecolor
newpath 62.4187 22.2313 moveto
52.142 19.6545 lineto
58.5688 28.0776 lineto
closepath stroke
grestore
% Node5
gsave
0 0 1 nodecolor
newpath 96 .5 moveto
96 19.5 lineto
146 19.5 lineto
146 .5 lineto
closepath fill
1 setlinewidth
filled
0 0 0.74902 nodecolor
newpath 96 .5 moveto
96 19.5 lineto
146 19.5 lineto
146 .5 lineto
closepath stroke
0 0 0 nodecolor
10 /Helvetica set_font
104 7.5 moveto 34 (stdio.h) alignedtext
grestore
% Node4->Node5
gsave
1 setlinewidth
solid
0.66667 0.77647 0.43922 edgecolor
newpath 121 56.083 moveto
121 49.0059 121 38.8611 121 29.9865 curveto
stroke
0.66667 0.77647 0.43922 edgecolor
newpath 124.5001 29.751 moveto
121 19.7511 lineto
117.5001 29.7511 lineto
closepath fill
1 setlinewidth
solid
0.66667 0.77647 0.43922 edgecolor
newpath 124.5001 29.751 moveto
121 19.7511 lineto
117.5001 29.7511 lineto
closepath stroke
grestore
% Node6
gsave
0 0 1 nodecolor
newpath 164.5 .5 moveto
164.5 19.5 lineto
217.5 19.5 lineto
217.5 .5 lineto
closepath fill
1 setlinewidth
filled
0 0 0.74902 nodecolor
newpath 164.5 .5 moveto
164.5 19.5 lineto
217.5 19.5 lineto
217.5 .5 lineto
closepath stroke
0 0 0 nodecolor
10 /Helvetica set_font
172.5 7.5 moveto 37 (stdlib.h) alignedtext
grestore
% Node4->Node6
gsave
1 setlinewidth
solid
0.66667 0.77647 0.43922 edgecolor
newpath 132.2467 56.324 moveto
142.7974 48.1849 158.8007 35.8395 171.4422 26.0874 curveto
stroke
0.66667 0.77647 0.43922 edgecolor
newpath 173.7686 28.7132 moveto
179.5487 19.8339 lineto
169.493 23.1707 lineto
closepath fill
1 setlinewidth
solid
0.66667 0.77647 0.43922 edgecolor
newpath 173.7686 28.7132 moveto
179.5487 19.8339 lineto
169.493 23.1707 lineto
closepath stroke
grestore
% Node7
gsave
0 0 1 nodecolor
newpath 236 .5 moveto
236 19.5 lineto
284 19.5 lineto
284 .5 lineto
closepath fill
1 setlinewidth
filled
0 0 0.74902 nodecolor
newpath 236 .5 moveto
236 19.5 lineto
284 19.5 lineto
284 .5 lineto
closepath stroke
0 0 0 nodecolor
10 /Helvetica set_font
244 7.5 moveto 32 (time.h) alignedtext
grestore
% Node4->Node7
gsave
1 setlinewidth
solid
0.66667 0.77647 0.43922 edgecolor
newpath 143.025 56.4435 moveto
166.104 47.4776 202.562 33.314 228.6409 23.1827 curveto
stroke
0.66667 0.77647 0.43922 edgecolor
newpath 230.0242 26.4002 moveto
238.0781 19.5164 lineto
227.4893 19.8753 lineto
closepath fill
1 setlinewidth
solid
0.66667 0.77647 0.43922 edgecolor
newpath 230.0242 26.4002 moveto
238.0781 19.5164 lineto
227.4893 19.8753 lineto
closepath stroke
grestore
endpage
showpage
grestore
%%PageTrailer
%%EndPage: 1
%%Trailer
%%Pages: 1
%%BoundingBox: 36 36 328 176
end
restore
%%EOF
