%!PS-Adobe-3.0
%%Creator: graphviz version 2.43.0 (0)
%%Title: MGlyphString
%%Pages: (atend)
%%BoundingBox: (atend)
%%EndComments
save
%%BeginProlog
/DotDict 200 dict def
DotDict begin

/setupLatin1 {
mark
/EncodingVector 256 array def
 EncodingVector 0

ISOLatin1Encoding 0 255 getinterval putinterval
EncodingVector 45 /hyphen put

% Set up ISO Latin 1 character encoding
/starnetISO {
        dup dup findfont dup length dict begin
        { 1 index /FID ne { def }{ pop pop } ifelse
        } forall
        /Encoding EncodingVector def
        currentdict end definefont
} def
/Times-Roman starnetISO def
/Times-Italic starnetISO def
/Times-Bold starnetISO def
/Times-BoldItalic starnetISO def
/Helvetica starnetISO def
/Helvetica-Oblique starnetISO def
/Helvetica-Bold starnetISO def
/Helvetica-BoldOblique starnetISO def
/Courier starnetISO def
/Courier-Oblique starnetISO def
/Courier-Bold starnetISO def
/Courier-BoldOblique starnetISO def
cleartomark
} bind def

%%BeginResource: procset graphviz 0 0
/coord-font-family /Times-Roman def
/default-font-family /Times-Roman def
/coordfont coord-font-family findfont 8 scalefont def

/InvScaleFactor 1.0 def
/set_scale {
       dup 1 exch div /InvScaleFactor exch def
       scale
} bind def

% styles
/solid { [] 0 setdash } bind def
/dashed { [9 InvScaleFactor mul dup ] 0 setdash } bind def
/dotted { [1 InvScaleFactor mul 6 InvScaleFactor mul] 0 setdash } bind def
/invis {/fill {newpath} def /stroke {newpath} def /show {pop newpath} def} bind def
/bold { 2 setlinewidth } bind def
/filled { } bind def
/unfilled { } bind def
/rounded { } bind def
/diagonals { } bind def
/tapered { } bind def

% hooks for setting color 
/nodecolor { sethsbcolor } bind def
/edgecolor { sethsbcolor } bind def
/graphcolor { sethsbcolor } bind def
/nopcolor {pop pop pop} bind def

/beginpage {	% i j npages
	/npages exch def
	/j exch def
	/i exch def
	/str 10 string def
	npages 1 gt {
		gsave
			coordfont setfont
			0 0 moveto
			(\() show i str cvs show (,) show j str cvs show (\)) show
		grestore
	} if
} bind def

/set_font {
	findfont exch
	scalefont setfont
} def

% draw text fitted to its expected width
/alignedtext {			% width text
	/text exch def
	/width exch def
	gsave
		width 0 gt {
			[] 0 setdash
			text stringwidth pop width exch sub text length div 0 text ashow
		} if
	grestore
} def

/boxprim {				% xcorner ycorner xsize ysize
		4 2 roll
		moveto
		2 copy
		exch 0 rlineto
		0 exch rlineto
		pop neg 0 rlineto
		closepath
} bind def

/ellipse_path {
	/ry exch def
	/rx exch def
	/y exch def
	/x exch def
	matrix currentmatrix
	newpath
	x y translate
	rx ry scale
	0 0 1 0 360 arc
	setmatrix
} bind def

/endpage { showpage } bind def
/showpage { } def

/layercolorseq
	[	% layer color sequence - darkest to lightest
		[0 0 0]
		[.2 .8 .8]
		[.4 .8 .8]
		[.6 .8 .8]
		[.8 .8 .8]
	]
def

/layerlen layercolorseq length def

/setlayer {/maxlayer exch def /curlayer exch def
	layercolorseq curlayer 1 sub layerlen mod get
	aload pop sethsbcolor
	/nodecolor {nopcolor} def
	/edgecolor {nopcolor} def
	/graphcolor {nopcolor} def
} bind def

/onlayer { curlayer ne {invis} if } def

/onlayers {
	/myupper exch def
	/mylower exch def
	curlayer mylower lt
	curlayer myupper gt
	or
	{invis} if
} def

/curlayer 0 def

%%EndResource
%%EndProlog
%%BeginSetup
14 default-font-family set_font
% /arrowlength 10 def
% /arrowwidth 5 def

% make sure pdfmark is harmless for PS-interpreters other than Distiller
/pdfmark where {pop} {userdict /pdfmark /cleartomark load put} ifelse
% make '<<' and '>>' safe on PS Level 1 devices
/languagelevel where {pop languagelevel}{1} ifelse
2 lt {
    userdict (<<) cvn ([) cvn load put
    userdict (>>) cvn ([) cvn load put
} if

%%EndSetup
setupLatin1
%%Page: 1 1
%%PageBoundingBox: 36 36 870 639
%%PageOrientation: Portrait
0 0 1 beginpage
gsave
36 36 834 603 boxprim clip newpath
1 1 set_scale 0 rotate 40 40 translate
% Node1
gsave
0 0 0.74902 nodecolor
newpath 133.5 1.5 moveto
133.5 20.5 lineto
216.5 20.5 lineto
216.5 1.5 lineto
closepath fill
1 setlinewidth
filled
0 0 0 nodecolor
newpath 133.5 1.5 moveto
133.5 20.5 lineto
216.5 20.5 lineto
216.5 1.5 lineto
closepath stroke
0 0 0 nodecolor
10 /Helvetica set_font
141.5 8.5 moveto 67 (MGlyphString) alignedtext
grestore
% Node1->Node1
gsave
1 setlinewidth
dashed
0.77647 0.75294 0.80392 edgecolor
newpath 226.819 16.0661 moveto
231.5342 15.0129 234.5 13.3242 234.5 11 curveto
234.5 7.2813 226.9076 5.1895 216.7052 4.7246 curveto
stroke
0.77647 0.75294 0.80392 edgecolor
newpath 226.2189 12.6128 moveto
216.7052 17.2754 lineto
227.05 19.5633 lineto
closepath fill
1 setlinewidth
solid
0.77647 0.75294 0.80392 edgecolor
newpath 226.2189 12.6128 moveto
216.7052 17.2754 lineto
227.05 19.5633 lineto
closepath stroke
0 0 0 edgecolor
10 /Helvetica set_font
234.5 14 moveto 25 ( next) alignedtext
0 0 0 edgecolor
10 /Helvetica set_font
239 3 moveto 16 (top) alignedtext
grestore
% Node2
gsave
[ /Rect [ 0 69 86 89 ]
  /Border [ 0 0 0 ]
  /Action << /Subtype /URI /URI ($structMDrawControl.html) >>
  /Subtype /Link
/ANN pdfmark
0 0 1 nodecolor
newpath 0 69.5 moveto
0 88.5 lineto
86 88.5 lineto
86 69.5 lineto
closepath fill
1 setlinewidth
filled
0 0 0 nodecolor
newpath 0 69.5 moveto
0 88.5 lineto
86 88.5 lineto
86 69.5 lineto
closepath stroke
0 0 0 nodecolor
10 /Helvetica set_font
8 76.5 moveto 70 (MDrawControl) alignedtext
grestore
% Node2->Node1
gsave
1 setlinewidth
dashed
0.77647 0.75294 0.80392 edgecolor
newpath 48.9015 59.7342 moveto
52.0473 52.6305 56.6178 45.0113 63 40 curveto
82.9415 24.342 110.5228 17.3216 133.3244 14.2257 curveto
stroke
0.77647 0.75294 0.80392 edgecolor
newpath 45.5073 58.817 moveto
45.2672 69.4091 lineto
52.0602 61.2787 lineto
closepath fill
1 setlinewidth
solid
0.77647 0.75294 0.80392 edgecolor
newpath 45.5073 58.817 moveto
45.2672 69.4091 lineto
52.0602 61.2787 lineto
closepath stroke
0 0 0 edgecolor
10 /Helvetica set_font
63 43 moveto 37 ( control) alignedtext
grestore
% Node3
gsave
[ /Rect [ 476 282 532 302 ]
  /Border [ 0 0 0 ]
  /Action << /Subtype /URI /URI ($structMFrame.html) >>
  /Subtype /Link
/ANN pdfmark
0 0 1 nodecolor
newpath 476 282.5 moveto
476 301.5 lineto
532 301.5 lineto
532 282.5 lineto
closepath fill
1 setlinewidth
filled
0 0 0 nodecolor
newpath 476 282.5 moveto
476 301.5 lineto
532 301.5 lineto
532 282.5 lineto
closepath stroke
0 0 0 nodecolor
10 /Helvetica set_font
484 289.5 moveto 40 (MFrame) alignedtext
grestore
% Node3->Node1
gsave
1 setlinewidth
dashed
0.77647 0.75294 0.80392 edgecolor
newpath 465.5739 286.6001 moveto
403.8438 278.8263 286.3297 260.8995 255 234 curveto
237.5922 219.0538 236 208.9438 236 186 curveto
236 186 236 186 236 78 curveto
236 51.6313 209.4158 31.3143 191.3469 20.5505 curveto
stroke
0.77647 0.75294 0.80392 edgecolor
newpath 465.347 290.0985 moveto
475.6999 287.8471 lineto
466.2027 283.151 lineto
closepath fill
1 setlinewidth
solid
0.77647 0.75294 0.80392 edgecolor
newpath 465.347 290.0985 moveto
475.6999 287.8471 lineto
466.2027 283.151 lineto
closepath stroke
0 0 0 edgecolor
10 /Helvetica set_font
236 143.5 moveto 33 ( frame) alignedtext
grestore
% Node10
gsave
[ /Rect [ 379.5 136 468.5 156 ]
  /Border [ 0 0 0 ]
  /Action << /Subtype /URI /URI ($structMRealizedFace.html) >>
  /Subtype /Link
/ANN pdfmark
0 0 1 nodecolor
newpath 379.5 136.5 moveto
379.5 155.5 lineto
468.5 155.5 lineto
468.5 136.5 lineto
closepath fill
1 setlinewidth
filled
0 0 0 nodecolor
newpath 379.5 136.5 moveto
379.5 155.5 lineto
468.5 155.5 lineto
468.5 136.5 lineto
closepath stroke
0 0 0 nodecolor
10 /Helvetica set_font
387.5 143.5 moveto 73 (MRealizedFace) alignedtext
grestore
% Node3->Node10
gsave
1 setlinewidth
dashed
0.77647 0.75294 0.80392 edgecolor
newpath 512.7999 272.692 moveto
519.2288 256.5991 525.4739 232.87 517 214 curveto
503.7938 184.5919 470.0597 165.5732 447.0668 155.5713 curveto
stroke
0.77647 0.75294 0.80392 edgecolor
newpath 509.5127 271.473 moveto
508.7015 282.0368 lineto
515.9233 274.2846 lineto
closepath fill
1 setlinewidth
solid
0.77647 0.75294 0.80392 edgecolor
newpath 509.5127 271.473 moveto
508.7015 282.0368 lineto
515.9233 274.2846 lineto
closepath stroke
0 0 0 edgecolor
10 /Helvetica set_font
521 221.5 moveto 33 ( frame) alignedtext
grestore
% Node12
gsave
[ /Rect [ 657.5 214 746.5 234 ]
  /Border [ 0 0 0 ]
  /Action << /Subtype /URI /URI ($structMRealizedFont.html) >>
  /Subtype /Link
/ANN pdfmark
0 0 1 nodecolor
newpath 657.5 214.5 moveto
657.5 233.5 lineto
746.5 233.5 lineto
746.5 214.5 lineto
closepath fill
1 setlinewidth
filled
0 0 0 nodecolor
newpath 657.5 214.5 moveto
657.5 233.5 lineto
746.5 233.5 lineto
746.5 214.5 lineto
closepath stroke
0 0 0 nodecolor
10 /Helvetica set_font
665.5 221.5 moveto 73 (MRealizedFont) alignedtext
grestore
% Node3->Node12
gsave
1 setlinewidth
dashed
0.77647 0.75294 0.80392 edgecolor
newpath 536.6955 278.8815 moveto
549.0901 274.1319 563.2772 268.507 576 263 curveto
586.3988 258.4989 588.3606 255.8986 599 252 curveto
619.4819 244.4948 642.9657 238.172 662.3325 233.5361 curveto
stroke
0.77647 0.75294 0.80392 edgecolor
newpath 535.3096 275.6638 moveto
527.2018 282.484 lineto
537.7931 282.2085 lineto
closepath fill
1 setlinewidth
solid
0.77647 0.75294 0.80392 edgecolor
newpath 535.3096 275.6638 moveto
527.2018 282.484 lineto
537.7931 282.2085 lineto
closepath stroke
0 0 0 edgecolor
10 /Helvetica set_font
599 255 moveto 33 ( frame) alignedtext
grestore
% Node4
gsave
[ /Rect [ 215.5 441 262.5 461 ]
  /Border [ 0 0 0 ]
  /Action << /Subtype /URI /URI ($structMPlist.html) >>
  /Subtype /Link
/ANN pdfmark
0 0 1 nodecolor
newpath 215.5 441.5 moveto
215.5 460.5 lineto
262.5 460.5 lineto
262.5 441.5 lineto
closepath fill
1 setlinewidth
filled
0 0 0 nodecolor
newpath 215.5 441.5 moveto
215.5 460.5 lineto
262.5 460.5 lineto
262.5 441.5 lineto
closepath stroke
0 0 0 nodecolor
10 /Helvetica set_font
223.5 448.5 moveto 31 (MPlist) alignedtext
grestore
% Node4->Node3
gsave
1 setlinewidth
dashed
0.77647 0.75294 0.80392 edgecolor
newpath 272.6462 445.998 moveto
311.8578 440.0117 377.237 425.8155 424 394 curveto
443.0492 381.0398 483.2429 323.5377 498.2168 301.5703 curveto
stroke
0.77647 0.75294 0.80392 edgecolor
newpath 271.9574 442.5609 moveto
262.5553 447.4448 lineto
272.9509 449.49 lineto
closepath fill
1 setlinewidth
solid
0.77647 0.75294 0.80392 edgecolor
newpath 271.9574 442.5609 moveto
262.5553 447.4448 lineto
272.9509 449.49 lineto
closepath stroke
0 0 0 edgecolor
10 /Helvetica set_font
473.5 386 moveto 77 ( font_driver_list) alignedtext
0 0 0 edgecolor
10 /Helvetica set_font
469 375 moveto 86 (realized_face_list) alignedtext
0 0 0 edgecolor
10 /Helvetica set_font
469.5 364 moveto 85 (realized_font_list) alignedtext
0 0 0 edgecolor
10 /Helvetica set_font
462 353 moveto 100 (realized_fontset_list) alignedtext
grestore
% Node4->Node4
gsave
1 setlinewidth
dashed
0.77647 0.75294 0.80392 edgecolor
newpath 273.0148 456.294 moveto
277.5146 455.3926 280.5 453.6279 280.5 451 curveto
280.5 446.6875 272.4604 444.6997 262.8819 445.0366 curveto
stroke
0.77647 0.75294 0.80392 edgecolor
newpath 272.6295 452.8118 moveto
262.8819 456.9634 lineto
273.0909 459.7965 lineto
closepath fill
1 setlinewidth
solid
0.77647 0.75294 0.80392 edgecolor
newpath 272.6295 452.8118 moveto
262.8819 456.9634 lineto
273.0909 459.7965 lineto
closepath stroke
0 0 0 edgecolor
10 /Helvetica set_font
280.5 448.5 moveto 25 ( next) alignedtext
grestore
% Node7
gsave
[ /Rect [ 215.5 362 262.5 382 ]
  /Border [ 0 0 0 ]
  /Action << /Subtype /URI /URI ($structMFace.html) >>
  /Subtype /Link
/ANN pdfmark
0 0 1 nodecolor
newpath 215.5 362.5 moveto
215.5 381.5 lineto
262.5 381.5 lineto
262.5 362.5 lineto
closepath fill
1 setlinewidth
filled
0 0 0 nodecolor
newpath 215.5 362.5 moveto
215.5 381.5 lineto
262.5 381.5 lineto
262.5 362.5 lineto
closepath stroke
0 0 0 nodecolor
10 /Helvetica set_font
223.5 369.5 moveto 31 (MFace) alignedtext
grestore
% Node4->Node7
gsave
1 setlinewidth
dashed
0.77647 0.75294 0.80392 edgecolor
newpath 239 431.3145 moveto
239 415.5917 239 393.8079 239 381.8094 curveto
stroke
0.77647 0.75294 0.80392 edgecolor
newpath 235.5001 431.4654 moveto
239 441.4655 lineto
242.5001 431.4655 lineto
closepath fill
1 setlinewidth
solid
0.77647 0.75294 0.80392 edgecolor
newpath 235.5001 431.4654 moveto
239 441.4655 lineto
242.5001 431.4655 lineto
closepath stroke
0 0 0 edgecolor
10 /Helvetica set_font
239 415 moveto 53 ( frame_list) alignedtext
grestore
% Node4->Node10
gsave
1 setlinewidth
dashed
0.77647 0.75294 0.80392 edgecolor
newpath 222.2578 433.8337 moveto
193.8813 404.3868 141.1667 339.6263 160 281 curveto
179.0936 221.5633 194.8423 201.269 251 174 curveto
291.4706 154.3483 342.9686 148.3947 379.2171 146.869 curveto
stroke
0.77647 0.75294 0.80392 edgecolor
newpath 220.0081 436.5356 moveto
229.5364 441.1684 lineto
224.9769 431.6048 lineto
closepath fill
1 setlinewidth
solid
0.77647 0.75294 0.80392 edgecolor
newpath 220.0081 436.5356 moveto
229.5364 441.1684 lineto
224.9769 431.6048 lineto
closepath stroke
0 0 0 edgecolor
10 /Helvetica set_font
160 295 moveto 73 ( base_face_list) alignedtext
0 0 0 edgecolor
10 /Helvetica set_font
163 284 moveto 67 (non_ascii_list) alignedtext
grestore
% Node5
gsave
[ /Rect [ 149.5 508 226.5 528 ]
  /Border [ 0 0 0 ]
  /Action << /Subtype /URI /URI ($structM17NObject.html) >>
  /Subtype /Link
/ANN pdfmark
0 0 1 nodecolor
newpath 149.5 508.5 moveto
149.5 527.5 lineto
226.5 527.5 lineto
226.5 508.5 lineto
closepath fill
1 setlinewidth
filled
0 0 0 nodecolor
newpath 149.5 508.5 moveto
149.5 527.5 lineto
226.5 527.5 lineto
226.5 508.5 lineto
closepath stroke
0 0 0 nodecolor
10 /Helvetica set_font
157.5 515.5 moveto 61 (M17NObject) alignedtext
grestore
% Node5->Node1
gsave
1 setlinewidth
dashed
0.77647 0.75294 0.80392 edgecolor
newpath 156.396 503.9133 moveto
136.2848 493.2537 114 476.0223 114 452 curveto
114 452 114 452 114 78 curveto
114 51.6313 140.5842 31.3143 158.6531 20.5505 curveto
stroke
0.77647 0.75294 0.80392 edgecolor
newpath 154.8785 507.0674 moveto
165.3955 508.3493 lineto
157.9734 500.7887 lineto
closepath fill
1 setlinewidth
solid
0.77647 0.75294 0.80392 edgecolor
newpath 154.8785 507.0674 moveto
165.3955 508.3493 lineto
157.9734 500.7887 lineto
closepath stroke
0 0 0 edgecolor
10 /Helvetica set_font
114 255 moveto 28 ( head) alignedtext
grestore
% Node5->Node3
gsave
1 setlinewidth
dashed
0.77647 0.75294 0.80392 edgecolor
newpath 236.7976 517.8139 moveto
320.4229 516.2282 489.4862 499.36 566 394 curveto
577.4911 378.1767 573.8612 367.9059 566 350 curveto
556.478 328.3113 534.1793 311.2466 519.0875 301.639 curveto
stroke
0.77647 0.75294 0.80392 edgecolor
newpath 236.5068 514.3171 moveto
226.5504 517.9393 lineto
236.5925 521.3166 lineto
closepath fill
1 setlinewidth
solid
0.77647 0.75294 0.80392 edgecolor
newpath 236.5068 514.3171 moveto
226.5504 517.9393 lineto
236.5925 521.3166 lineto
closepath stroke
0 0 0 edgecolor
10 /Helvetica set_font
550 415 moveto 37 ( control) alignedtext
grestore
% Node5->Node4
gsave
1 setlinewidth
dashed
0.77647 0.75294 0.80392 edgecolor
newpath 201.1263 500.2705 moveto
211.0699 487.5972 224.3269 470.701 232.2309 460.6273 curveto
stroke
0.77647 0.75294 0.80392 edgecolor
newpath 198.2974 498.2059 moveto
194.8781 508.2338 lineto
203.8046 502.5269 lineto
closepath fill
1 setlinewidth
solid
0.77647 0.75294 0.80392 edgecolor
newpath 198.2974 498.2059 moveto
194.8781 508.2338 lineto
203.8046 502.5269 lineto
closepath stroke
0 0 0 edgecolor
10 /Helvetica set_font
217 482 moveto 37 ( control) alignedtext
grestore
% Node5->Node7
gsave
1 setlinewidth
dashed
0.77647 0.75294 0.80392 edgecolor
newpath 177.2464 499.1691 moveto
169.2208 483.4408 160.9201 460.1138 169 441 curveto
180.2809 414.3141 207.724 392.9385 224.7042 381.6857 curveto
stroke
0.77647 0.75294 0.80392 edgecolor
newpath 174.3933 501.241 moveto
182.3058 508.2869 lineto
180.5142 497.8446 lineto
closepath fill
1 setlinewidth
solid
0.77647 0.75294 0.80392 edgecolor
newpath 174.3933 501.241 moveto
182.3058 508.2869 lineto
180.5142 497.8446 lineto
closepath stroke
0 0 0 edgecolor
10 /Helvetica set_font
169 448.5 moveto 37 ( control) alignedtext
grestore
% Node6
gsave
[ /Rect [ 133 575 243 595 ]
  /Border [ 0 0 0 ]
  /Action << /Subtype /URI /URI ($structM17NObjectRecord.html) >>
  /Subtype /Link
/ANN pdfmark
0 0 1 nodecolor
newpath 133 575.5 moveto
133 594.5 lineto
243 594.5 lineto
243 575.5 lineto
closepath fill
1 setlinewidth
filled
0 0 0 nodecolor
newpath 133 575.5 moveto
133 594.5 lineto
243 594.5 lineto
243 575.5 lineto
closepath stroke
0 0 0 nodecolor
10 /Helvetica set_font
141 582.5 moveto 94 (M17NObjectRecord) alignedtext
grestore
% Node6->Node5
gsave
1 setlinewidth
dashed
0.77647 0.75294 0.80392 edgecolor
newpath 188 565.037 moveto
188 552.6703 188 537.1198 188 527.6273 curveto
stroke
0.77647 0.75294 0.80392 edgecolor
newpath 184.5001 565.2338 moveto
188 575.2338 lineto
191.5001 565.2338 lineto
closepath fill
1 setlinewidth
solid
0.77647 0.75294 0.80392 edgecolor
newpath 184.5001 565.2338 moveto
188 575.2338 lineto
191.5001 565.2338 lineto
closepath stroke
0 0 0 edgecolor
10 /Helvetica set_font
188 549 moveto 34 ( record) alignedtext
grestore
% Node7->Node3
gsave
1 setlinewidth
dashed
0.77647 0.75294 0.80392 edgecolor
newpath 266.7119 358.335 moveto
291.9096 347.2235 330.3407 331.2776 365 321 curveto
402.7615 309.8025 447.618 301.6644 475.9501 297.1354 curveto
stroke
0.77647 0.75294 0.80392 edgecolor
newpath 265.1245 355.2106 moveto
257.4168 362.4798 lineto
267.9754 361.6038 lineto
closepath fill
1 setlinewidth
solid
0.77647 0.75294 0.80392 edgecolor
newpath 265.1245 355.2106 moveto
257.4168 362.4798 lineto
267.9754 361.6038 lineto
closepath stroke
0 0 0 edgecolor
10 /Helvetica set_font
365 324 moveto 25 ( face) alignedtext
grestore
% Node7->Node7
gsave
1 setlinewidth
dashed
0.77647 0.75294 0.80392 edgecolor
newpath 273.0148 379.2793 moveto
277.5146 378.0398 280.5 375.6134 280.5 372 curveto
280.5 366.0703 272.4604 363.3371 262.8819 363.8004 curveto
stroke
0.77647 0.75294 0.80392 edgecolor
newpath 272.5243 375.8093 moveto
262.8819 380.1996 lineto
273.1576 382.7806 lineto
closepath fill
1 setlinewidth
solid
0.77647 0.75294 0.80392 edgecolor
newpath 272.5243 375.8093 moveto
262.8819 380.1996 lineto
273.1576 382.7806 lineto
closepath stroke
0 0 0 edgecolor
10 /Helvetica set_font
280.5 369.5 moveto 28 ( hook) alignedtext
grestore
% Node7->Node10
gsave
1 setlinewidth
dashed
0.77647 0.75294 0.80392 edgecolor
newpath 243.8872 352.4622 moveto
247.8815 333.0195 250.8617 302.375 237 281 curveto
226.8319 265.3206 208.9933 278.7914 199 263 curveto
196.3857 258.8688 196.7108 256.3198 199 252 curveto
233.9188 186.1059 324.3957 161.3204 379.3938 152.1751 curveto
stroke
0.77647 0.75294 0.80392 edgecolor
newpath 240.4182 351.9252 moveto
241.538 362.4607 lineto
247.2326 353.5264 lineto
closepath fill
1 setlinewidth
solid
0.77647 0.75294 0.80392 edgecolor
newpath 240.4182 351.9252 moveto
241.538 362.4607 lineto
247.2326 353.5264 lineto
closepath stroke
0 0 0 edgecolor
10 /Helvetica set_font
199 255 moveto 25 ( face) alignedtext
grestore
% Node8
gsave
[ /Rect [ 326.5 362 415.5 382 ]
  /Border [ 0 0 0 ]
  /Action << /Subtype /URI /URI ($structMDeviceDriver.html) >>
  /Subtype /Link
/ANN pdfmark
0 0 1 nodecolor
newpath 326.5 362.5 moveto
326.5 381.5 lineto
415.5 381.5 lineto
415.5 362.5 lineto
closepath fill
1 setlinewidth
filled
0 0 0 nodecolor
newpath 326.5 362.5 moveto
326.5 381.5 lineto
415.5 381.5 lineto
415.5 362.5 lineto
closepath stroke
0 0 0 nodecolor
10 /Helvetica set_font
334.5 369.5 moveto 73 (MDeviceDriver) alignedtext
grestore
% Node8->Node3
gsave
1 setlinewidth
dashed
0.77647 0.75294 0.80392 edgecolor
newpath 379.4976 353.1816 moveto
385.4954 342.3985 394.5048 329.1924 406 321 curveto
426.6059 306.3146 454.7698 299.2988 475.6184 295.9664 curveto
stroke
0.77647 0.75294 0.80392 edgecolor
newpath 376.3247 351.6981 moveto
374.8512 362.19 lineto
382.5459 354.907 lineto
closepath fill
1 setlinewidth
solid
0.77647 0.75294 0.80392 edgecolor
newpath 376.3247 351.6981 moveto
374.8512 362.19 lineto
382.5459 354.907 lineto
closepath stroke
0 0 0 edgecolor
10 /Helvetica set_font
406 324 moveto 32 ( driver) alignedtext
grestore
% Node9
gsave
[ /Rect [ 653.5 362 700.5 382 ]
  /Border [ 0 0 0 ]
  /Action << /Subtype /URI /URI ($structMFont.html) >>
  /Subtype /Link
/ANN pdfmark
0 0 1 nodecolor
newpath 653.5 362.5 moveto
653.5 381.5 lineto
700.5 381.5 lineto
700.5 362.5 lineto
closepath fill
1 setlinewidth
filled
0 0 0 nodecolor
newpath 653.5 362.5 moveto
653.5 381.5 lineto
700.5 381.5 lineto
700.5 362.5 lineto
closepath stroke
0 0 0 nodecolor
10 /Helvetica set_font
661.5 369.5 moveto 31 (MFont) alignedtext
grestore
% Node9->Node3
gsave
1 setlinewidth
dashed
0.77647 0.75294 0.80392 edgecolor
newpath 656.3172 356.8387 moveto
639.7468 345.9559 615.6111 331.1208 593 321 curveto
573.3365 312.1986 550.0824 304.9849 532.276 300.0847 curveto
stroke
0.77647 0.75294 0.80392 edgecolor
newpath 654.4259 359.7844 moveto
664.6869 362.4231 lineto
658.3111 353.9615 lineto
closepath fill
1 setlinewidth
solid
0.77647 0.75294 0.80392 edgecolor
newpath 654.4259 359.7844 moveto
664.6869 362.4231 lineto
658.3111 353.9615 lineto
closepath stroke
0 0 0 edgecolor
10 /Helvetica set_font
614 324 moveto 23 ( font) alignedtext
grestore
% Node9->Node10
gsave
1 setlinewidth
dashed
0.77647 0.75294 0.80392 edgecolor
newpath 673.8071 352.2075 moveto
668.7218 327.0198 656.7206 282.0126 632 252 curveto
587.1223 197.5151 506.7816 168.5219 460.1757 155.5835 curveto
stroke
0.77647 0.75294 0.80392 edgecolor
newpath 670.4074 353.0696 moveto
675.6778 362.2605 lineto
677.2892 351.7889 lineto
closepath fill
1 setlinewidth
solid
0.77647 0.75294 0.80392 edgecolor
newpath 670.4074 353.0696 moveto
675.6778 362.2605 lineto
677.2892 351.7889 lineto
closepath stroke
0 0 0 edgecolor
10 /Helvetica set_font
639 255 moveto 23 ( font) alignedtext
grestore
% Node9->Node12
gsave
1 setlinewidth
dashed
0.77647 0.75294 0.80392 edgecolor
newpath 680.2327 352.121 moveto
685.6864 320.2716 696.509 257.0677 700.4872 233.8348 curveto
stroke
0.77647 0.75294 0.80392 edgecolor
newpath 676.727 351.857 moveto
678.489 362.3043 lineto
683.6266 353.0385 lineto
closepath fill
1 setlinewidth
solid
0.77647 0.75294 0.80392 edgecolor
newpath 676.727 351.857 moveto
678.489 362.3043 lineto
683.6266 353.0385 lineto
closepath stroke
0 0 0 edgecolor
10 /Helvetica set_font
692 295 moveto 23 ( font) alignedtext
0 0 0 edgecolor
10 /Helvetica set_font
692 284 moveto 23 (spec) alignedtext
grestore
% Node13
gsave
[ /Rect [ 723.5 136 800.5 156 ]
  /Border [ 0 0 0 ]
  /Action << /Subtype /URI /URI ($structMFontDriver.html) >>
  /Subtype /Link
/ANN pdfmark
0 0 1 nodecolor
newpath 723.5 136.5 moveto
723.5 155.5 lineto
800.5 155.5 lineto
800.5 136.5 lineto
closepath fill
1 setlinewidth
filled
0 0 0 nodecolor
newpath 723.5 136.5 moveto
723.5 155.5 lineto
800.5 155.5 lineto
800.5 136.5 lineto
closepath stroke
0 0 0 nodecolor
10 /Helvetica set_font
731.5 143.5 moveto 61 (MFontDriver) alignedtext
grestore
% Node9->Node13
gsave
1 setlinewidth
dashed
0.77647 0.75294 0.80392 edgecolor
newpath 697.452 356.0588 moveto
732.3281 328.9521 801.2631 267.7827 819 196 curveto
821.3455 186.5077 824.2287 182.2623 819 174 curveto
813.613 165.4874 804.7363 159.6062 795.5739 155.5645 curveto
stroke
0.77647 0.75294 0.80392 edgecolor
newpath 695.2135 353.3639 moveto
689.3709 362.2021 lineto
699.4499 358.9365 lineto
closepath fill
1 setlinewidth
solid
0.77647 0.75294 0.80392 edgecolor
newpath 695.2135 353.3639 moveto
689.3709 362.2021 lineto
699.4499 358.9365 lineto
closepath stroke
0 0 0 edgecolor
10 /Helvetica set_font
793 255 moveto 33 ( select) alignedtext
grestore
% Node10->Node3
gsave
1 setlinewidth
dashed
0.77647 0.75294 0.80392 edgecolor
newpath 440.1464 162.8591 moveto
443.5213 166.4204 446.9715 170.256 450 174 curveto
463.4892 190.6761 467.3723 194.8335 477 214 curveto
488.8273 237.5453 497.7211 267.5241 501.7007 282.1583 curveto
stroke
0.77647 0.75294 0.80392 edgecolor
newpath 442.5713 160.333 moveto
433.0711 155.6429 lineto
437.573 165.2337 lineto
closepath fill
1 setlinewidth
solid
0.77647 0.75294 0.80392 edgecolor
newpath 442.5713 160.333 moveto
433.0711 155.6429 lineto
437.573 165.2337 lineto
closepath stroke
0 0 0 edgecolor
10 /Helvetica set_font
485 221.5 moveto 28 ( rface) alignedtext
grestore
% Node10->Node10
gsave
1 setlinewidth
dashed
0.77647 0.75294 0.80392 edgecolor
newpath 478.8258 150.6871 moveto
483.5493 149.6913 486.5 148.1289 486.5 146 curveto
486.5 142.5938 478.9463 140.6378 468.6631 140.1322 curveto
stroke
0.77647 0.75294 0.80392 edgecolor
newpath 478.1924 147.2371 moveto
468.6631 151.8678 lineto
479.0003 154.1903 lineto
closepath fill
1 setlinewidth
solid
0.77647 0.75294 0.80392 edgecolor
newpath 478.1924 147.2371 moveto
468.6631 151.8678 lineto
479.0003 154.1903 lineto
closepath stroke
0 0 0 edgecolor
10 /Helvetica set_font
486.5 143.5 moveto 56 ( ascii_rface) alignedtext
grestore
% Node15
gsave
[ /Rect [ 397 69 451 89 ]
  /Border [ 0 0 0 ]
  /Action << /Subtype /URI /URI ($structMGlyph.html) >>
  /Subtype /Link
/ANN pdfmark
0 0 1 nodecolor
newpath 397 69.5 moveto
397 88.5 lineto
451 88.5 lineto
451 69.5 lineto
closepath fill
1 setlinewidth
filled
0 0 0 nodecolor
newpath 397 69.5 moveto
397 88.5 lineto
451 88.5 lineto
451 69.5 lineto
closepath stroke
0 0 0 nodecolor
10 /Helvetica set_font
405 76.5 moveto 38 (MGlyph) alignedtext
grestore
% Node10->Node15
gsave
1 setlinewidth
dashed
0.77647 0.75294 0.80392 edgecolor
newpath 424 126.037 moveto
424 113.6703 424 98.1198 424 88.6273 curveto
stroke
0.77647 0.75294 0.80392 edgecolor
newpath 420.5001 126.2338 moveto
424 136.2338 lineto
427.5001 126.2338 lineto
closepath fill
1 setlinewidth
solid
0.77647 0.75294 0.80392 edgecolor
newpath 420.5001 126.2338 moveto
424 136.2338 lineto
427.5001 126.2338 lineto
closepath stroke
0 0 0 edgecolor
10 /Helvetica set_font
424 110 moveto 28 ( rface) alignedtext
grestore
% Node11
gsave
[ /Rect [ 264.5 214 361.5 234 ]
  /Border [ 0 0 0 ]
  /Action << /Subtype /URI /URI ($structMFaceHLineProp.html) >>
  /Subtype /Link
/ANN pdfmark
0 0 1 nodecolor
newpath 264.5 214.5 moveto
264.5 233.5 lineto
361.5 233.5 lineto
361.5 214.5 lineto
closepath fill
1 setlinewidth
filled
0 0 0 nodecolor
newpath 264.5 214.5 moveto
264.5 233.5 lineto
361.5 233.5 lineto
361.5 214.5 lineto
closepath stroke
0 0 0 nodecolor
10 /Helvetica set_font
272.5 221.5 moveto 81 (MFaceHLineProp) alignedtext
grestore
% Node11->Node10
gsave
1 setlinewidth
dashed
0.77647 0.75294 0.80392 edgecolor
newpath 334.0788 208.5677 moveto
356.9159 192.9314 392.6014 168.4981 411.4154 155.6165 curveto
stroke
0.77647 0.75294 0.80392 edgecolor
newpath 332.007 205.7443 moveto
325.7331 214.2818 lineto
335.9617 211.5202 lineto
closepath fill
1 setlinewidth
solid
0.77647 0.75294 0.80392 edgecolor
newpath 332.007 205.7443 moveto
325.7331 214.2818 lineto
335.9617 211.5202 lineto
closepath stroke
0 0 0 edgecolor
10 /Helvetica set_font
381 182.5 moveto 28 ( hline) alignedtext
grestore
% Node12->Node10
gsave
1 setlinewidth
dashed
0.77647 0.75294 0.80392 edgecolor
newpath 683.339 207.7099 moveto
667.3337 194.9107 645.2781 178.0976 635 174 curveto
605.6693 162.3066 521.3781 154.188 468.6371 150.0858 curveto
stroke
0.77647 0.75294 0.80392 edgecolor
newpath 681.5175 210.738 moveto
691.4951 214.3015 lineto
685.9174 205.2937 lineto
closepath fill
1 setlinewidth
solid
0.77647 0.75294 0.80392 edgecolor
newpath 681.5175 210.738 moveto
691.4951 214.3015 lineto
685.9174 205.2937 lineto
closepath stroke
0 0 0 edgecolor
10 /Helvetica set_font
667 182.5 moveto 27 ( rfont) alignedtext
grestore
% Node12->Node12
gsave
1 setlinewidth
dashed
0.77647 0.75294 0.80392 edgecolor
newpath 756.8258 228.6871 moveto
761.5493 227.6913 764.5 226.1289 764.5 224 curveto
764.5 220.5938 756.9463 218.6378 746.6631 218.1322 curveto
stroke
0.77647 0.75294 0.80392 edgecolor
newpath 756.1924 225.2371 moveto
746.6631 229.8678 lineto
757.0003 232.1903 lineto
closepath fill
1 setlinewidth
solid
0.77647 0.75294 0.80392 edgecolor
newpath 756.1924 225.2371 moveto
746.6631 229.8678 lineto
757.0003 232.1903 lineto
closepath stroke
0 0 0 edgecolor
10 /Helvetica set_font
764.5 221.5 moveto 25 ( next) alignedtext
grestore
% Node12->Node13
gsave
1 setlinewidth
dashed
0.77647 0.75294 0.80392 edgecolor
newpath 726.2322 208.7164 moveto
731.2145 205.0179 736.1175 200.7279 740 196 curveto
750.0604 183.7488 756.4609 166.1608 759.6258 155.7264 curveto
stroke
0.77647 0.75294 0.80392 edgecolor
newpath 724.2406 205.8381 moveto
717.9387 214.355 lineto
728.1763 211.6269 lineto
closepath fill
1 setlinewidth
solid
0.77647 0.75294 0.80392 edgecolor
newpath 724.2406 205.8381 moveto
717.9387 214.355 lineto
728.1763 211.6269 lineto
closepath stroke
0 0 0 edgecolor
10 /Helvetica set_font
752 188 moveto 63 ( encapsulate) alignedtext
0 0 0 edgecolor
10 /Helvetica set_font
771 177 moveto 25 (open) alignedtext
grestore
% Node13->Node12
gsave
1 setlinewidth
dashed
0.77647 0.75294 0.80392 edgecolor
newpath 723.4654 160.2266 moveto
717.4835 163.8367 711.979 168.3611 708 174 curveto
699.5998 185.9045 699.7103 203.6063 700.7324 214.1562 curveto
stroke
0.77647 0.75294 0.80392 edgecolor
newpath 725.183 163.2786 moveto
732.4493 155.5682 lineto
721.9607 157.0643 lineto
closepath fill
1 setlinewidth
solid
0.77647 0.75294 0.80392 edgecolor
newpath 725.183 163.2786 moveto
732.4493 155.5682 lineto
721.9607 157.0643 lineto
closepath stroke
0 0 0 edgecolor
10 /Helvetica set_font
708 182.5 moveto 32 ( driver) alignedtext
grestore
% Node14
gsave
[ /Rect [ 380 214 468 234 ]
  /Border [ 0 0 0 ]
  /Action << /Subtype /URI /URI ($structMFaceBoxProp.html) >>
  /Subtype /Link
/ANN pdfmark
0 0 1 nodecolor
newpath 380 214.5 moveto
380 233.5 lineto
468 233.5 lineto
468 214.5 lineto
closepath fill
1 setlinewidth
filled
0 0 0 nodecolor
newpath 380 214.5 moveto
380 233.5 lineto
468 233.5 lineto
468 214.5 lineto
closepath stroke
0 0 0 nodecolor
10 /Helvetica set_font
388 221.5 moveto 72 (MFaceBoxProp) alignedtext
grestore
% Node14->Node10
gsave
1 setlinewidth
dashed
0.77647 0.75294 0.80392 edgecolor
newpath 424 204.2239 moveto
424 188.6974 424 167.3582 424 155.6165 curveto
stroke
0.77647 0.75294 0.80392 edgecolor
newpath 420.5001 204.2818 moveto
424 214.2818 lineto
427.5001 204.2819 lineto
closepath fill
1 setlinewidth
solid
0.77647 0.75294 0.80392 edgecolor
newpath 420.5001 204.2818 moveto
424 214.2818 lineto
427.5001 204.2819 lineto
closepath stroke
0 0 0 edgecolor
10 /Helvetica set_font
424 182.5 moveto 22 ( box) alignedtext
grestore
% Node15->Node1
gsave
1 setlinewidth
dashed
0.77647 0.75294 0.80392 edgecolor
newpath 387.0592 68.2085 moveto
338.3391 55.2947 253.3896 32.778 207.1767 20.5288 curveto
stroke
0.77647 0.75294 0.80392 edgecolor
newpath 386.3157 71.6322 moveto
396.8786 70.8112 lineto
388.1092 64.8658 lineto
closepath fill
1 setlinewidth
solid
0.77647 0.75294 0.80392 edgecolor
newpath 386.3157 71.6322 moveto
396.8786 70.8112 lineto
388.1092 64.8658 lineto
closepath stroke
0 0 0 edgecolor
10 /Helvetica set_font
322 43 moveto 36 ( glyphs) alignedtext
grestore
% Node16
gsave
[ /Rect [ 560.5 136 631.5 156 ]
  /Border [ 0 0 0 ]
  /Action << /Subtype /URI /URI ($structMFLTGlyph.html) >>
  /Subtype /Link
/ANN pdfmark
0 0 1 nodecolor
newpath 560.5 136.5 moveto
560.5 155.5 lineto
631.5 155.5 lineto
631.5 136.5 lineto
closepath fill
1 setlinewidth
filled
0 0 0 nodecolor
newpath 560.5 136.5 moveto
560.5 155.5 lineto
631.5 155.5 lineto
631.5 136.5 lineto
closepath stroke
0 0 0 nodecolor
10 /Helvetica set_font
568.5 143.5 moveto 55 (MFLTGlyph) alignedtext
grestore
% Node16->Node15
gsave
1 setlinewidth
dashed
0.77647 0.75294 0.80392 edgecolor
newpath 563.6392 132.7706 moveto
529.5018 119.8699 476.5942 99.8757 446.6608 88.5637 curveto
stroke
0.77647 0.75294 0.80392 edgecolor
newpath 562.5681 136.1074 moveto
573.1597 136.3685 lineto
565.0427 129.5594 lineto
closepath fill
1 setlinewidth
solid
0.77647 0.75294 0.80392 edgecolor
newpath 562.5681 136.1074 moveto
573.1597 136.3685 lineto
565.0427 129.5594 lineto
closepath stroke
0 0 0 edgecolor
10 /Helvetica set_font
520 110 moveto 10 ( g) alignedtext
grestore
endpage
showpage
grestore
%%PageTrailer
%%EndPage: 1
%%Trailer
%%Pages: 1
%%BoundingBox: 36 36 870 639
end
restore
%%EOF
