%!PS-Adobe-3.0
%%Creator: graphviz version 2.43.0 (0)
%%Title: MInputMethod
%%Pages: (atend)
%%BoundingBox: (atend)
%%EndComments
save
%%BeginProlog
/DotDict 200 dict def
DotDict begin

/setupLatin1 {
mark
/EncodingVector 256 array def
 EncodingVector 0

ISOLatin1Encoding 0 255 getinterval putinterval
EncodingVector 45 /hyphen put

% Set up ISO Latin 1 character encoding
/starnetISO {
        dup dup findfont dup length dict begin
        { 1 index /FID ne { def }{ pop pop } ifelse
        } forall
        /Encoding EncodingVector def
        currentdict end definefont
} def
/Times-Roman starnetISO def
/Times-Italic starnetISO def
/Times-Bold starnetISO def
/Times-BoldItalic starnetISO def
/Helvetica starnetISO def
/Helvetica-Oblique starnetISO def
/Helvetica-Bold starnetISO def
/Helvetica-BoldOblique starnetISO def
/Courier starnetISO def
/Courier-Oblique starnetISO def
/Courier-Bold starnetISO def
/Courier-BoldOblique starnetISO def
cleartomark
} bind def

%%BeginResource: procset graphviz 0 0
/coord-font-family /Times-Roman def
/default-font-family /Times-Roman def
/coordfont coord-font-family findfont 8 scalefont def

/InvScaleFactor 1.0 def
/set_scale {
       dup 1 exch div /InvScaleFactor exch def
       scale
} bind def

% styles
/solid { [] 0 setdash } bind def
/dashed { [9 InvScaleFactor mul dup ] 0 setdash } bind def
/dotted { [1 InvScaleFactor mul 6 InvScaleFactor mul] 0 setdash } bind def
/invis {/fill {newpath} def /stroke {newpath} def /show {pop newpath} def} bind def
/bold { 2 setlinewidth } bind def
/filled { } bind def
/unfilled { } bind def
/rounded { } bind def
/diagonals { } bind def
/tapered { } bind def

% hooks for setting color 
/nodecolor { sethsbcolor } bind def
/edgecolor { sethsbcolor } bind def
/graphcolor { sethsbcolor } bind def
/nopcolor {pop pop pop} bind def

/beginpage {	% i j npages
	/npages exch def
	/j exch def
	/i exch def
	/str 10 string def
	npages 1 gt {
		gsave
			coordfont setfont
			0 0 moveto
			(\() show i str cvs show (,) show j str cvs show (\)) show
		grestore
	} if
} bind def

/set_font {
	findfont exch
	scalefont setfont
} def

% draw text fitted to its expected width
/alignedtext {			% width text
	/text exch def
	/width exch def
	gsave
		width 0 gt {
			[] 0 setdash
			text stringwidth pop width exch sub text length div 0 text ashow
		} if
	grestore
} def

/boxprim {				% xcorner ycorner xsize ysize
		4 2 roll
		moveto
		2 copy
		exch 0 rlineto
		0 exch rlineto
		pop neg 0 rlineto
		closepath
} bind def

/ellipse_path {
	/ry exch def
	/rx exch def
	/y exch def
	/x exch def
	matrix currentmatrix
	newpath
	x y translate
	rx ry scale
	0 0 1 0 360 arc
	setmatrix
} bind def

/endpage { showpage } bind def
/showpage { } def

/layercolorseq
	[	% layer color sequence - darkest to lightest
		[0 0 0]
		[.2 .8 .8]
		[.4 .8 .8]
		[.6 .8 .8]
		[.8 .8 .8]
	]
def

/layerlen layercolorseq length def

/setlayer {/maxlayer exch def /curlayer exch def
	layercolorseq curlayer 1 sub layerlen mod get
	aload pop sethsbcolor
	/nodecolor {nopcolor} def
	/edgecolor {nopcolor} def
	/graphcolor {nopcolor} def
} bind def

/onlayer { curlayer ne {invis} if } def

/onlayers {
	/myupper exch def
	/mylower exch def
	curlayer mylower lt
	curlayer myupper gt
	or
	{invis} if
} def

/curlayer 0 def

%%EndResource
%%EndProlog
%%BeginSetup
14 default-font-family set_font
% /arrowlength 10 def
% /arrowwidth 5 def

% make sure pdfmark is harmless for PS-interpreters other than Distiller
/pdfmark where {pop} {userdict /pdfmark /cleartomark load put} ifelse
% make '<<' and '>>' safe on PS Level 1 devices
/languagelevel where {pop languagelevel}{1} ifelse
2 lt {
    userdict (<<) cvn ([) cvn load put
    userdict (>>) cvn ([) cvn load put
} if

%%EndSetup
setupLatin1
%%Page: 1 1
%%PageBoundingBox: 36 36 166 332
%%PageOrientation: Portrait
0 0 1 beginpage
gsave
36 36 130 296 boxprim clip newpath
1 1 set_scale 0 rotate 40 40 translate
% Node1
gsave
0 0 0.74902 nodecolor
newpath 11.5 .5 moveto
11.5 19.5 lineto
98.5 19.5 lineto
98.5 .5 lineto
closepath fill
1 setlinewidth
filled
0 0 0 nodecolor
newpath 11.5 .5 moveto
11.5 19.5 lineto
98.5 19.5 lineto
98.5 .5 lineto
closepath stroke
0 0 0 nodecolor
10 /Helvetica set_font
19.5 7.5 moveto 71 (MInputMethod) alignedtext
grestore
% Node2
gsave
[ /Rect [ 15 67 95 87 ]
  /Border [ 0 0 0 ]
  /Action << /Subtype /URI /URI ($structMInputDriver.html) >>
  /Subtype /Link
/ANN pdfmark
0 0 1 nodecolor
newpath 15 67.5 moveto
15 86.5 lineto
95 86.5 lineto
95 67.5 lineto
closepath fill
1 setlinewidth
filled
0 0 0 nodecolor
newpath 15 67.5 moveto
15 86.5 lineto
95 86.5 lineto
95 67.5 lineto
closepath stroke
0 0 0 nodecolor
10 /Helvetica set_font
23 74.5 moveto 64 (MInputDriver) alignedtext
grestore
% Node2->Node1
gsave
1 setlinewidth
dashed
0.77647 0.75294 0.80392 edgecolor
newpath 55 57.037 moveto
55 44.6703 55 29.1198 55 19.6273 curveto
stroke
0.77647 0.75294 0.80392 edgecolor
newpath 51.5001 57.2338 moveto
55 67.2338 lineto
58.5001 57.2338 lineto
closepath fill
1 setlinewidth
solid
0.77647 0.75294 0.80392 edgecolor
newpath 51.5001 57.2338 moveto
55 67.2338 lineto
58.5001 57.2338 lineto
closepath stroke
0 0 0 edgecolor
10 /Helvetica set_font
55 41 moveto 32 ( driver) alignedtext
grestore
% Node3
gsave
[ /Rect [ 31.5 134 78.5 154 ]
  /Border [ 0 0 0 ]
  /Action << /Subtype /URI /URI ($structMPlist.html) >>
  /Subtype /Link
/ANN pdfmark
0 0 1 nodecolor
newpath 31.5 134.5 moveto
31.5 153.5 lineto
78.5 153.5 lineto
78.5 134.5 lineto
closepath fill
1 setlinewidth
filled
0 0 0 nodecolor
newpath 31.5 134.5 moveto
31.5 153.5 lineto
78.5 153.5 lineto
78.5 134.5 lineto
closepath stroke
0 0 0 nodecolor
10 /Helvetica set_font
39.5 141.5 moveto 31 (MPlist) alignedtext
grestore
% Node3->Node2
gsave
1 setlinewidth
dashed
0.77647 0.75294 0.80392 edgecolor
newpath 55 124.037 moveto
55 111.6703 55 96.1198 55 86.6273 curveto
stroke
0.77647 0.75294 0.80392 edgecolor
newpath 51.5001 124.2338 moveto
55 134.2338 lineto
58.5001 124.2338 lineto
closepath fill
1 setlinewidth
solid
0.77647 0.75294 0.80392 edgecolor
newpath 51.5001 124.2338 moveto
55 134.2338 lineto
58.5001 124.2338 lineto
closepath stroke
0 0 0 edgecolor
10 /Helvetica set_font
55 108 moveto 64 ( callback_list) alignedtext
grestore
% Node3->Node3
gsave
1 setlinewidth
dashed
0.77647 0.75294 0.80392 edgecolor
newpath 89.0148 149.294 moveto
93.5146 148.3926 96.5 146.6279 96.5 144 curveto
96.5 139.6875 88.4604 137.6997 78.8819 138.0366 curveto
stroke
0.77647 0.75294 0.80392 edgecolor
newpath 88.6295 145.8118 moveto
78.8819 149.9634 lineto
89.0909 152.7965 lineto
closepath fill
1 setlinewidth
solid
0.77647 0.75294 0.80392 edgecolor
newpath 88.6295 145.8118 moveto
78.8819 149.9634 lineto
89.0909 152.7965 lineto
closepath stroke
0 0 0 edgecolor
10 /Helvetica set_font
96.5 141.5 moveto 25 ( next) alignedtext
grestore
% Node4
gsave
[ /Rect [ 16.5 201 93.5 221 ]
  /Border [ 0 0 0 ]
  /Action << /Subtype /URI /URI ($structM17NObject.html) >>
  /Subtype /Link
/ANN pdfmark
0 0 1 nodecolor
newpath 16.5 201.5 moveto
16.5 220.5 lineto
93.5 220.5 lineto
93.5 201.5 lineto
closepath fill
1 setlinewidth
filled
0 0 0 nodecolor
newpath 16.5 201.5 moveto
16.5 220.5 lineto
93.5 220.5 lineto
93.5 201.5 lineto
closepath stroke
0 0 0 nodecolor
10 /Helvetica set_font
24.5 208.5 moveto 61 (M17NObject) alignedtext
grestore
% Node4->Node3
gsave
1 setlinewidth
dashed
0.77647 0.75294 0.80392 edgecolor
newpath 55 191.037 moveto
55 178.6703 55 163.1198 55 153.6273 curveto
stroke
0.77647 0.75294 0.80392 edgecolor
newpath 51.5001 191.2338 moveto
55 201.2338 lineto
58.5001 191.2338 lineto
closepath fill
1 setlinewidth
solid
0.77647 0.75294 0.80392 edgecolor
newpath 51.5001 191.2338 moveto
55 201.2338 lineto
58.5001 191.2338 lineto
closepath stroke
0 0 0 edgecolor
10 /Helvetica set_font
55 175 moveto 37 ( control) alignedtext
grestore
% Node5
gsave
[ /Rect [ 0 268 110 288 ]
  /Border [ 0 0 0 ]
  /Action << /Subtype /URI /URI ($structM17NObjectRecord.html) >>
  /Subtype /Link
/ANN pdfmark
0 0 1 nodecolor
newpath 0 268.5 moveto
0 287.5 lineto
110 287.5 lineto
110 268.5 lineto
closepath fill
1 setlinewidth
filled
0 0 0 nodecolor
newpath 0 268.5 moveto
0 287.5 lineto
110 287.5 lineto
110 268.5 lineto
closepath stroke
0 0 0 nodecolor
10 /Helvetica set_font
8 275.5 moveto 94 (M17NObjectRecord) alignedtext
grestore
% Node5->Node4
gsave
1 setlinewidth
dashed
0.77647 0.75294 0.80392 edgecolor
newpath 55 258.037 moveto
55 245.6703 55 230.1198 55 220.6273 curveto
stroke
0.77647 0.75294 0.80392 edgecolor
newpath 51.5001 258.2338 moveto
55 268.2338 lineto
58.5001 258.2338 lineto
closepath fill
1 setlinewidth
solid
0.77647 0.75294 0.80392 edgecolor
newpath 51.5001 258.2338 moveto
55 268.2338 lineto
58.5001 258.2338 lineto
closepath stroke
0 0 0 edgecolor
10 /Helvetica set_font
55 242 moveto 34 ( record) alignedtext
grestore
endpage
showpage
grestore
%%PageTrailer
%%EndPage: 1
%%Trailer
%%Pages: 1
%%BoundingBox: 36 36 166 332
end
restore
%%EOF
