%!PS-Adobe-3.0
%%Creator: graphviz version 2.43.0 (0)
%%Title: MRealizedFace
%%Pages: (atend)
%%BoundingBox: (atend)
%%EndComments
save
%%BeginProlog
/DotDict 200 dict def
DotDict begin

/setupLatin1 {
mark
/EncodingVector 256 array def
 EncodingVector 0

ISOLatin1Encoding 0 255 getinterval putinterval
EncodingVector 45 /hyphen put

% Set up ISO Latin 1 character encoding
/starnetISO {
        dup dup findfont dup length dict begin
        { 1 index /FID ne { def }{ pop pop } ifelse
        } forall
        /Encoding EncodingVector def
        currentdict end definefont
} def
/Times-Roman starnetISO def
/Times-Italic starnetISO def
/Times-Bold starnetISO def
/Times-BoldItalic starnetISO def
/Helvetica starnetISO def
/Helvetica-Oblique starnetISO def
/Helvetica-Bold starnetISO def
/Helvetica-BoldOblique starnetISO def
/Courier starnetISO def
/Courier-Oblique starnetISO def
/Courier-Bold starnetISO def
/Courier-BoldOblique starnetISO def
cleartomark
} bind def

%%BeginResource: procset graphviz 0 0
/coord-font-family /Times-Roman def
/default-font-family /Times-Roman def
/coordfont coord-font-family findfont 8 scalefont def

/InvScaleFactor 1.0 def
/set_scale {
       dup 1 exch div /InvScaleFactor exch def
       scale
} bind def

% styles
/solid { [] 0 setdash } bind def
/dashed { [9 InvScaleFactor mul dup ] 0 setdash } bind def
/dotted { [1 InvScaleFactor mul 6 InvScaleFactor mul] 0 setdash } bind def
/invis {/fill {newpath} def /stroke {newpath} def /show {pop newpath} def} bind def
/bold { 2 setlinewidth } bind def
/filled { } bind def
/unfilled { } bind def
/rounded { } bind def
/diagonals { } bind def
/tapered { } bind def

% hooks for setting color 
/nodecolor { sethsbcolor } bind def
/edgecolor { sethsbcolor } bind def
/graphcolor { sethsbcolor } bind def
/nopcolor {pop pop pop} bind def

/beginpage {	% i j npages
	/npages exch def
	/j exch def
	/i exch def
	/str 10 string def
	npages 1 gt {
		gsave
			coordfont setfont
			0 0 moveto
			(\() show i str cvs show (,) show j str cvs show (\)) show
		grestore
	} if
} bind def

/set_font {
	findfont exch
	scalefont setfont
} def

% draw text fitted to its expected width
/alignedtext {			% width text
	/text exch def
	/width exch def
	gsave
		width 0 gt {
			[] 0 setdash
			text stringwidth pop width exch sub text length div 0 text ashow
		} if
	grestore
} def

/boxprim {				% xcorner ycorner xsize ysize
		4 2 roll
		moveto
		2 copy
		exch 0 rlineto
		0 exch rlineto
		pop neg 0 rlineto
		closepath
} bind def

/ellipse_path {
	/ry exch def
	/rx exch def
	/y exch def
	/x exch def
	matrix currentmatrix
	newpath
	x y translate
	rx ry scale
	0 0 1 0 360 arc
	setmatrix
} bind def

/endpage { showpage } bind def
/showpage { } def

/layercolorseq
	[	% layer color sequence - darkest to lightest
		[0 0 0]
		[.2 .8 .8]
		[.4 .8 .8]
		[.6 .8 .8]
		[.8 .8 .8]
	]
def

/layerlen layercolorseq length def

/setlayer {/maxlayer exch def /curlayer exch def
	layercolorseq curlayer 1 sub layerlen mod get
	aload pop sethsbcolor
	/nodecolor {nopcolor} def
	/edgecolor {nopcolor} def
	/graphcolor {nopcolor} def
} bind def

/onlayer { curlayer ne {invis} if } def

/onlayers {
	/myupper exch def
	/mylower exch def
	curlayer mylower lt
	curlayer myupper gt
	or
	{invis} if
} def

/curlayer 0 def

%%EndResource
%%EndProlog
%%BeginSetup
14 default-font-family set_font
% /arrowlength 10 def
% /arrowwidth 5 def

% make sure pdfmark is harmless for PS-interpreters other than Distiller
/pdfmark where {pop} {userdict /pdfmark /cleartomark load put} ifelse
% make '<<' and '>>' safe on PS Level 1 devices
/languagelevel where {pop languagelevel}{1} ifelse
2 lt {
    userdict (<<) cvn ([) cvn load put
    userdict (>>) cvn ([) cvn load put
} if

%%EndSetup
setupLatin1
%%Page: 1 1
%%PageBoundingBox: 36 36 704 590
%%PageOrientation: Portrait
0 0 1 beginpage
gsave
36 36 668 554 boxprim clip newpath
1 1 set_scale 0 rotate 40 40 translate
% Node1
gsave
0 0 0.74902 nodecolor
newpath 330.5 223.5 moveto
330.5 242.5 lineto
419.5 242.5 lineto
419.5 223.5 lineto
closepath fill
1 setlinewidth
filled
0 0 0 nodecolor
newpath 330.5 223.5 moveto
330.5 242.5 lineto
419.5 242.5 lineto
419.5 223.5 lineto
closepath stroke
0 0 0 nodecolor
10 /Helvetica set_font
338.5 230.5 moveto 73 (MRealizedFace) alignedtext
grestore
% Node1->Node1
gsave
1 setlinewidth
dashed
0.77647 0.75294 0.80392 edgecolor
newpath 429.8258 238.566 moveto
434.5493 237.3834 437.5 235.5281 437.5 233 curveto
437.5 228.9551 429.9463 226.6324 419.6631 226.032 curveto
stroke
0.77647 0.75294 0.80392 edgecolor
newpath 429.091 235.1341 moveto
419.6631 239.968 lineto
430.0477 242.0684 lineto
closepath fill
1 setlinewidth
solid
0.77647 0.75294 0.80392 edgecolor
newpath 429.091 235.1341 moveto
419.6631 239.968 lineto
430.0477 242.0684 lineto
closepath stroke
0 0 0 edgecolor
10 /Helvetica set_font
437.5 230.5 moveto 56 ( ascii_rface) alignedtext
grestore
% Node5
gsave
[ /Rect [ 268 145 324 165 ]
  /Border [ 0 0 0 ]
  /Action << /Subtype /URI /URI ($structMFrame.html) >>
  /Subtype /Link
/ANN pdfmark
0 0 1 nodecolor
newpath 268 145.5 moveto
268 164.5 lineto
324 164.5 lineto
324 145.5 lineto
closepath fill
1 setlinewidth
filled
0 0 0 nodecolor
newpath 268 145.5 moveto
268 164.5 lineto
324 164.5 lineto
324 145.5 lineto
closepath stroke
0 0 0 nodecolor
10 /Helvetica set_font
276 152.5 moveto 40 (MFrame) alignedtext
grestore
% Node1->Node5
gsave
1 setlinewidth
dashed
0.77647 0.75294 0.80392 edgecolor
newpath 371.8494 213.4457 moveto
369.314 203.3912 364.8287 191.352 357 183 curveto
348.2085 173.6209 335.5727 167.2991 324.0791 163.1467 curveto
stroke
0.77647 0.75294 0.80392 edgecolor
newpath 368.4377 214.2311 moveto
373.9011 223.3086 lineto
375.291 212.8054 lineto
closepath fill
1 setlinewidth
solid
0.77647 0.75294 0.80392 edgecolor
newpath 368.4377 214.2311 moveto
373.9011 223.3086 lineto
375.291 212.8054 lineto
closepath stroke
0 0 0 edgecolor
10 /Helvetica set_font
369 191.5 moveto 28 ( rface) alignedtext
grestore
% Node2
gsave
[ /Rect [ 109.5 392 156.5 412 ]
  /Border [ 0 0 0 ]
  /Action << /Subtype /URI /URI ($structMPlist.html) >>
  /Subtype /Link
/ANN pdfmark
0 0 1 nodecolor
newpath 109.5 392.5 moveto
109.5 411.5 lineto
156.5 411.5 lineto
156.5 392.5 lineto
closepath fill
1 setlinewidth
filled
0 0 0 nodecolor
newpath 109.5 392.5 moveto
109.5 411.5 lineto
156.5 411.5 lineto
156.5 392.5 lineto
closepath stroke
0 0 0 nodecolor
10 /Helvetica set_font
117.5 399.5 moveto 31 (MPlist) alignedtext
grestore
% Node2->Node1
gsave
1 setlinewidth
dashed
0.77647 0.75294 0.80392 edgecolor
newpath 166.546 394.1426 moveto
213.2871 384.0457 294.8803 364.2832 318 345 curveto
351.7714 316.8327 367.8251 263.5402 373.0247 242.6811 curveto
stroke
0.77647 0.75294 0.80392 edgecolor
newpath 165.6319 390.7587 moveto
156.5793 396.2633 lineto
167.0888 397.6054 lineto
closepath fill
1 setlinewidth
solid
0.77647 0.75294 0.80392 edgecolor
newpath 165.6319 390.7587 moveto
156.5793 396.2633 lineto
167.0888 397.6054 lineto
closepath stroke
0 0 0 edgecolor
10 /Helvetica set_font
337 337 moveto 73 ( base_face_list) alignedtext
0 0 0 edgecolor
10 /Helvetica set_font
340 326 moveto 67 (non_ascii_list) alignedtext
grestore
% Node2->Node2
gsave
1 setlinewidth
dashed
0.77647 0.75294 0.80392 edgecolor
newpath 167.0148 407.294 moveto
171.5146 406.3926 174.5 404.6279 174.5 402 curveto
174.5 397.6875 166.4604 395.6997 156.8819 396.0366 curveto
stroke
0.77647 0.75294 0.80392 edgecolor
newpath 166.6295 403.8118 moveto
156.8819 407.9634 lineto
167.0909 410.7965 lineto
closepath fill
1 setlinewidth
solid
0.77647 0.75294 0.80392 edgecolor
newpath 166.6295 403.8118 moveto
156.8819 407.9634 lineto
167.0909 410.7965 lineto
closepath stroke
0 0 0 edgecolor
10 /Helvetica set_font
174.5 399.5 moveto 25 ( next) alignedtext
grestore
% Node2->Node5
gsave
1 setlinewidth
dashed
0.77647 0.75294 0.80392 edgecolor
newpath 114.4437 385.3454 moveto
85.6385 359.0812 36.0437 304.7244 62 261 curveto
105.641 187.4849 215.4455 165.18 267.6202 158.6222 curveto
stroke
0.77647 0.75294 0.80392 edgecolor
newpath 112.4626 388.2655 moveto
122.2736 392.2648 lineto
117.098 383.0201 lineto
closepath fill
1 setlinewidth
solid
0.77647 0.75294 0.80392 edgecolor
newpath 112.4626 388.2655 moveto
122.2736 392.2648 lineto
117.098 383.0201 lineto
closepath stroke
0 0 0 edgecolor
10 /Helvetica set_font
73.5 297 moveto 77 ( font_driver_list) alignedtext
0 0 0 edgecolor
10 /Helvetica set_font
69 286 moveto 86 (realized_face_list) alignedtext
0 0 0 edgecolor
10 /Helvetica set_font
69.5 275 moveto 85 (realized_font_list) alignedtext
0 0 0 edgecolor
10 /Helvetica set_font
62 264 moveto 100 (realized_fontset_list) alignedtext
grestore
% Node6
gsave
[ /Rect [ 109.5 324 156.5 344 ]
  /Border [ 0 0 0 ]
  /Action << /Subtype /URI /URI ($structMFace.html) >>
  /Subtype /Link
/ANN pdfmark
0 0 1 nodecolor
newpath 109.5 324.5 moveto
109.5 343.5 lineto
156.5 343.5 lineto
156.5 324.5 lineto
closepath fill
1 setlinewidth
filled
0 0 0 nodecolor
newpath 109.5 324.5 moveto
109.5 343.5 lineto
156.5 343.5 lineto
156.5 324.5 lineto
closepath stroke
0 0 0 nodecolor
10 /Helvetica set_font
117.5 331.5 moveto 31 (MFace) alignedtext
grestore
% Node2->Node6
gsave
1 setlinewidth
dashed
0.77647 0.75294 0.80392 edgecolor
newpath 133 382.0413 moveto
133 369.4724 133 353.5631 133 343.8411 curveto
stroke
0.77647 0.75294 0.80392 edgecolor
newpath 129.5001 382.3716 moveto
133 392.3717 lineto
136.5001 382.3717 lineto
closepath fill
1 setlinewidth
solid
0.77647 0.75294 0.80392 edgecolor
newpath 129.5001 382.3716 moveto
133 392.3717 lineto
136.5001 382.3717 lineto
closepath stroke
0 0 0 edgecolor
10 /Helvetica set_font
133 366 moveto 53 ( frame_list) alignedtext
grestore
% Node3
gsave
[ /Rect [ 94.5 459 171.5 479 ]
  /Border [ 0 0 0 ]
  /Action << /Subtype /URI /URI ($structM17NObject.html) >>
  /Subtype /Link
/ANN pdfmark
0 0 1 nodecolor
newpath 94.5 459.5 moveto
94.5 478.5 lineto
171.5 478.5 lineto
171.5 459.5 lineto
closepath fill
1 setlinewidth
filled
0 0 0 nodecolor
newpath 94.5 459.5 moveto
94.5 478.5 lineto
171.5 478.5 lineto
171.5 459.5 lineto
closepath stroke
0 0 0 nodecolor
10 /Helvetica set_font
102.5 466.5 moveto 61 (M17NObject) alignedtext
grestore
% Node3->Node2
gsave
1 setlinewidth
dashed
0.77647 0.75294 0.80392 edgecolor
newpath 133 449.037 moveto
133 436.6703 133 421.1198 133 411.6273 curveto
stroke
0.77647 0.75294 0.80392 edgecolor
newpath 129.5001 449.2338 moveto
133 459.2338 lineto
136.5001 449.2338 lineto
closepath fill
1 setlinewidth
solid
0.77647 0.75294 0.80392 edgecolor
newpath 129.5001 449.2338 moveto
133 459.2338 lineto
136.5001 449.2338 lineto
closepath stroke
0 0 0 edgecolor
10 /Helvetica set_font
133 433 moveto 37 ( control) alignedtext
grestore
% Node3->Node5
gsave
1 setlinewidth
dashed
0.77647 0.75294 0.80392 edgecolor
newpath 84.2353 463.7517 moveto
46.2764 457.45 0 441.809 0 403 curveto
0 403 0 403 0 232 curveto
0 177.021 193.9996 161.25 267.8862 157.2372 curveto
stroke
0.77647 0.75294 0.80392 edgecolor
newpath 83.7677 467.2206 moveto
94.1734 465.2273 lineto
84.7958 460.2965 lineto
closepath fill
1 setlinewidth
solid
0.77647 0.75294 0.80392 edgecolor
newpath 83.7677 467.2206 moveto
94.1734 465.2273 lineto
84.7958 460.2965 lineto
closepath stroke
0 0 0 edgecolor
10 /Helvetica set_font
0 331.5 moveto 37 ( control) alignedtext
grestore
% Node3->Node6
gsave
1 setlinewidth
dashed
0.77647 0.75294 0.80392 edgecolor
newpath 162.8872 454.763 moveto
179.7161 445.4926 199.0963 431.2969 208 412 curveto
211.7241 403.9288 210.4372 400.5482 208 392 curveto
203.8406 377.4116 201.2437 373.1834 190 363 curveto
180.4389 354.3405 167.7112 347.7478 156.7085 343.1414 curveto
stroke
0.77647 0.75294 0.80392 edgecolor
newpath 161.1658 451.7127 moveto
153.8831 459.4077 lineto
164.3749 457.9338 lineto
closepath fill
1 setlinewidth
solid
0.77647 0.75294 0.80392 edgecolor
newpath 161.1658 451.7127 moveto
153.8831 459.4077 lineto
164.3749 457.9338 lineto
closepath stroke
0 0 0 edgecolor
10 /Helvetica set_font
211 399.5 moveto 37 ( control) alignedtext
grestore
% Node4
gsave
[ /Rect [ 78 526 188 546 ]
  /Border [ 0 0 0 ]
  /Action << /Subtype /URI /URI ($structM17NObjectRecord.html) >>
  /Subtype /Link
/ANN pdfmark
0 0 1 nodecolor
newpath 78 526.5 moveto
78 545.5 lineto
188 545.5 lineto
188 526.5 lineto
closepath fill
1 setlinewidth
filled
0 0 0 nodecolor
newpath 78 526.5 moveto
78 545.5 lineto
188 545.5 lineto
188 526.5 lineto
closepath stroke
0 0 0 nodecolor
10 /Helvetica set_font
86 533.5 moveto 94 (M17NObjectRecord) alignedtext
grestore
% Node4->Node3
gsave
1 setlinewidth
dashed
0.77647 0.75294 0.80392 edgecolor
newpath 133 516.037 moveto
133 503.6703 133 488.1198 133 478.6273 curveto
stroke
0.77647 0.75294 0.80392 edgecolor
newpath 129.5001 516.2338 moveto
133 526.2338 lineto
136.5001 516.2338 lineto
closepath fill
1 setlinewidth
solid
0.77647 0.75294 0.80392 edgecolor
newpath 129.5001 516.2338 moveto
133 526.2338 lineto
136.5001 516.2338 lineto
closepath stroke
0 0 0 edgecolor
10 /Helvetica set_font
133 500 moveto 34 ( record) alignedtext
grestore
% Node5->Node1
gsave
1 setlinewidth
dashed
0.77647 0.75294 0.80392 edgecolor
newpath 303.2809 174.0382 moveto
308.0278 184.0919 315.0143 196.2995 324 205 curveto
332.0611 212.8052 342.8304 218.9489 352.3954 223.3908 curveto
stroke
0.77647 0.75294 0.80392 edgecolor
newpath 306.361 172.3453 moveto
299.155 164.5783 lineto
299.9447 175.1437 lineto
closepath fill
1 setlinewidth
solid
0.77647 0.75294 0.80392 edgecolor
newpath 306.361 172.3453 moveto
299.155 164.5783 lineto
299.9447 175.1437 lineto
closepath stroke
0 0 0 edgecolor
10 /Helvetica set_font
324 191.5 moveto 33 ( frame) alignedtext
grestore
% Node10
gsave
[ /Rect [ 413.5 78 502.5 98 ]
  /Border [ 0 0 0 ]
  /Action << /Subtype /URI /URI ($structMRealizedFont.html) >>
  /Subtype /Link
/ANN pdfmark
0 0 1 nodecolor
newpath 413.5 78.5 moveto
413.5 97.5 lineto
502.5 97.5 lineto
502.5 78.5 lineto
closepath fill
1 setlinewidth
filled
0 0 0 nodecolor
newpath 413.5 78.5 moveto
413.5 97.5 lineto
502.5 97.5 lineto
502.5 78.5 lineto
closepath stroke
0 0 0 nodecolor
10 /Helvetica set_font
421.5 85.5 moveto 73 (MRealizedFont) alignedtext
grestore
% Node5->Node10
gsave
1 setlinewidth
dashed
0.77647 0.75294 0.80392 edgecolor
newpath 326.8943 141.6041 moveto
359.0593 128.6984 408.5846 108.8272 436.6567 97.5637 curveto
stroke
0.77647 0.75294 0.80392 edgecolor
newpath 325.4898 138.3964 moveto
317.5123 145.3685 lineto
328.0965 144.8929 lineto
closepath fill
1 setlinewidth
solid
0.77647 0.75294 0.80392 edgecolor
newpath 325.4898 138.3964 moveto
317.5123 145.3685 lineto
328.0965 144.8929 lineto
closepath stroke
0 0 0 edgecolor
10 /Helvetica set_font
386 119 moveto 33 ( frame) alignedtext
grestore
% Node6->Node1
gsave
1 setlinewidth
dashed
0.77647 0.75294 0.80392 edgecolor
newpath 163.721 320.3657 moveto
173.3484 315.9612 183.8448 310.685 193 305 curveto
219.5941 288.4863 219.7057 274.3934 248 261 curveto
255.5384 257.4316 296.8075 248.965 330.2867 242.4564 curveto
stroke
0.77647 0.75294 0.80392 edgecolor
newpath 162.1929 317.2145 moveto
154.4651 324.4625 lineto
165.0261 323.6156 lineto
closepath fill
1 setlinewidth
solid
0.77647 0.75294 0.80392 edgecolor
newpath 162.1929 317.2145 moveto
154.4651 324.4625 lineto
165.0261 323.6156 lineto
closepath stroke
0 0 0 edgecolor
10 /Helvetica set_font
248 280.5 moveto 25 ( face) alignedtext
grestore
% Node6->Node5
gsave
1 setlinewidth
dashed
0.77647 0.75294 0.80392 edgecolor
newpath 154.6717 317.7892 moveto
158.8994 314.0099 162.9577 309.6847 166 305 curveto
186.6817 273.1528 167.1423 253.3233 190 223 curveto
211.6227 194.315 249.407 174.7736 273.537 164.5054 curveto
stroke
0.77647 0.75294 0.80392 edgecolor
newpath 152.1421 315.3329 moveto
146.5557 324.3354 lineto
156.5367 320.7815 lineto
closepath fill
1 setlinewidth
solid
0.77647 0.75294 0.80392 edgecolor
newpath 152.1421 315.3329 moveto
146.5557 324.3354 lineto
156.5367 320.7815 lineto
closepath stroke
0 0 0 edgecolor
10 /Helvetica set_font
190 230.5 moveto 25 ( face) alignedtext
grestore
% Node6->Node6
gsave
1 setlinewidth
dashed
0.77647 0.75294 0.80392 edgecolor
newpath 167.0148 339.6249 moveto
171.5146 338.6671 174.5 336.7922 174.5 334 curveto
174.5 329.418 166.4604 327.3059 156.8819 327.6639 curveto
stroke
0.77647 0.75294 0.80392 edgecolor
newpath 166.6123 336.1445 moveto
156.8819 340.3361 lineto
167.1025 343.1273 lineto
closepath fill
1 setlinewidth
solid
0.77647 0.75294 0.80392 edgecolor
newpath 166.6123 336.1445 moveto
156.8819 340.3361 lineto
167.1025 343.1273 lineto
closepath stroke
0 0 0 edgecolor
10 /Helvetica set_font
174.5 331.5 moveto 28 ( hook) alignedtext
grestore
% Node7
gsave
[ /Rect [ 223.5 223 312.5 243 ]
  /Border [ 0 0 0 ]
  /Action << /Subtype /URI /URI ($structMDeviceDriver.html) >>
  /Subtype /Link
/ANN pdfmark
0 0 1 nodecolor
newpath 223.5 223.5 moveto
223.5 242.5 lineto
312.5 242.5 lineto
312.5 223.5 lineto
closepath fill
1 setlinewidth
filled
0 0 0 nodecolor
newpath 223.5 223.5 moveto
223.5 242.5 lineto
312.5 242.5 lineto
312.5 223.5 lineto
closepath stroke
0 0 0 nodecolor
10 /Helvetica set_font
231.5 230.5 moveto 73 (MDeviceDriver) alignedtext
grestore
% Node7->Node5
gsave
1 setlinewidth
dashed
0.77647 0.75294 0.80392 edgecolor
newpath 265.1484 213.0264 moveto
264.5311 203.6401 265.0154 192.3488 269 183 curveto
272.1191 175.682 278.2466 169.292 283.8769 164.568 curveto
stroke
0.77647 0.75294 0.80392 edgecolor
newpath 261.7038 213.7196 moveto
266.2864 223.2721 lineto
268.661 212.9468 lineto
closepath fill
1 setlinewidth
solid
0.77647 0.75294 0.80392 edgecolor
newpath 261.7038 213.7196 moveto
266.2864 223.2721 lineto
268.661 212.9468 lineto
closepath stroke
0 0 0 edgecolor
10 /Helvetica set_font
269 191.5 moveto 32 ( driver) alignedtext
grestore
% Node8
gsave
[ /Rect [ 556.5 324 603.5 344 ]
  /Border [ 0 0 0 ]
  /Action << /Subtype /URI /URI ($structMFont.html) >>
  /Subtype /Link
/ANN pdfmark
0 0 1 nodecolor
newpath 556.5 324.5 moveto
556.5 343.5 lineto
603.5 343.5 lineto
603.5 324.5 lineto
closepath fill
1 setlinewidth
filled
0 0 0 nodecolor
newpath 556.5 324.5 moveto
556.5 343.5 lineto
603.5 343.5 lineto
603.5 324.5 lineto
closepath stroke
0 0 0 nodecolor
10 /Helvetica set_font
564.5 331.5 moveto 31 (MFont) alignedtext
grestore
% Node8->Node1
gsave
1 setlinewidth
dashed
0.77647 0.75294 0.80392 edgecolor
newpath 546.58 323.5668 moveto
523.9233 316.9475 497.3334 308.6518 493 305 curveto
476.1265 290.7804 487.116 274.9268 470 261 curveto
455.7692 249.4208 436.8382 242.8043 419.6221 239.0248 curveto
stroke
0.77647 0.75294 0.80392 edgecolor
newpath 545.7165 326.9604 moveto
556.2951 326.3748 lineto
547.6602 320.2357 lineto
closepath fill
1 setlinewidth
solid
0.77647 0.75294 0.80392 edgecolor
newpath 545.7165 326.9604 moveto
556.2951 326.3748 lineto
547.6602 320.2357 lineto
closepath stroke
0 0 0 edgecolor
10 /Helvetica set_font
493 280.5 moveto 23 ( font) alignedtext
grestore
% Node8->Node5
gsave
1 setlinewidth
dashed
0.77647 0.75294 0.80392 edgecolor
newpath 571.7389 315.2289 moveto
559.7498 291.2156 535.3745 248.4858 503 223 curveto
448.9825 180.4764 367.1467 164.5521 324.3489 158.899 curveto
stroke
0.77647 0.75294 0.80392 edgecolor
newpath 568.6047 316.7874 moveto
576.106 324.2695 lineto
574.9079 313.7427 lineto
closepath fill
1 setlinewidth
solid
0.77647 0.75294 0.80392 edgecolor
newpath 568.6047 316.7874 moveto
576.106 324.2695 lineto
574.9079 313.7427 lineto
closepath stroke
0 0 0 edgecolor
10 /Helvetica set_font
523 230.5 moveto 23 ( font) alignedtext
grestore
% Node8->Node10
gsave
1 setlinewidth
dashed
0.77647 0.75294 0.80392 edgecolor
newpath 577.4258 314.15 moveto
575.1609 299.4716 571.3803 278.6881 566 261 curveto
544.7597 191.1713 487.256 121.811 466.021 97.8173 curveto
stroke
0.77647 0.75294 0.80392 edgecolor
newpath 574.0187 315.0437 moveto
578.9188 324.4373 lineto
580.9461 314.0382 lineto
closepath fill
1 setlinewidth
solid
0.77647 0.75294 0.80392 edgecolor
newpath 574.0187 315.0437 moveto
578.9188 324.4373 lineto
580.9461 314.0382 lineto
closepath stroke
0 0 0 edgecolor
10 /Helvetica set_font
541 197 moveto 23 ( font) alignedtext
0 0 0 edgecolor
10 /Helvetica set_font
541 186 moveto 23 (spec) alignedtext
grestore
% Node11
gsave
[ /Rect [ 505.5 0 582.5 20 ]
  /Border [ 0 0 0 ]
  /Action << /Subtype /URI /URI ($structMFontDriver.html) >>
  /Subtype /Link
/ANN pdfmark
0 0 1 nodecolor
newpath 505.5 .5 moveto
505.5 19.5 lineto
582.5 19.5 lineto
582.5 .5 lineto
closepath fill
1 setlinewidth
filled
0 0 0 nodecolor
newpath 505.5 .5 moveto
505.5 19.5 lineto
582.5 19.5 lineto
582.5 .5 lineto
closepath stroke
0 0 0 nodecolor
10 /Helvetica set_font
513.5 7.5 moveto 61 (MFontDriver) alignedtext
grestore
% Node8->Node11
gsave
1 setlinewidth
dashed
0.77647 0.75294 0.80392 edgecolor
newpath 593.5943 316.2654 moveto
607.4752 297.4451 627 265.393 627 234 curveto
627 234 627 234 627 87 curveto
627 53.59 589.9669 30.9038 565.3746 19.5221 curveto
stroke
0.77647 0.75294 0.80392 edgecolor
newpath 590.673 314.3225 moveto
587.3438 324.3806 lineto
596.2187 318.5939 lineto
closepath fill
1 setlinewidth
solid
0.77647 0.75294 0.80392 edgecolor
newpath 590.673 314.3225 moveto
587.3438 324.3806 lineto
596.2187 318.5939 lineto
closepath stroke
0 0 0 edgecolor
10 /Helvetica set_font
627 152.5 moveto 33 ( select) alignedtext
grestore
% Node9
gsave
[ /Rect [ 436.5 324 533.5 344 ]
  /Border [ 0 0 0 ]
  /Action << /Subtype /URI /URI ($structMFaceHLineProp.html) >>
  /Subtype /Link
/ANN pdfmark
0 0 1 nodecolor
newpath 436.5 324.5 moveto
436.5 343.5 lineto
533.5 343.5 lineto
533.5 324.5 lineto
closepath fill
1 setlinewidth
filled
0 0 0 nodecolor
newpath 436.5 324.5 moveto
436.5 343.5 lineto
533.5 343.5 lineto
533.5 324.5 lineto
closepath stroke
0 0 0 nodecolor
10 /Helvetica set_font
444.5 331.5 moveto 81 (MFaceHLineProp) alignedtext
grestore
% Node9->Node1
gsave
1 setlinewidth
dashed
0.77647 0.75294 0.80392 edgecolor
newpath 461.5241 319.1434 moveto
454.9786 314.9039 448.0172 310.025 442 305 curveto
418.0641 285.011 393.9238 257.0775 382.2382 242.946 curveto
stroke
0.77647 0.75294 0.80392 edgecolor
newpath 459.7294 322.149 moveto
470.0642 324.4818 lineto
463.4398 316.2133 lineto
closepath fill
1 setlinewidth
solid
0.77647 0.75294 0.80392 edgecolor
newpath 459.7294 322.149 moveto
470.0642 324.4818 lineto
463.4398 316.2133 lineto
closepath stroke
0 0 0 edgecolor
10 /Helvetica set_font
442 280.5 moveto 28 ( hline) alignedtext
grestore
% Node10->Node1
gsave
1 setlinewidth
dashed
0.77647 0.75294 0.80392 edgecolor
newpath 451.1518 107.1171 moveto
441.7587 130.7855 423.4582 172.9785 401 205 curveto
396.2918 211.713 389.9198 218.3586 384.6623 223.377 curveto
stroke
0.77647 0.75294 0.80392 edgecolor
newpath 454.471 108.238 moveto
454.8237 97.649 lineto
447.9446 105.7069 lineto
closepath fill
1 setlinewidth
solid
0.77647 0.75294 0.80392 edgecolor
newpath 454.471 108.238 moveto
454.8237 97.649 lineto
447.9446 105.7069 lineto
closepath stroke
0 0 0 edgecolor
10 /Helvetica set_font
434 152.5 moveto 27 ( rfont) alignedtext
grestore
% Node10->Node10
gsave
1 setlinewidth
dashed
0.77647 0.75294 0.80392 edgecolor
newpath 512.8258 92.6871 moveto
517.5493 91.6913 520.5 90.1289 520.5 88 curveto
520.5 84.5938 512.9463 82.6378 502.6631 82.1322 curveto
stroke
0.77647 0.75294 0.80392 edgecolor
newpath 512.1924 89.2371 moveto
502.6631 93.8678 lineto
513.0003 96.1903 lineto
closepath fill
1 setlinewidth
solid
0.77647 0.75294 0.80392 edgecolor
newpath 512.1924 89.2371 moveto
502.6631 93.8678 lineto
513.0003 96.1903 lineto
closepath stroke
0 0 0 edgecolor
10 /Helvetica set_font
520.5 85.5 moveto 25 ( next) alignedtext
grestore
% Node10->Node11
gsave
1 setlinewidth
dashed
0.77647 0.75294 0.80392 edgecolor
newpath 451.533 68.6729 moveto
449.2329 58.6901 448.5871 46.647 455 38 curveto
466.5422 22.4368 486.8192 15.5315 505.1061 12.587 curveto
stroke
0.77647 0.75294 0.80392 edgecolor
newpath 448.229 69.8424 moveto
454.4224 78.4384 lineto
454.9413 67.8563 lineto
closepath fill
1 setlinewidth
solid
0.77647 0.75294 0.80392 edgecolor
newpath 448.229 69.8424 moveto
454.4224 78.4384 lineto
454.9413 67.8563 lineto
closepath stroke
0 0 0 edgecolor
10 /Helvetica set_font
455 52 moveto 63 ( encapsulate) alignedtext
0 0 0 edgecolor
10 /Helvetica set_font
474 41 moveto 25 (open) alignedtext
grestore
% Node11->Node10
gsave
1 setlinewidth
dashed
0.77647 0.75294 0.80392 edgecolor
newpath 539.2675 29.6456 moveto
535.8901 39.729 530.4231 51.7666 522 60 curveto
513.4624 68.3453 501.9568 74.2739 491.0555 78.407 curveto
stroke
0.77647 0.75294 0.80392 edgecolor
newpath 542.7155 30.3234 moveto
542.1532 19.7435 lineto
535.995 28.3649 lineto
closepath fill
1 setlinewidth
solid
0.77647 0.75294 0.80392 edgecolor
newpath 542.7155 30.3234 moveto
542.1532 19.7435 lineto
535.995 28.3649 lineto
closepath stroke
0 0 0 edgecolor
10 /Helvetica set_font
536 46.5 moveto 32 ( driver) alignedtext
grestore
% Node12
gsave
[ /Rect [ 221 324 309 344 ]
  /Border [ 0 0 0 ]
  /Action << /Subtype /URI /URI ($structMFaceBoxProp.html) >>
  /Subtype /Link
/ANN pdfmark
0 0 1 nodecolor
newpath 221 324.5 moveto
221 343.5 lineto
309 343.5 lineto
309 324.5 lineto
closepath fill
1 setlinewidth
filled
0 0 0 nodecolor
newpath 221 324.5 moveto
221 343.5 lineto
309 343.5 lineto
309 324.5 lineto
closepath stroke
0 0 0 nodecolor
10 /Helvetica set_font
229 331.5 moveto 72 (MFaceBoxProp) alignedtext
grestore
% Node12->Node1
gsave
1 setlinewidth
dashed
0.77647 0.75294 0.80392 edgecolor
newpath 272.1774 314.8514 moveto
279.3535 298.7747 291.7978 275.6452 309 261 curveto
318.7093 252.7339 331.2898 246.7486 342.8593 242.547 curveto
stroke
0.77647 0.75294 0.80392 edgecolor
newpath 268.8803 313.663 moveto
268.2254 324.2376 lineto
275.3317 316.3794 lineto
closepath fill
1 setlinewidth
solid
0.77647 0.75294 0.80392 edgecolor
newpath 268.8803 313.663 moveto
268.2254 324.2376 lineto
275.3317 316.3794 lineto
closepath stroke
0 0 0 edgecolor
10 /Helvetica set_font
309 280.5 moveto 22 ( box) alignedtext
grestore
endpage
showpage
grestore
%%PageTrailer
%%EndPage: 1
%%Trailer
%%Pages: 1
%%BoundingBox: 36 36 704 590
end
restore
%%EOF
