%!PS-Adobe-3.0
%%Creator: graphviz version 2.43.0 (0)
%%Title: MGlyph
%%Pages: (atend)
%%BoundingBox: (atend)
%%EndComments
save
%%BeginProlog
/DotDict 200 dict def
DotDict begin

/setupLatin1 {
mark
/EncodingVector 256 array def
 EncodingVector 0

ISOLatin1Encoding 0 255 getinterval putinterval
EncodingVector 45 /hyphen put

% Set up ISO Latin 1 character encoding
/starnetISO {
        dup dup findfont dup length dict begin
        { 1 index /FID ne { def }{ pop pop } ifelse
        } forall
        /Encoding EncodingVector def
        currentdict end definefont
} def
/Times-Roman starnetISO def
/Times-Italic starnetISO def
/Times-Bold starnetISO def
/Times-BoldItalic starnetISO def
/Helvetica starnetISO def
/Helvetica-Oblique starnetISO def
/Helvetica-Bold starnetISO def
/Helvetica-BoldOblique starnetISO def
/Courier starnetISO def
/Courier-Oblique starnetISO def
/Courier-Bold starnetISO def
/Courier-BoldOblique starnetISO def
cleartomark
} bind def

%%BeginResource: procset graphviz 0 0
/coord-font-family /Times-Roman def
/default-font-family /Times-Roman def
/coordfont coord-font-family findfont 8 scalefont def

/InvScaleFactor 1.0 def
/set_scale {
       dup 1 exch div /InvScaleFactor exch def
       scale
} bind def

% styles
/solid { [] 0 setdash } bind def
/dashed { [9 InvScaleFactor mul dup ] 0 setdash } bind def
/dotted { [1 InvScaleFactor mul 6 InvScaleFactor mul] 0 setdash } bind def
/invis {/fill {newpath} def /stroke {newpath} def /show {pop newpath} def} bind def
/bold { 2 setlinewidth } bind def
/filled { } bind def
/unfilled { } bind def
/rounded { } bind def
/diagonals { } bind def
/tapered { } bind def

% hooks for setting color 
/nodecolor { sethsbcolor } bind def
/edgecolor { sethsbcolor } bind def
/graphcolor { sethsbcolor } bind def
/nopcolor {pop pop pop} bind def

/beginpage {	% i j npages
	/npages exch def
	/j exch def
	/i exch def
	/str 10 string def
	npages 1 gt {
		gsave
			coordfont setfont
			0 0 moveto
			(\() show i str cvs show (,) show j str cvs show (\)) show
		grestore
	} if
} bind def

/set_font {
	findfont exch
	scalefont setfont
} def

% draw text fitted to its expected width
/alignedtext {			% width text
	/text exch def
	/width exch def
	gsave
		width 0 gt {
			[] 0 setdash
			text stringwidth pop width exch sub text length div 0 text ashow
		} if
	grestore
} def

/boxprim {				% xcorner ycorner xsize ysize
		4 2 roll
		moveto
		2 copy
		exch 0 rlineto
		0 exch rlineto
		pop neg 0 rlineto
		closepath
} bind def

/ellipse_path {
	/ry exch def
	/rx exch def
	/y exch def
	/x exch def
	matrix currentmatrix
	newpath
	x y translate
	rx ry scale
	0 0 1 0 360 arc
	setmatrix
} bind def

/endpage { showpage } bind def
/showpage { } def

/layercolorseq
	[	% layer color sequence - darkest to lightest
		[0 0 0]
		[.2 .8 .8]
		[.4 .8 .8]
		[.6 .8 .8]
		[.8 .8 .8]
	]
def

/layerlen layercolorseq length def

/setlayer {/maxlayer exch def /curlayer exch def
	layercolorseq curlayer 1 sub layerlen mod get
	aload pop sethsbcolor
	/nodecolor {nopcolor} def
	/edgecolor {nopcolor} def
	/graphcolor {nopcolor} def
} bind def

/onlayer { curlayer ne {invis} if } def

/onlayers {
	/myupper exch def
	/mylower exch def
	curlayer mylower lt
	curlayer myupper gt
	or
	{invis} if
} def

/curlayer 0 def

%%EndResource
%%EndProlog
%%BeginSetup
14 default-font-family set_font
% /arrowlength 10 def
% /arrowwidth 5 def

% make sure pdfmark is harmless for PS-interpreters other than Distiller
/pdfmark where {pop} {userdict /pdfmark /cleartomark load put} ifelse
% make '<<' and '>>' safe on PS Level 1 devices
/languagelevel where {pop languagelevel}{1} ifelse
2 lt {
    userdict (<<) cvn ([) cvn load put
    userdict (>>) cvn ([) cvn load put
} if

%%EndSetup
setupLatin1
%%Page: 1 1
%%PageBoundingBox: 36 36 892 590
%%PageOrientation: Portrait
0 0 1 beginpage
gsave
36 36 856 554 boxprim clip newpath
1 1 set_scale 0 rotate 40 40 translate
% Node1
gsave
0 0 0.74902 nodecolor
newpath 150.5 145.5 moveto
150.5 164.5 lineto
204.5 164.5 lineto
204.5 145.5 lineto
closepath fill
1 setlinewidth
filled
0 0 0 nodecolor
newpath 150.5 145.5 moveto
150.5 164.5 lineto
204.5 164.5 lineto
204.5 145.5 lineto
closepath stroke
0 0 0 nodecolor
10 /Helvetica set_font
158.5 152.5 moveto 38 (MGlyph) alignedtext
grestore
% Node2
gsave
[ /Rect [ 485 223 574 243 ]
  /Border [ 0 0 0 ]
  /Action << /Subtype /URI /URI ($structMRealizedFace.html) >>
  /Subtype /Link
/ANN pdfmark
0 0 1 nodecolor
newpath 485 223.5 moveto
485 242.5 lineto
574 242.5 lineto
574 223.5 lineto
closepath fill
1 setlinewidth
filled
0 0 0 nodecolor
newpath 485 223.5 moveto
485 242.5 lineto
574 242.5 lineto
574 223.5 lineto
closepath stroke
0 0 0 nodecolor
10 /Helvetica set_font
493 230.5 moveto 73 (MRealizedFace) alignedtext
grestore
% Node2->Node1
gsave
1 setlinewidth
dashed
0.77647 0.75294 0.80392 edgecolor
newpath 479.6015 221.2265 moveto
404.1133 204.9279 263.4503 174.5574 204.5432 161.8389 curveto
stroke
0.77647 0.75294 0.80392 edgecolor
newpath 479.2919 224.7402 moveto
489.8054 223.4296 lineto
480.7693 217.8979 lineto
closepath fill
1 setlinewidth
solid
0.77647 0.75294 0.80392 edgecolor
newpath 479.2919 224.7402 moveto
489.8054 223.4296 lineto
480.7693 217.8979 lineto
closepath stroke
0 0 0 edgecolor
10 /Helvetica set_font
394.5 191.5 moveto 28 ( rface) alignedtext
grestore
% Node2->Node2
gsave
1 setlinewidth
dashed
0.77647 0.75294 0.80392 edgecolor
newpath 584.3258 238.566 moveto
589.0493 237.3834 592 235.5281 592 233 curveto
592 228.9551 584.4463 226.6324 574.1631 226.032 curveto
stroke
0.77647 0.75294 0.80392 edgecolor
newpath 583.591 235.1341 moveto
574.1631 239.968 lineto
584.5477 242.0684 lineto
closepath fill
1 setlinewidth
solid
0.77647 0.75294 0.80392 edgecolor
newpath 583.591 235.1341 moveto
574.1631 239.968 lineto
584.5477 242.0684 lineto
closepath stroke
0 0 0 edgecolor
10 /Helvetica set_font
592 230.5 moveto 56 ( ascii_rface) alignedtext
grestore
% Node6
gsave
[ /Rect [ 403.5 145 459.5 165 ]
  /Border [ 0 0 0 ]
  /Action << /Subtype /URI /URI ($structMFrame.html) >>
  /Subtype /Link
/ANN pdfmark
0 0 1 nodecolor
newpath 403.5 145.5 moveto
403.5 164.5 lineto
459.5 164.5 lineto
459.5 145.5 lineto
closepath fill
1 setlinewidth
filled
0 0 0 nodecolor
newpath 403.5 145.5 moveto
403.5 164.5 lineto
459.5 164.5 lineto
459.5 145.5 lineto
closepath stroke
0 0 0 nodecolor
10 /Helvetica set_font
411.5 152.5 moveto 40 (MFrame) alignedtext
grestore
% Node2->Node6
gsave
1 setlinewidth
dashed
0.77647 0.75294 0.80392 edgecolor
newpath 525.0534 213.4873 moveto
521.7439 203.2772 516.2499 191.0712 507.5 183 curveto
494.3259 170.8477 475.3259 164.0977 459.6194 160.3858 curveto
stroke
0.77647 0.75294 0.80392 edgecolor
newpath 521.6913 214.4608 moveto
527.7564 223.1478 lineto
528.4324 212.5746 lineto
closepath fill
1 setlinewidth
solid
0.77647 0.75294 0.80392 edgecolor
newpath 521.6913 214.4608 moveto
527.7564 223.1478 lineto
528.4324 212.5746 lineto
closepath stroke
0 0 0 edgecolor
10 /Helvetica set_font
521.5 191.5 moveto 28 ( rface) alignedtext
grestore
% Node3
gsave
[ /Rect [ 308 392 355 412 ]
  /Border [ 0 0 0 ]
  /Action << /Subtype /URI /URI ($structMPlist.html) >>
  /Subtype /Link
/ANN pdfmark
0 0 1 nodecolor
newpath 308 392.5 moveto
308 411.5 lineto
355 411.5 lineto
355 392.5 lineto
closepath fill
1 setlinewidth
filled
0 0 0 nodecolor
newpath 308 392.5 moveto
308 411.5 lineto
355 411.5 lineto
355 392.5 lineto
closepath stroke
0 0 0 nodecolor
10 /Helvetica set_font
316 399.5 moveto 31 (MPlist) alignedtext
grestore
% Node3->Node2
gsave
1 setlinewidth
dashed
0.77647 0.75294 0.80392 edgecolor
newpath 365.1637 399.7924 moveto
435.3651 396.4928 593.6116 384.719 626.5 345 curveto
649.9377 316.6946 610.1946 280.2227 588.5 261 curveto
579.3944 252.9318 567.4709 246.8658 556.7277 242.5485 curveto
stroke
0.77647 0.75294 0.80392 edgecolor
newpath 364.9138 396.2999 moveto
355.0774 400.2362 lineto
365.2216 403.2931 lineto
closepath fill
1 setlinewidth
solid
0.77647 0.75294 0.80392 edgecolor
newpath 364.9138 396.2999 moveto
355.0774 400.2362 lineto
365.2216 403.2931 lineto
closepath stroke
0 0 0 edgecolor
10 /Helvetica set_font
633.5 337 moveto 73 ( base_face_list) alignedtext
0 0 0 edgecolor
10 /Helvetica set_font
636.5 326 moveto 67 (non_ascii_list) alignedtext
grestore
% Node3->Node3
gsave
1 setlinewidth
dashed
0.77647 0.75294 0.80392 edgecolor
newpath 365.5148 407.294 moveto
370.0146 406.3926 373 404.6279 373 402 curveto
373 397.6875 364.9604 395.6997 355.3819 396.0366 curveto
stroke
0.77647 0.75294 0.80392 edgecolor
newpath 365.1295 403.8118 moveto
355.3819 407.9634 lineto
365.5909 410.7965 lineto
closepath fill
1 setlinewidth
solid
0.77647 0.75294 0.80392 edgecolor
newpath 365.1295 403.8118 moveto
355.3819 407.9634 lineto
365.5909 410.7965 lineto
closepath stroke
0 0 0 edgecolor
10 /Helvetica set_font
373 399.5 moveto 25 ( next) alignedtext
grestore
% Node3->Node6
gsave
1 setlinewidth
dashed
0.77647 0.75294 0.80392 edgecolor
newpath 315.1663 384.9365 moveto
290.2963 358.4466 248.1621 304.2301 271.5 261 curveto
299.7526 208.6662 366.7208 178.1828 404.4504 164.5796 curveto
stroke
0.77647 0.75294 0.80392 edgecolor
newpath 312.7628 387.4855 moveto
322.2388 392.2245 lineto
317.7863 382.6106 lineto
closepath fill
1 setlinewidth
solid
0.77647 0.75294 0.80392 edgecolor
newpath 312.7628 387.4855 moveto
322.2388 392.2245 lineto
317.7863 382.6106 lineto
closepath stroke
0 0 0 edgecolor
10 /Helvetica set_font
283 297 moveto 77 ( font_driver_list) alignedtext
0 0 0 edgecolor
10 /Helvetica set_font
278.5 286 moveto 86 (realized_face_list) alignedtext
0 0 0 edgecolor
10 /Helvetica set_font
279 275 moveto 85 (realized_font_list) alignedtext
0 0 0 edgecolor
10 /Helvetica set_font
271.5 264 moveto 100 (realized_fontset_list) alignedtext
grestore
% Node7
gsave
[ /Rect [ 303 324 350 344 ]
  /Border [ 0 0 0 ]
  /Action << /Subtype /URI /URI ($structMFace.html) >>
  /Subtype /Link
/ANN pdfmark
0 0 1 nodecolor
newpath 303 324.5 moveto
303 343.5 lineto
350 343.5 lineto
350 324.5 lineto
closepath fill
1 setlinewidth
filled
0 0 0 nodecolor
newpath 303 324.5 moveto
303 343.5 lineto
350 343.5 lineto
350 324.5 lineto
closepath stroke
0 0 0 nodecolor
10 /Helvetica set_font
311 331.5 moveto 31 (MFace) alignedtext
grestore
% Node3->Node7
gsave
1 setlinewidth
dashed
0.77647 0.75294 0.80392 edgecolor
newpath 330.0637 382.0413 moveto
329.1115 369.4724 327.9063 353.5631 327.1698 343.8411 curveto
stroke
0.77647 0.75294 0.80392 edgecolor
newpath 326.6008 382.6647 moveto
330.8463 392.3717 lineto
333.5808 382.1358 lineto
closepath fill
1 setlinewidth
solid
0.77647 0.75294 0.80392 edgecolor
newpath 326.6008 382.6647 moveto
330.8463 392.3717 lineto
333.5808 382.1358 lineto
closepath stroke
0 0 0 edgecolor
10 /Helvetica set_font
328.5 366 moveto 53 ( frame_list) alignedtext
grestore
% Node4
gsave
[ /Rect [ 214 459 291 479 ]
  /Border [ 0 0 0 ]
  /Action << /Subtype /URI /URI ($structM17NObject.html) >>
  /Subtype /Link
/ANN pdfmark
0 0 1 nodecolor
newpath 214 459.5 moveto
214 478.5 lineto
291 478.5 lineto
291 459.5 lineto
closepath fill
1 setlinewidth
filled
0 0 0 nodecolor
newpath 214 459.5 moveto
214 478.5 lineto
291 478.5 lineto
291 459.5 lineto
closepath stroke
0 0 0 nodecolor
10 /Helvetica set_font
222 466.5 moveto 61 (M17NObject) alignedtext
grestore
% Node4->Node3
gsave
1 setlinewidth
dashed
0.77647 0.75294 0.80392 edgecolor
newpath 271.0791 452.7134 moveto
286.6438 439.907 308.3003 422.0884 321.0145 411.6273 curveto
stroke
0.77647 0.75294 0.80392 edgecolor
newpath 268.6526 450.1774 moveto
263.1543 459.2338 lineto
273.1002 455.5829 lineto
closepath fill
1 setlinewidth
solid
0.77647 0.75294 0.80392 edgecolor
newpath 268.6526 450.1774 moveto
263.1543 459.2338 lineto
273.1002 455.5829 lineto
closepath stroke
0 0 0 edgecolor
10 /Helvetica set_font
296.5 433 moveto 37 ( control) alignedtext
grestore
% Node4->Node6
gsave
1 setlinewidth
dashed
0.77647 0.75294 0.80392 edgecolor
newpath 233.3749 452.6003 moveto
220.7405 440.593 206.5 422.6916 206.5 403 curveto
206.5 403 206.5 403 206.5 232 curveto
206.5 190.8724 343.1433 167.6909 403.4585 159.4618 curveto
stroke
0.77647 0.75294 0.80392 edgecolor
newpath 231.0916 455.2536 moveto
240.8923 459.2782 lineto
235.7405 450.0202 lineto
closepath fill
1 setlinewidth
solid
0.77647 0.75294 0.80392 edgecolor
newpath 231.0916 455.2536 moveto
240.8923 459.2782 lineto
235.7405 450.0202 lineto
closepath stroke
0 0 0 edgecolor
10 /Helvetica set_font
206.5 331.5 moveto 37 ( control) alignedtext
grestore
% Node4->Node7
gsave
1 setlinewidth
dashed
0.77647 0.75294 0.80392 edgecolor
newpath 251.4213 449.1845 moveto
251.2998 433.0962 253.0782 409.7921 262.5 392 curveto
273.8499 370.5669 296.6927 353.3191 311.7915 343.6161 curveto
stroke
0.77647 0.75294 0.80392 edgecolor
newpath 247.9319 449.5642 moveto
251.7635 459.442 lineto
254.9281 449.3308 lineto
closepath fill
1 setlinewidth
solid
0.77647 0.75294 0.80392 edgecolor
newpath 247.9319 449.5642 moveto
251.7635 459.442 lineto
254.9281 449.3308 lineto
closepath stroke
0 0 0 edgecolor
10 /Helvetica set_font
262.5 399.5 moveto 37 ( control) alignedtext
grestore
% Node5
gsave
[ /Rect [ 197.5 526 307.5 546 ]
  /Border [ 0 0 0 ]
  /Action << /Subtype /URI /URI ($structM17NObjectRecord.html) >>
  /Subtype /Link
/ANN pdfmark
0 0 1 nodecolor
newpath 197.5 526.5 moveto
197.5 545.5 lineto
307.5 545.5 lineto
307.5 526.5 lineto
closepath fill
1 setlinewidth
filled
0 0 0 nodecolor
newpath 197.5 526.5 moveto
197.5 545.5 lineto
307.5 545.5 lineto
307.5 526.5 lineto
closepath stroke
0 0 0 nodecolor
10 /Helvetica set_font
205.5 533.5 moveto 94 (M17NObjectRecord) alignedtext
grestore
% Node5->Node4
gsave
1 setlinewidth
dashed
0.77647 0.75294 0.80392 edgecolor
newpath 252.5 516.037 moveto
252.5 503.6703 252.5 488.1198 252.5 478.6273 curveto
stroke
0.77647 0.75294 0.80392 edgecolor
newpath 249.0001 516.2338 moveto
252.5 526.2338 lineto
256.0001 516.2338 lineto
closepath fill
1 setlinewidth
solid
0.77647 0.75294 0.80392 edgecolor
newpath 249.0001 516.2338 moveto
252.5 526.2338 lineto
256.0001 516.2338 lineto
closepath stroke
0 0 0 edgecolor
10 /Helvetica set_font
252.5 500 moveto 34 ( record) alignedtext
grestore
% Node6->Node2
gsave
1 setlinewidth
dashed
0.77647 0.75294 0.80392 edgecolor
newpath 443.4578 172.7204 moveto
451.4033 182.9747 462.5451 195.8468 474.5 205 curveto
484.3817 212.5658 496.7192 218.8557 507.2036 223.4556 curveto
stroke
0.77647 0.75294 0.80392 edgecolor
newpath 446.1425 170.4657 moveto
437.3582 164.5423 lineto
440.5313 174.6508 lineto
closepath fill
1 setlinewidth
solid
0.77647 0.75294 0.80392 edgecolor
newpath 446.1425 170.4657 moveto
437.3582 164.5423 lineto
440.5313 174.6508 lineto
closepath stroke
0 0 0 edgecolor
10 /Helvetica set_font
474.5 191.5 moveto 33 ( frame) alignedtext
grestore
% Node11
gsave
[ /Rect [ 611 78 700 98 ]
  /Border [ 0 0 0 ]
  /Action << /Subtype /URI /URI ($structMRealizedFont.html) >>
  /Subtype /Link
/ANN pdfmark
0 0 1 nodecolor
newpath 611 78.5 moveto
611 97.5 lineto
700 97.5 lineto
700 78.5 lineto
closepath fill
1 setlinewidth
filled
0 0 0 nodecolor
newpath 611 78.5 moveto
611 97.5 lineto
700 97.5 lineto
700 78.5 lineto
closepath stroke
0 0 0 nodecolor
10 /Helvetica set_font
619 85.5 moveto 73 (MRealizedFont) alignedtext
grestore
% Node6->Node11
gsave
1 setlinewidth
dashed
0.77647 0.75294 0.80392 edgecolor
newpath 467.8641 142.3636 moveto
492.2915 134.6461 525.2418 124.4269 554.5 116 curveto
576.9995 109.5197 602.4698 102.7145 622.2037 97.5572 curveto
stroke
0.77647 0.75294 0.80392 edgecolor
newpath 466.7598 139.0419 moveto
458.2847 145.3998 lineto
468.8749 145.7148 lineto
closepath fill
1 setlinewidth
solid
0.77647 0.75294 0.80392 edgecolor
newpath 466.7598 139.0419 moveto
458.2847 145.3998 lineto
468.8749 145.7148 lineto
closepath stroke
0 0 0 edgecolor
10 /Helvetica set_font
554.5 119 moveto 33 ( frame) alignedtext
grestore
% Node7->Node2
gsave
1 setlinewidth
dashed
0.77647 0.75294 0.80392 edgecolor
newpath 359.8449 323.323 moveto
373.0184 318.761 387.9703 312.6254 400.5 305 curveto
425.503 289.7835 424.2254 275.761 449.5 261 curveto
463.2972 252.9421 479.8484 246.8512 494.3071 242.5131 curveto
stroke
0.77647 0.75294 0.80392 edgecolor
newpath 358.5908 320.051 moveto
350.1874 326.5034 lineto
360.7804 326.6998 lineto
closepath fill
1 setlinewidth
solid
0.77647 0.75294 0.80392 edgecolor
newpath 358.5908 320.051 moveto
350.1874 326.5034 lineto
360.7804 326.6998 lineto
closepath stroke
0 0 0 edgecolor
10 /Helvetica set_font
449.5 280.5 moveto 25 ( face) alignedtext
grestore
% Node7->Node6
gsave
1 setlinewidth
dashed
0.77647 0.75294 0.80392 edgecolor
newpath 359.2241 319.3727 moveto
365.3827 315.5177 371.2228 310.7613 375.5 305 curveto
408.6618 260.3322 376.1192 231.4273 403.5 183 curveto
407.5549 175.8283 414.1041 169.3601 419.8493 164.5537 curveto
stroke
0.77647 0.75294 0.80392 edgecolor
newpath 357.1888 316.4978 moveto
350.1178 324.3878 lineto
360.5657 322.6295 lineto
closepath fill
1 setlinewidth
solid
0.77647 0.75294 0.80392 edgecolor
newpath 357.1888 316.4978 moveto
350.1178 324.3878 lineto
360.5657 322.6295 lineto
closepath stroke
0 0 0 edgecolor
10 /Helvetica set_font
391.5 230.5 moveto 25 ( face) alignedtext
grestore
% Node7->Node7
gsave
1 setlinewidth
dashed
0.77647 0.75294 0.80392 edgecolor
newpath 360.5148 339.6249 moveto
365.0146 338.6671 368 336.7922 368 334 curveto
368 329.418 359.9604 327.3059 350.3819 327.6639 curveto
stroke
0.77647 0.75294 0.80392 edgecolor
newpath 360.1123 336.1445 moveto
350.3819 340.3361 lineto
360.6025 343.1273 lineto
closepath fill
1 setlinewidth
solid
0.77647 0.75294 0.80392 edgecolor
newpath 360.1123 336.1445 moveto
350.3819 340.3361 lineto
360.6025 343.1273 lineto
closepath stroke
0 0 0 edgecolor
10 /Helvetica set_font
368 331.5 moveto 28 ( hook) alignedtext
grestore
% Node8
gsave
[ /Rect [ 89 223 178 243 ]
  /Border [ 0 0 0 ]
  /Action << /Subtype /URI /URI ($structMDeviceDriver.html) >>
  /Subtype /Link
/ANN pdfmark
0 0 1 nodecolor
newpath 89 223.5 moveto
89 242.5 lineto
178 242.5 lineto
178 223.5 lineto
closepath fill
1 setlinewidth
filled
0 0 0 nodecolor
newpath 89 223.5 moveto
89 242.5 lineto
178 242.5 lineto
178 223.5 lineto
closepath stroke
0 0 0 nodecolor
10 /Helvetica set_font
97 230.5 moveto 73 (MDeviceDriver) alignedtext
grestore
% Node8->Node6
gsave
1 setlinewidth
dashed
0.77647 0.75294 0.80392 edgecolor
newpath 138.835 213.6179 moveto
142.9544 202.8679 149.7985 190.0609 160.5 183 curveto
199.8665 157.0258 342.4559 155.1376 403.4782 155.5694 curveto
stroke
0.77647 0.75294 0.80392 edgecolor
newpath 135.4186 212.7998 moveto
135.5819 223.3934 lineto
142.0605 215.0102 lineto
closepath fill
1 setlinewidth
solid
0.77647 0.75294 0.80392 edgecolor
newpath 135.4186 212.7998 moveto
135.5819 223.3934 lineto
142.0605 215.0102 lineto
closepath stroke
0 0 0 edgecolor
10 /Helvetica set_font
160.5 191.5 moveto 32 ( driver) alignedtext
grestore
% Node9
gsave
[ /Rect [ 745 324 792 344 ]
  /Border [ 0 0 0 ]
  /Action << /Subtype /URI /URI ($structMFont.html) >>
  /Subtype /Link
/ANN pdfmark
0 0 1 nodecolor
newpath 745 324.5 moveto
745 343.5 lineto
792 343.5 lineto
792 324.5 lineto
closepath fill
1 setlinewidth
filled
0 0 0 nodecolor
newpath 745 324.5 moveto
745 343.5 lineto
792 343.5 lineto
792 324.5 lineto
closepath stroke
0 0 0 nodecolor
10 /Helvetica set_font
753 331.5 moveto 31 (MFont) alignedtext
grestore
% Node9->Node2
gsave
1 setlinewidth
dashed
0.77647 0.75294 0.80392 edgecolor
newpath 735.1359 323.1799 moveto
713.5056 316.5911 688.6103 308.5005 684.5 305 curveto
667.7005 290.693 679.1271 274.274 661.5 261 curveto
647.8595 250.7281 606.8439 243.3907 574.1145 238.9816 curveto
stroke
0.77647 0.75294 0.80392 edgecolor
newpath 734.1734 326.5453 moveto
744.758 326.0796 lineto
736.1932 319.843 lineto
closepath fill
1 setlinewidth
solid
0.77647 0.75294 0.80392 edgecolor
newpath 734.1734 326.5453 moveto
744.758 326.0796 lineto
736.1932 319.843 lineto
closepath stroke
0 0 0 edgecolor
10 /Helvetica set_font
684.5 280.5 moveto 23 ( font) alignedtext
grestore
% Node9->Node6
gsave
1 setlinewidth
dashed
0.77647 0.75294 0.80392 edgecolor
newpath 756.2393 315.9602 moveto
737.7052 291.5019 700.1566 246.7777 657.5 223 curveto
591.9067 186.437 504.2292 167.866 459.829 160.2798 curveto
stroke
0.77647 0.75294 0.80392 edgecolor
newpath 753.6187 318.3025 moveto
762.3827 324.2559 lineto
759.2441 314.1366 lineto
closepath fill
1 setlinewidth
solid
0.77647 0.75294 0.80392 edgecolor
newpath 753.6187 318.3025 moveto
762.3827 324.2559 lineto
759.2441 314.1366 lineto
closepath stroke
0 0 0 edgecolor
10 /Helvetica set_font
686.5 230.5 moveto 23 ( font) alignedtext
grestore
% Node9->Node11
gsave
1 setlinewidth
dashed
0.77647 0.75294 0.80392 edgecolor
newpath 762.2104 314.6277 moveto
757.043 299.9513 749.3243 278.9427 741.5 261 curveto
713.6092 197.0405 673.9382 122.8736 660.3116 97.7963 curveto
stroke
0.77647 0.75294 0.80392 edgecolor
newpath 759.0381 316.1619 moveto
765.6241 324.4609 lineto
765.6509 313.8661 lineto
closepath fill
1 setlinewidth
solid
0.77647 0.75294 0.80392 edgecolor
newpath 759.0381 316.1619 moveto
765.6241 324.4609 lineto
765.6509 313.8661 lineto
closepath stroke
0 0 0 edgecolor
10 /Helvetica set_font
714.5 197 moveto 23 ( font) alignedtext
0 0 0 edgecolor
10 /Helvetica set_font
714.5 186 moveto 23 (spec) alignedtext
grestore
% Node12
gsave
[ /Rect [ 672 0 749 20 ]
  /Border [ 0 0 0 ]
  /Action << /Subtype /URI /URI ($structMFontDriver.html) >>
  /Subtype /Link
/ANN pdfmark
0 0 1 nodecolor
newpath 672 .5 moveto
672 19.5 lineto
749 19.5 lineto
749 .5 lineto
closepath fill
1 setlinewidth
filled
0 0 0 nodecolor
newpath 672 .5 moveto
672 19.5 lineto
749 19.5 lineto
749 .5 lineto
closepath stroke
0 0 0 nodecolor
10 /Helvetica set_font
680 7.5 moveto 61 (MFontDriver) alignedtext
grestore
% Node9->Node12
gsave
1 setlinewidth
dashed
0.77647 0.75294 0.80392 edgecolor
newpath 781.8051 316.2192 moveto
795.3907 297.3585 814.5 265.2712 814.5 234 curveto
814.5 234 814.5 234 814.5 87 curveto
814.5 50.7722 772.853 29.9609 742.2685 19.562 curveto
stroke
0.77647 0.75294 0.80392 edgecolor
newpath 778.9006 314.2582 moveto
775.6875 324.3541 lineto
784.4952 318.4655 lineto
closepath fill
1 setlinewidth
solid
0.77647 0.75294 0.80392 edgecolor
newpath 778.9006 314.2582 moveto
775.6875 324.3541 lineto
784.4952 318.4655 lineto
closepath stroke
0 0 0 edgecolor
10 /Helvetica set_font
814.5 152.5 moveto 33 ( select) alignedtext
grestore
% Node10
gsave
[ /Rect [ 520 324 617 344 ]
  /Border [ 0 0 0 ]
  /Action << /Subtype /URI /URI ($structMFaceHLineProp.html) >>
  /Subtype /Link
/ANN pdfmark
0 0 1 nodecolor
newpath 520 324.5 moveto
520 343.5 lineto
617 343.5 lineto
617 324.5 lineto
closepath fill
1 setlinewidth
filled
0 0 0 nodecolor
newpath 520 324.5 moveto
520 343.5 lineto
617 343.5 lineto
617 324.5 lineto
closepath stroke
0 0 0 nodecolor
10 /Helvetica set_font
528 331.5 moveto 81 (MFaceHLineProp) alignedtext
grestore
% Node10->Node2
gsave
1 setlinewidth
dashed
0.77647 0.75294 0.80392 edgecolor
newpath 561.2592 314.6196 moveto
552.8103 293.1724 539.196 258.6128 532.8975 242.6245 curveto
stroke
0.77647 0.75294 0.80392 edgecolor
newpath 558.1173 316.1932 moveto
565.039 324.2144 lineto
564.6301 313.6275 lineto
closepath fill
1 setlinewidth
solid
0.77647 0.75294 0.80392 edgecolor
newpath 558.1173 316.1932 moveto
565.039 324.2144 lineto
564.6301 313.6275 lineto
closepath stroke
0 0 0 edgecolor
10 /Helvetica set_font
556.5 280.5 moveto 28 ( hline) alignedtext
grestore
% Node11->Node2
gsave
1 setlinewidth
dashed
0.77647 0.75294 0.80392 edgecolor
newpath 641.155 105.3697 moveto
621.4391 127.8556 584.843 169.5476 553.5 205 curveto
548.0167 211.2023 541.8071 218.1869 537.0782 223.4981 curveto
stroke
0.77647 0.75294 0.80392 edgecolor
newpath 643.8788 107.5721 moveto
647.8387 97.7451 lineto
638.6149 102.9578 lineto
closepath fill
1 setlinewidth
solid
0.77647 0.75294 0.80392 edgecolor
newpath 643.8788 107.5721 moveto
647.8387 97.7451 lineto
638.6149 102.9578 lineto
closepath stroke
0 0 0 edgecolor
10 /Helvetica set_font
605.5 152.5 moveto 27 ( rfont) alignedtext
grestore
% Node11->Node11
gsave
1 setlinewidth
dashed
0.77647 0.75294 0.80392 edgecolor
newpath 710.3258 92.6871 moveto
715.0493 91.6913 718 90.1289 718 88 curveto
718 84.5938 710.4463 82.6378 700.1631 82.1322 curveto
stroke
0.77647 0.75294 0.80392 edgecolor
newpath 709.6924 89.2371 moveto
700.1631 93.8678 lineto
710.5003 96.1903 lineto
closepath fill
1 setlinewidth
solid
0.77647 0.75294 0.80392 edgecolor
newpath 709.6924 89.2371 moveto
700.1631 93.8678 lineto
710.5003 96.1903 lineto
closepath stroke
0 0 0 edgecolor
10 /Helvetica set_font
718 85.5 moveto 25 ( next) alignedtext
grestore
% Node11->Node12
gsave
1 setlinewidth
dashed
0.77647 0.75294 0.80392 edgecolor
newpath 676.7129 72.1087 moveto
680.9684 68.4778 685.154 64.3692 688.5 60 curveto
698.1383 47.414 704.6773 29.9358 707.9829 19.613 curveto
stroke
0.77647 0.75294 0.80392 edgecolor
newpath 674.3482 69.5154 moveto
668.6461 78.445 lineto
678.6722 75.0203 lineto
closepath fill
1 setlinewidth
solid
0.77647 0.75294 0.80392 edgecolor
newpath 674.3482 69.5154 moveto
668.6461 78.445 lineto
678.6722 75.0203 lineto
closepath stroke
0 0 0 edgecolor
10 /Helvetica set_font
700.5 52 moveto 63 ( encapsulate) alignedtext
0 0 0 edgecolor
10 /Helvetica set_font
719.5 41 moveto 25 (open) alignedtext
grestore
% Node12->Node11
gsave
1 setlinewidth
dashed
0.77647 0.75294 0.80392 edgecolor
newpath 670.5427 24.4939 moveto
664.9857 28.0423 659.992 32.4767 656.5 38 curveto
648.7703 50.2263 650.8656 67.8225 653.1457 78.2652 curveto
stroke
0.77647 0.75294 0.80392 edgecolor
newpath 672.4562 27.4389 moveto
679.6038 19.6183 lineto
669.1392 21.2746 lineto
closepath fill
1 setlinewidth
solid
0.77647 0.75294 0.80392 edgecolor
newpath 672.4562 27.4389 moveto
679.6038 19.6183 lineto
669.1392 21.2746 lineto
closepath stroke
0 0 0 edgecolor
10 /Helvetica set_font
656.5 46.5 moveto 32 ( driver) alignedtext
grestore
% Node13
gsave
[ /Rect [ 414.5 324 502.5 344 ]
  /Border [ 0 0 0 ]
  /Action << /Subtype /URI /URI ($structMFaceBoxProp.html) >>
  /Subtype /Link
/ANN pdfmark
0 0 1 nodecolor
newpath 414.5 324.5 moveto
414.5 343.5 lineto
502.5 343.5 lineto
502.5 324.5 lineto
closepath fill
1 setlinewidth
filled
0 0 0 nodecolor
newpath 414.5 324.5 moveto
414.5 343.5 lineto
502.5 343.5 lineto
502.5 324.5 lineto
closepath stroke
0 0 0 nodecolor
10 /Helvetica set_font
422.5 331.5 moveto 72 (MFaceBoxProp) alignedtext
grestore
% Node13->Node2
gsave
1 setlinewidth
dashed
0.77647 0.75294 0.80392 edgecolor
newpath 470.6434 316.0677 moveto
485.9246 294.7601 511.5866 258.9778 523.3147 242.6245 curveto
stroke
0.77647 0.75294 0.80392 edgecolor
newpath 467.7845 314.0484 moveto
464.8008 324.2144 lineto
473.4729 318.1279 lineto
closepath fill
1 setlinewidth
solid
0.77647 0.75294 0.80392 edgecolor
newpath 467.7845 314.0484 moveto
464.8008 324.2144 lineto
473.4729 318.1279 lineto
closepath stroke
0 0 0 edgecolor
10 /Helvetica set_font
508.5 280.5 moveto 22 ( box) alignedtext
grestore
% Node14
gsave
[ /Rect [ 0 223 71 243 ]
  /Border [ 0 0 0 ]
  /Action << /Subtype /URI /URI ($structMFLTGlyph.html) >>
  /Subtype /Link
/ANN pdfmark
0 0 1 nodecolor
newpath 0 223.5 moveto
0 242.5 lineto
71 242.5 lineto
71 223.5 lineto
closepath fill
1 setlinewidth
filled
0 0 0 nodecolor
newpath 0 223.5 moveto
0 242.5 lineto
71 242.5 lineto
71 223.5 lineto
closepath stroke
0 0 0 nodecolor
10 /Helvetica set_font
8 230.5 moveto 55 (MFLTGlyph) alignedtext
grestore
% Node14->Node1
gsave
1 setlinewidth
dashed
0.77647 0.75294 0.80392 edgecolor
newpath 53.0829 216.6704 moveto
65.85 206.1266 83.903 192.386 101.5 183 curveto
116.9435 174.7627 135.4252 168.1324 150.2962 163.5036 curveto
stroke
0.77647 0.75294 0.80392 edgecolor
newpath 50.538 214.2386 moveto
45.1591 223.3665 lineto
55.0562 219.5852 lineto
closepath fill
1 setlinewidth
solid
0.77647 0.75294 0.80392 edgecolor
newpath 50.538 214.2386 moveto
45.1591 223.3665 lineto
55.0562 219.5852 lineto
closepath stroke
0 0 0 edgecolor
10 /Helvetica set_font
101.5 191.5 moveto 10 ( g) alignedtext
grestore
endpage
showpage
grestore
%%PageTrailer
%%EndPage: 1
%%Trailer
%%Pages: 1
%%BoundingBox: 36 36 892 590
end
restore
%%EOF
