%!PS-Adobe-3.0
%%Creator: graphviz version 2.43.0 (0)
%%Title: MInputMethodInfo
%%Pages: (atend)
%%BoundingBox: (atend)
%%EndComments
save
%%BeginProlog
/DotDict 200 dict def
DotDict begin

/setupLatin1 {
mark
/EncodingVector 256 array def
 EncodingVector 0

ISOLatin1Encoding 0 255 getinterval putinterval
EncodingVector 45 /hyphen put

% Set up ISO Latin 1 character encoding
/starnetISO {
        dup dup findfont dup length dict begin
        { 1 index /FID ne { def }{ pop pop } ifelse
        } forall
        /Encoding EncodingVector def
        currentdict end definefont
} def
/Times-Roman starnetISO def
/Times-Italic starnetISO def
/Times-Bold starnetISO def
/Times-BoldItalic starnetISO def
/Helvetica starnetISO def
/Helvetica-Oblique starnetISO def
/Helvetica-Bold starnetISO def
/Helvetica-BoldOblique starnetISO def
/Courier starnetISO def
/Courier-Oblique starnetISO def
/Courier-Bold starnetISO def
/Courier-BoldOblique starnetISO def
cleartomark
} bind def

%%BeginResource: procset graphviz 0 0
/coord-font-family /Times-Roman def
/default-font-family /Times-Roman def
/coordfont coord-font-family findfont 8 scalefont def

/InvScaleFactor 1.0 def
/set_scale {
       dup 1 exch div /InvScaleFactor exch def
       scale
} bind def

% styles
/solid { [] 0 setdash } bind def
/dashed { [9 InvScaleFactor mul dup ] 0 setdash } bind def
/dotted { [1 InvScaleFactor mul 6 InvScaleFactor mul] 0 setdash } bind def
/invis {/fill {newpath} def /stroke {newpath} def /show {pop newpath} def} bind def
/bold { 2 setlinewidth } bind def
/filled { } bind def
/unfilled { } bind def
/rounded { } bind def
/diagonals { } bind def
/tapered { } bind def

% hooks for setting color 
/nodecolor { sethsbcolor } bind def
/edgecolor { sethsbcolor } bind def
/graphcolor { sethsbcolor } bind def
/nopcolor {pop pop pop} bind def

/beginpage {	% i j npages
	/npages exch def
	/j exch def
	/i exch def
	/str 10 string def
	npages 1 gt {
		gsave
			coordfont setfont
			0 0 moveto
			(\() show i str cvs show (,) show j str cvs show (\)) show
		grestore
	} if
} bind def

/set_font {
	findfont exch
	scalefont setfont
} def

% draw text fitted to its expected width
/alignedtext {			% width text
	/text exch def
	/width exch def
	gsave
		width 0 gt {
			[] 0 setdash
			text stringwidth pop width exch sub text length div 0 text ashow
		} if
	grestore
} def

/boxprim {				% xcorner ycorner xsize ysize
		4 2 roll
		moveto
		2 copy
		exch 0 rlineto
		0 exch rlineto
		pop neg 0 rlineto
		closepath
} bind def

/ellipse_path {
	/ry exch def
	/rx exch def
	/y exch def
	/x exch def
	matrix currentmatrix
	newpath
	x y translate
	rx ry scale
	0 0 1 0 360 arc
	setmatrix
} bind def

/endpage { showpage } bind def
/showpage { } def

/layercolorseq
	[	% layer color sequence - darkest to lightest
		[0 0 0]
		[.2 .8 .8]
		[.4 .8 .8]
		[.6 .8 .8]
		[.8 .8 .8]
	]
def

/layerlen layercolorseq length def

/setlayer {/maxlayer exch def /curlayer exch def
	layercolorseq curlayer 1 sub layerlen mod get
	aload pop sethsbcolor
	/nodecolor {nopcolor} def
	/edgecolor {nopcolor} def
	/graphcolor {nopcolor} def
} bind def

/onlayer { curlayer ne {invis} if } def

/onlayers {
	/myupper exch def
	/mylower exch def
	curlayer mylower lt
	curlayer myupper gt
	or
	{invis} if
} def

/curlayer 0 def

%%EndResource
%%EndProlog
%%BeginSetup
14 default-font-family set_font
% /arrowlength 10 def
% /arrowwidth 5 def

% make sure pdfmark is harmless for PS-interpreters other than Distiller
/pdfmark where {pop} {userdict /pdfmark /cleartomark load put} ifelse
% make '<<' and '>>' safe on PS Level 1 devices
/languagelevel where {pop languagelevel}{1} ifelse
2 lt {
    userdict (<<) cvn ([) cvn load put
    userdict (>>) cvn ([) cvn load put
} if

%%EndSetup
setupLatin1
%%Page: 1 1
%%PageBoundingBox: 36 36 236 375
%%PageOrientation: Portrait
0 0 1 beginpage
gsave
36 36 200 339 boxprim clip newpath
1 1 set_scale 0 rotate 40 40 translate
% Node1
gsave
0 0 0.74902 nodecolor
newpath 24.5 .5 moveto
24.5 19.5 lineto
130.5 19.5 lineto
130.5 .5 lineto
closepath fill
1 setlinewidth
filled
0 0 0 nodecolor
newpath 24.5 .5 moveto
24.5 19.5 lineto
130.5 19.5 lineto
130.5 .5 lineto
closepath stroke
0 0 0 nodecolor
10 /Helvetica set_font
32.5 7.5 moveto 90 (MInputMethodInfo) alignedtext
grestore
% Node2
gsave
[ /Rect [ 0 177 47 197 ]
  /Border [ 0 0 0 ]
  /Action << /Subtype /URI /URI ($structMPlist.html) >>
  /Subtype /Link
/ANN pdfmark
0 0 1 nodecolor
newpath 0 177.5 moveto
0 196.5 lineto
47 196.5 lineto
47 177.5 lineto
closepath fill
1 setlinewidth
filled
0 0 0 nodecolor
newpath 0 177.5 moveto
0 196.5 lineto
47 196.5 lineto
47 177.5 lineto
closepath stroke
0 0 0 nodecolor
10 /Helvetica set_font
8 184.5 moveto 31 (MPlist) alignedtext
grestore
% Node2->Node1
gsave
1 setlinewidth
dashed
0.77647 0.75294 0.80392 edgecolor
newpath 18.1565 167.6553 moveto
10.6474 137.9414 .499 78.5319 25.5 38 curveto
30.68 29.6021 39.4002 23.6918 48.2341 19.5897 curveto
stroke
0.77647 0.75294 0.80392 edgecolor
newpath 14.8282 168.7548 moveto
20.8264 177.4882 lineto
21.5836 166.9204 lineto
closepath fill
1 setlinewidth
solid
0.77647 0.75294 0.80392 edgecolor
newpath 14.8282 168.7548 moveto
20.8264 177.4882 lineto
21.5836 166.9204 lineto
closepath stroke
0 0 0 edgecolor
10 /Helvetica set_font
44 151 moveto 46 ( bc_cmds) alignedtext
0 0 0 edgecolor
10 /Helvetica set_font
48 140 moveto 38 (bc_vars) alignedtext
0 0 0 edgecolor
10 /Helvetica set_font
53.5 129 moveto 27 (cmds) alignedtext
0 0 0 edgecolor
10 /Helvetica set_font
25.5 118 moveto 83 (configured_cmds) alignedtext
0 0 0 edgecolor
10 /Helvetica set_font
28 107 moveto 78 (configured_vars) alignedtext
0 0 0 edgecolor
10 /Helvetica set_font
44 96 moveto 46 (externals) alignedtext
0 0 0 edgecolor
10 /Helvetica set_font
48.5 85 moveto 37 (macros) alignedtext
0 0 0 edgecolor
10 /Helvetica set_font
53 74 moveto 28 (maps) alignedtext
0 0 0 edgecolor
10 /Helvetica set_font
51.5 63 moveto 31 (states) alignedtext
0 0 0 edgecolor
10 /Helvetica set_font
56 52 moveto 22 (vars) alignedtext
0 0 0 edgecolor
10 /Helvetica set_font
62 41 moveto 10 (...) alignedtext
grestore
% Node2->Node2
gsave
1 setlinewidth
dashed
0.77647 0.75294 0.80392 edgecolor
newpath 57.5148 192.294 moveto
62.0146 191.3926 65 189.6279 65 187 curveto
65 182.6875 56.9604 180.6997 47.3819 181.0366 curveto
stroke
0.77647 0.75294 0.80392 edgecolor
newpath 57.1295 188.8118 moveto
47.3819 192.9634 lineto
57.5909 195.7965 lineto
closepath fill
1 setlinewidth
solid
0.77647 0.75294 0.80392 edgecolor
newpath 57.1295 188.8118 moveto
47.3819 192.9634 lineto
57.5909 195.7965 lineto
closepath stroke
0 0 0 edgecolor
10 /Helvetica set_font
65 184.5 moveto 25 ( next) alignedtext
grestore
% Node3
gsave
[ /Rect [ 39 244 116 264 ]
  /Border [ 0 0 0 ]
  /Action << /Subtype /URI /URI ($structM17NObject.html) >>
  /Subtype /Link
/ANN pdfmark
0 0 1 nodecolor
newpath 39 244.5 moveto
39 263.5 lineto
116 263.5 lineto
116 244.5 lineto
closepath fill
1 setlinewidth
filled
0 0 0 nodecolor
newpath 39 244.5 moveto
39 263.5 lineto
116 263.5 lineto
116 244.5 lineto
closepath stroke
0 0 0 nodecolor
10 /Helvetica set_font
47 251.5 moveto 61 (M17NObject) alignedtext
grestore
% Node3->Node2
gsave
1 setlinewidth
dashed
0.77647 0.75294 0.80392 edgecolor
newpath 63.6016 236.2705 moveto
53.0731 223.5972 39.0362 206.701 30.6673 196.6273 curveto
stroke
0.77647 0.75294 0.80392 edgecolor
newpath 61.1349 238.7785 moveto
70.2173 244.2338 lineto
66.5193 234.3053 lineto
closepath fill
1 setlinewidth
solid
0.77647 0.75294 0.80392 edgecolor
newpath 61.1349 238.7785 moveto
70.2173 244.2338 lineto
66.5193 234.3053 lineto
closepath stroke
0 0 0 edgecolor
10 /Helvetica set_font
54.5 218 moveto 37 ( control) alignedtext
grestore
% Node5
gsave
[ /Rect [ 108.5 177 154.5 197 ]
  /Border [ 0 0 0 ]
  /Action << /Subtype /URI /URI ($structMText.html) >>
  /Subtype /Link
/ANN pdfmark
0 0 1 nodecolor
newpath 108.5 177.5 moveto
108.5 196.5 lineto
154.5 196.5 lineto
154.5 177.5 lineto
closepath fill
1 setlinewidth
filled
0 0 0 nodecolor
newpath 108.5 177.5 moveto
108.5 196.5 lineto
154.5 196.5 lineto
154.5 177.5 lineto
closepath stroke
0 0 0 nodecolor
10 /Helvetica set_font
116.5 184.5 moveto 30 (MText) alignedtext
grestore
% Node3->Node5
gsave
1 setlinewidth
dashed
0.77647 0.75294 0.80392 edgecolor
newpath 91.3984 236.2705 moveto
101.9269 223.5972 115.9638 206.701 124.3327 196.6273 curveto
stroke
0.77647 0.75294 0.80392 edgecolor
newpath 88.4807 234.3053 moveto
84.7827 244.2338 lineto
93.8651 238.7785 lineto
closepath fill
1 setlinewidth
solid
0.77647 0.75294 0.80392 edgecolor
newpath 88.4807 234.3053 moveto
84.7827 244.2338 lineto
93.8651 238.7785 lineto
closepath stroke
0 0 0 edgecolor
10 /Helvetica set_font
108.5 218 moveto 37 ( control) alignedtext
grestore
% Node4
gsave
[ /Rect [ 22.5 311 132.5 331 ]
  /Border [ 0 0 0 ]
  /Action << /Subtype /URI /URI ($structM17NObjectRecord.html) >>
  /Subtype /Link
/ANN pdfmark
0 0 1 nodecolor
newpath 22.5 311.5 moveto
22.5 330.5 lineto
132.5 330.5 lineto
132.5 311.5 lineto
closepath fill
1 setlinewidth
filled
0 0 0 nodecolor
newpath 22.5 311.5 moveto
22.5 330.5 lineto
132.5 330.5 lineto
132.5 311.5 lineto
closepath stroke
0 0 0 nodecolor
10 /Helvetica set_font
30.5 318.5 moveto 94 (M17NObjectRecord) alignedtext
grestore
% Node4->Node3
gsave
1 setlinewidth
dashed
0.77647 0.75294 0.80392 edgecolor
newpath 77.5 301.037 moveto
77.5 288.6703 77.5 273.1198 77.5 263.6273 curveto
stroke
0.77647 0.75294 0.80392 edgecolor
newpath 74.0001 301.2338 moveto
77.5 311.2338 lineto
81.0001 301.2338 lineto
closepath fill
1 setlinewidth
solid
0.77647 0.75294 0.80392 edgecolor
newpath 74.0001 301.2338 moveto
77.5 311.2338 lineto
81.0001 301.2338 lineto
closepath stroke
0 0 0 edgecolor
10 /Helvetica set_font
77.5 285 moveto 34 ( record) alignedtext
grestore
% Node5->Node1
gsave
1 setlinewidth
dashed
0.77647 0.75294 0.80392 edgecolor
newpath 132.5557 167.2251 moveto
133.3767 137.7839 131.5678 79.8058 108.5 38 curveto
104.4313 30.6263 97.5271 24.3137 91.2657 19.6507 curveto
stroke
0.77647 0.75294 0.80392 edgecolor
newpath 129.0539 167.1989 moveto
132.1333 177.3363 lineto
136.0478 167.4911 lineto
closepath fill
1 setlinewidth
solid
0.77647 0.75294 0.80392 edgecolor
newpath 129.0539 167.1989 moveto
132.1333 177.3363 lineto
136.0478 167.4911 lineto
closepath stroke
0 0 0 edgecolor
10 /Helvetica set_font
133.5 101.5 moveto 58 ( description) alignedtext
0 0 0 edgecolor
10 /Helvetica set_font
152.5 90.5 moveto 20 (title) alignedtext
grestore
endpage
showpage
grestore
%%PageTrailer
%%EndPage: 1
%%Trailer
%%Pages: 1
%%BoundingBox: 36 36 236 375
end
restore
%%EOF
