%!PS-Adobe-3.0
%%Creator: graphviz version 2.43.0 (0)
%%Title: MFontDriver
%%Pages: (atend)
%%BoundingBox: (atend)
%%EndComments
save
%%BeginProlog
/DotDict 200 dict def
DotDict begin

/setupLatin1 {
mark
/EncodingVector 256 array def
 EncodingVector 0

ISOLatin1Encoding 0 255 getinterval putinterval
EncodingVector 45 /hyphen put

% Set up ISO Latin 1 character encoding
/starnetISO {
        dup dup findfont dup length dict begin
        { 1 index /FID ne { def }{ pop pop } ifelse
        } forall
        /Encoding EncodingVector def
        currentdict end definefont
} def
/Times-Roman starnetISO def
/Times-Italic starnetISO def
/Times-Bold starnetISO def
/Times-BoldItalic starnetISO def
/Helvetica starnetISO def
/Helvetica-Oblique starnetISO def
/Helvetica-Bold starnetISO def
/Helvetica-BoldOblique starnetISO def
/Courier starnetISO def
/Courier-Oblique starnetISO def
/Courier-Bold starnetISO def
/Courier-BoldOblique starnetISO def
cleartomark
} bind def

%%BeginResource: procset graphviz 0 0
/coord-font-family /Times-Roman def
/default-font-family /Times-Roman def
/coordfont coord-font-family findfont 8 scalefont def

/InvScaleFactor 1.0 def
/set_scale {
       dup 1 exch div /InvScaleFactor exch def
       scale
} bind def

% styles
/solid { [] 0 setdash } bind def
/dashed { [9 InvScaleFactor mul dup ] 0 setdash } bind def
/dotted { [1 InvScaleFactor mul 6 InvScaleFactor mul] 0 setdash } bind def
/invis {/fill {newpath} def /stroke {newpath} def /show {pop newpath} def} bind def
/bold { 2 setlinewidth } bind def
/filled { } bind def
/unfilled { } bind def
/rounded { } bind def
/diagonals { } bind def
/tapered { } bind def

% hooks for setting color 
/nodecolor { sethsbcolor } bind def
/edgecolor { sethsbcolor } bind def
/graphcolor { sethsbcolor } bind def
/nopcolor {pop pop pop} bind def

/beginpage {	% i j npages
	/npages exch def
	/j exch def
	/i exch def
	/str 10 string def
	npages 1 gt {
		gsave
			coordfont setfont
			0 0 moveto
			(\() show i str cvs show (,) show j str cvs show (\)) show
		grestore
	} if
} bind def

/set_font {
	findfont exch
	scalefont setfont
} def

% draw text fitted to its expected width
/alignedtext {			% width text
	/text exch def
	/width exch def
	gsave
		width 0 gt {
			[] 0 setdash
			text stringwidth pop width exch sub text length div 0 text ashow
		} if
	grestore
} def

/boxprim {				% xcorner ycorner xsize ysize
		4 2 roll
		moveto
		2 copy
		exch 0 rlineto
		0 exch rlineto
		pop neg 0 rlineto
		closepath
} bind def

/ellipse_path {
	/ry exch def
	/rx exch def
	/y exch def
	/x exch def
	matrix currentmatrix
	newpath
	x y translate
	rx ry scale
	0 0 1 0 360 arc
	setmatrix
} bind def

/endpage { showpage } bind def
/showpage { } def

/layercolorseq
	[	% layer color sequence - darkest to lightest
		[0 0 0]
		[.2 .8 .8]
		[.4 .8 .8]
		[.6 .8 .8]
		[.8 .8 .8]
	]
def

/layerlen layercolorseq length def

/setlayer {/maxlayer exch def /curlayer exch def
	layercolorseq curlayer 1 sub layerlen mod get
	aload pop sethsbcolor
	/nodecolor {nopcolor} def
	/edgecolor {nopcolor} def
	/graphcolor {nopcolor} def
} bind def

/onlayer { curlayer ne {invis} if } def

/onlayers {
	/myupper exch def
	/mylower exch def
	curlayer mylower lt
	curlayer myupper gt
	or
	{invis} if
} def

/curlayer 0 def

%%EndResource
%%EndProlog
%%BeginSetup
14 default-font-family set_font
% /arrowlength 10 def
% /arrowwidth 5 def

% make sure pdfmark is harmless for PS-interpreters other than Distiller
/pdfmark where {pop} {userdict /pdfmark /cleartomark load put} ifelse
% make '<<' and '>>' safe on PS Level 1 devices
/languagelevel where {pop languagelevel}{1} ifelse
2 lt {
    userdict (<<) cvn ([) cvn load put
    userdict (>>) cvn ([) cvn load put
} if

%%EndSetup
setupLatin1
%%Page: 1 1
%%PageBoundingBox: 36 36 824 447
%%PageOrientation: Portrait
0 0 1 beginpage
gsave
36 36 788 411 boxprim clip newpath
1 1 set_scale 0 rotate 40 40 translate
% Node1
gsave
0 0 0.74902 nodecolor
newpath 586.5 248.5 moveto
586.5 267.5 lineto
663.5 267.5 lineto
663.5 248.5 lineto
closepath fill
1 setlinewidth
filled
0 0 0 nodecolor
newpath 586.5 248.5 moveto
586.5 267.5 lineto
663.5 267.5 lineto
663.5 248.5 lineto
closepath stroke
0 0 0 nodecolor
10 /Helvetica set_font
594.5 255.5 moveto 61 (MFontDriver) alignedtext
grestore
% Node2
gsave
[ /Rect [ 550.5 168 639.5 188 ]
  /Border [ 0 0 0 ]
  /Action << /Subtype /URI /URI ($structMRealizedFont.html) >>
  /Subtype /Link
/ANN pdfmark
0 0 1 nodecolor
newpath 550.5 168.5 moveto
550.5 187.5 lineto
639.5 187.5 lineto
639.5 168.5 lineto
closepath fill
1 setlinewidth
filled
0 0 0 nodecolor
newpath 550.5 168.5 moveto
550.5 187.5 lineto
639.5 187.5 lineto
639.5 168.5 lineto
closepath stroke
0 0 0 nodecolor
10 /Helvetica set_font
558.5 175.5 moveto 73 (MRealizedFont) alignedtext
grestore
% Node1->Node2
gsave
1 setlinewidth
dashed
0.77647 0.75294 0.80392 edgecolor
newpath 586.0393 243.5536 moveto
580.0471 239.7756 574.6489 235.0022 571 229 curveto
565.9208 220.645 567.6076 216.1704 571 207 curveto
573.7544 199.5541 579.4714 192.7521 584.6346 187.7171 curveto
stroke
0.77647 0.75294 0.80392 edgecolor
newpath 584.6402 246.7744 moveto
595.1091 248.4036 lineto
587.9412 240.6016 lineto
closepath fill
1 setlinewidth
solid
0.77647 0.75294 0.80392 edgecolor
newpath 584.6402 246.7744 moveto
595.1091 248.4036 lineto
587.9412 240.6016 lineto
closepath stroke
0 0 0 edgecolor
10 /Helvetica set_font
571 215.5 moveto 32 ( driver) alignedtext
grestore
% Node2->Node1
gsave
1 setlinewidth
dashed
0.77647 0.75294 0.80392 edgecolor
newpath 602.0654 197.3701 moveto
608.2528 213.4573 616.9695 236.1206 621.6749 248.3546 curveto
stroke
0.77647 0.75294 0.80392 edgecolor
newpath 605.2888 196.0008 moveto
598.4322 187.9238 lineto
598.7554 198.5137 lineto
closepath fill
1 setlinewidth
solid
0.77647 0.75294 0.80392 edgecolor
newpath 605.2888 196.0008 moveto
598.4322 187.9238 lineto
598.7554 198.5137 lineto
closepath stroke
0 0 0 edgecolor
10 /Helvetica set_font
613 221 moveto 63 ( encapsulate) alignedtext
0 0 0 edgecolor
10 /Helvetica set_font
632 210 moveto 25 (open) alignedtext
grestore
% Node2->Node2
gsave
1 setlinewidth
dashed
0.77647 0.75294 0.80392 edgecolor
newpath 649.8258 183.8589 moveto
654.5493 182.6141 657.5 180.6611 657.5 178 curveto
657.5 173.7422 649.9463 171.2973 639.6631 170.6653 curveto
stroke
0.77647 0.75294 0.80392 edgecolor
newpath 649.0563 180.4339 moveto
639.6631 185.3347 lineto
650.0624 187.3612 lineto
closepath fill
1 setlinewidth
solid
0.77647 0.75294 0.80392 edgecolor
newpath 649.0563 180.4339 moveto
639.6631 185.3347 lineto
650.0624 187.3612 lineto
closepath stroke
0 0 0 edgecolor
10 /Helvetica set_font
657.5 175.5 moveto 25 ( next) alignedtext
grestore
% Node10
gsave
[ /Rect [ 288.5 67 377.5 87 ]
  /Border [ 0 0 0 ]
  /Action << /Subtype /URI /URI ($structMRealizedFace.html) >>
  /Subtype /Link
/ANN pdfmark
0 0 1 nodecolor
newpath 288.5 67.5 moveto
288.5 86.5 lineto
377.5 86.5 lineto
377.5 67.5 lineto
closepath fill
1 setlinewidth
filled
0 0 0 nodecolor
newpath 288.5 67.5 moveto
288.5 86.5 lineto
377.5 86.5 lineto
377.5 67.5 lineto
closepath stroke
0 0 0 nodecolor
10 /Helvetica set_font
296.5 74.5 moveto 73 (MRealizedFace) alignedtext
grestore
% Node2->Node10
gsave
1 setlinewidth
dashed
0.77647 0.75294 0.80392 edgecolor
newpath 573.0622 162.8187 moveto
543.8046 144.1244 493.3402 112.6988 473 105 curveto
442.2097 93.3458 405.6247 86.5134 377.5767 82.6383 curveto
stroke
0.77647 0.75294 0.80392 edgecolor
newpath 571.4447 165.9394 moveto
581.7511 168.3947 lineto
575.2254 160.0482 lineto
closepath fill
1 setlinewidth
solid
0.77647 0.75294 0.80392 edgecolor
newpath 571.4447 165.9394 moveto
581.7511 168.3947 lineto
575.2254 160.0482 lineto
closepath stroke
0 0 0 edgecolor
10 /Helvetica set_font
549 124.5 moveto 27 ( rfont) alignedtext
grestore
% Node3
gsave
[ /Rect [ 304 0 360 20 ]
  /Border [ 0 0 0 ]
  /Action << /Subtype /URI /URI ($structMFrame.html) >>
  /Subtype /Link
/ANN pdfmark
0 0 1 nodecolor
newpath 304 .5 moveto
304 19.5 lineto
360 19.5 lineto
360 .5 lineto
closepath fill
1 setlinewidth
filled
0 0 0 nodecolor
newpath 304 .5 moveto
304 19.5 lineto
360 19.5 lineto
360 .5 lineto
closepath stroke
0 0 0 nodecolor
10 /Helvetica set_font
312 7.5 moveto 40 (MFrame) alignedtext
grestore
% Node3->Node2
gsave
1 setlinewidth
dashed
0.77647 0.75294 0.80392 edgecolor
newpath 370.2989 15.398 moveto
429.4469 22.9461 539.1229 40.1925 567 67 curveto
595.8346 94.7282 596.5457 147.6492 595.6042 168.3732 curveto
stroke
0.77647 0.75294 0.80392 edgecolor
newpath 370.5758 11.9055 moveto
360.22 14.1433 lineto
369.711 18.8519 lineto
closepath fill
1 setlinewidth
solid
0.77647 0.75294 0.80392 edgecolor
newpath 370.5758 11.9055 moveto
360.22 14.1433 lineto
369.711 18.8519 lineto
closepath stroke
0 0 0 edgecolor
10 /Helvetica set_font
581 74.5 moveto 33 ( frame) alignedtext
grestore
% Node3->Node10
gsave
1 setlinewidth
dashed
0.77647 0.75294 0.80392 edgecolor
newpath 335.19 30.1361 moveto
335.5253 32.7713 335.812 35.448 336 38 curveto
336.7391 48.0318 335.5429 59.5473 334.449 67.248 curveto
stroke
0.77647 0.75294 0.80392 edgecolor
newpath 338.609 29.3341 moveto
333.6658 19.9632 lineto
331.6863 30.3714 lineto
closepath fill
1 setlinewidth
solid
0.77647 0.75294 0.80392 edgecolor
newpath 338.609 29.3341 moveto
333.6658 19.9632 lineto
331.6863 30.3714 lineto
closepath stroke
0 0 0 edgecolor
10 /Helvetica set_font
337 41 moveto 33 ( frame) alignedtext
grestore
% Node4
gsave
[ /Rect [ 110.5 248 157.5 268 ]
  /Border [ 0 0 0 ]
  /Action << /Subtype /URI /URI ($structMPlist.html) >>
  /Subtype /Link
/ANN pdfmark
0 0 1 nodecolor
newpath 110.5 248.5 moveto
110.5 267.5 lineto
157.5 267.5 lineto
157.5 248.5 lineto
closepath fill
1 setlinewidth
filled
0 0 0 nodecolor
newpath 110.5 248.5 moveto
110.5 267.5 lineto
157.5 267.5 lineto
157.5 248.5 lineto
closepath stroke
0 0 0 nodecolor
10 /Helvetica set_font
118.5 255.5 moveto 31 (MPlist) alignedtext
grestore
% Node4->Node3
gsave
1 setlinewidth
dashed
0.77647 0.75294 0.80392 edgecolor
newpath 118.572 240.7623 moveto
92.716 211.5244 46.3402 148.9787 77 105 curveto
129.3482 29.9113 248.7975 14.6466 303.5853 11.6571 curveto
stroke
0.77647 0.75294 0.80392 edgecolor
newpath 116.2106 243.3671 moveto
125.5353 248.3971 lineto
121.3826 238.65 lineto
closepath fill
1 setlinewidth
solid
0.77647 0.75294 0.80392 edgecolor
newpath 116.2106 243.3671 moveto
125.5353 248.3971 lineto
121.3826 238.65 lineto
closepath stroke
0 0 0 edgecolor
10 /Helvetica set_font
88.5 141 moveto 77 ( font_driver_list) alignedtext
0 0 0 edgecolor
10 /Helvetica set_font
84 130 moveto 86 (realized_face_list) alignedtext
0 0 0 edgecolor
10 /Helvetica set_font
84.5 119 moveto 85 (realized_font_list) alignedtext
0 0 0 edgecolor
10 /Helvetica set_font
77 108 moveto 100 (realized_fontset_list) alignedtext
grestore
% Node4->Node4
gsave
1 setlinewidth
dashed
0.77647 0.75294 0.80392 edgecolor
newpath 168.0148 263.6249 moveto
172.5146 262.6671 175.5 260.7922 175.5 258 curveto
175.5 253.418 167.4604 251.3059 157.8819 251.6639 curveto
stroke
0.77647 0.75294 0.80392 edgecolor
newpath 167.6123 260.1445 moveto
157.8819 264.3361 lineto
168.1025 267.1273 lineto
closepath fill
1 setlinewidth
solid
0.77647 0.75294 0.80392 edgecolor
newpath 167.6123 260.1445 moveto
157.8819 264.3361 lineto
168.1025 267.1273 lineto
closepath stroke
0 0 0 edgecolor
10 /Helvetica set_font
175.5 255.5 moveto 25 ( next) alignedtext
grestore
% Node7
gsave
[ /Rect [ 108.5 168 155.5 188 ]
  /Border [ 0 0 0 ]
  /Action << /Subtype /URI /URI ($structMFace.html) >>
  /Subtype /Link
/ANN pdfmark
0 0 1 nodecolor
newpath 108.5 168.5 moveto
108.5 187.5 lineto
155.5 187.5 lineto
155.5 168.5 lineto
closepath fill
1 setlinewidth
filled
0 0 0 nodecolor
newpath 108.5 168.5 moveto
108.5 187.5 lineto
155.5 187.5 lineto
155.5 168.5 lineto
closepath stroke
0 0 0 nodecolor
10 /Helvetica set_font
116.5 175.5 moveto 31 (MFace) alignedtext
grestore
% Node4->Node7
gsave
1 setlinewidth
dashed
0.77647 0.75294 0.80392 edgecolor
newpath 133.5147 238.0719 moveto
133.1063 222.1448 132.5405 200.0781 132.2288 187.9238 curveto
stroke
0.77647 0.75294 0.80392 edgecolor
newpath 130.0231 238.4476 moveto
133.7783 248.3546 lineto
137.0208 238.2682 lineto
closepath fill
1 setlinewidth
solid
0.77647 0.75294 0.80392 edgecolor
newpath 130.0231 238.4476 moveto
133.7783 248.3546 lineto
137.0208 238.2682 lineto
closepath stroke
0 0 0 edgecolor
10 /Helvetica set_font
134 215.5 moveto 53 ( frame_list) alignedtext
grestore
% Node4->Node10
gsave
1 setlinewidth
dashed
0.77647 0.75294 0.80392 edgecolor
newpath 168.0823 254.4205 moveto
239.145 248.2604 399.2695 230.0405 432 189 curveto
455.6662 159.3251 412.7376 122.9513 392 105 curveto
382.7166 96.9639 370.6425 90.8762 359.8371 86.5346 curveto
stroke
0.77647 0.75294 0.80392 edgecolor
newpath 167.5448 250.9532 moveto
157.8717 255.2753 lineto
168.1289 257.9288 lineto
closepath fill
1 setlinewidth
solid
0.77647 0.75294 0.80392 edgecolor
newpath 167.5448 250.9532 moveto
157.8717 255.2753 lineto
168.1289 257.9288 lineto
closepath stroke
0 0 0 edgecolor
10 /Helvetica set_font
439 181 moveto 73 ( base_face_list) alignedtext
0 0 0 edgecolor
10 /Helvetica set_font
442 170 moveto 67 (non_ascii_list) alignedtext
grestore
% Node5
gsave
[ /Rect [ 16.5 316 93.5 336 ]
  /Border [ 0 0 0 ]
  /Action << /Subtype /URI /URI ($structM17NObject.html) >>
  /Subtype /Link
/ANN pdfmark
0 0 1 nodecolor
newpath 16.5 316.5 moveto
16.5 335.5 lineto
93.5 335.5 lineto
93.5 316.5 lineto
closepath fill
1 setlinewidth
filled
0 0 0 nodecolor
newpath 16.5 316.5 moveto
16.5 335.5 lineto
93.5 335.5 lineto
93.5 316.5 lineto
closepath stroke
0 0 0 nodecolor
10 /Helvetica set_font
24.5 323.5 moveto 61 (M17NObject) alignedtext
grestore
% Node5->Node3
gsave
1 setlinewidth
dashed
0.77647 0.75294 0.80392 edgecolor
newpath 35.8749 309.304 moveto
23.2405 297.0821 9 278.894 9 259 curveto
9 259 9 259 9 76 curveto
9 16.0824 225.317 10.7018 303.9009 10.724 curveto
stroke
0.77647 0.75294 0.80392 edgecolor
newpath 33.6285 311.9915 moveto
43.3923 316.1048 lineto
38.3246 306.8005 lineto
closepath fill
1 setlinewidth
solid
0.77647 0.75294 0.80392 edgecolor
newpath 33.6285 311.9915 moveto
43.3923 316.1048 lineto
38.3246 306.8005 lineto
closepath stroke
0 0 0 edgecolor
10 /Helvetica set_font
9 175.5 moveto 37 ( control) alignedtext
grestore
% Node5->Node4
gsave
1 setlinewidth
dashed
0.77647 0.75294 0.80392 edgecolor
newpath 73.2726 309.7343 moveto
88.9214 296.6606 110.8938 278.3039 123.6696 267.6305 curveto
stroke
0.77647 0.75294 0.80392 edgecolor
newpath 70.7581 307.2742 moveto
65.3279 316.3717 lineto
75.2461 312.6462 lineto
closepath fill
1 setlinewidth
solid
0.77647 0.75294 0.80392 edgecolor
newpath 70.7581 307.2742 moveto
65.3279 316.3717 lineto
75.2461 312.6462 lineto
closepath stroke
0 0 0 edgecolor
10 /Helvetica set_font
100 290 moveto 37 ( control) alignedtext
grestore
% Node5->Node7
gsave
1 setlinewidth
dashed
0.77647 0.75294 0.80392 edgecolor
newpath 53.7818 305.8436 moveto
53.5166 289.4291 55.0276 265.5677 64 247 curveto
76.5668 220.9938 103.2031 199.0823 119.154 187.6078 curveto
stroke
0.77647 0.75294 0.80392 edgecolor
newpath 50.3035 306.4483 moveto
54.2075 316.2976 lineto
57.2977 306.1634 lineto
closepath fill
1 setlinewidth
solid
0.77647 0.75294 0.80392 edgecolor
newpath 50.3035 306.4483 moveto
54.2075 316.2976 lineto
57.2977 306.1634 lineto
closepath stroke
0 0 0 edgecolor
10 /Helvetica set_font
64 255.5 moveto 37 ( control) alignedtext
grestore
% Node6
gsave
[ /Rect [ 0 383 110 403 ]
  /Border [ 0 0 0 ]
  /Action << /Subtype /URI /URI ($structM17NObjectRecord.html) >>
  /Subtype /Link
/ANN pdfmark
0 0 1 nodecolor
newpath 0 383.5 moveto
0 402.5 lineto
110 402.5 lineto
110 383.5 lineto
closepath fill
1 setlinewidth
filled
0 0 0 nodecolor
newpath 0 383.5 moveto
0 402.5 lineto
110 402.5 lineto
110 383.5 lineto
closepath stroke
0 0 0 nodecolor
10 /Helvetica set_font
8 390.5 moveto 94 (M17NObjectRecord) alignedtext
grestore
% Node6->Node5
gsave
1 setlinewidth
dashed
0.77647 0.75294 0.80392 edgecolor
newpath 55 373.037 moveto
55 360.6703 55 345.1198 55 335.6273 curveto
stroke
0.77647 0.75294 0.80392 edgecolor
newpath 51.5001 373.2338 moveto
55 383.2338 lineto
58.5001 373.2338 lineto
closepath fill
1 setlinewidth
solid
0.77647 0.75294 0.80392 edgecolor
newpath 51.5001 373.2338 moveto
55 383.2338 lineto
58.5001 373.2338 lineto
closepath stroke
0 0 0 edgecolor
10 /Helvetica set_font
55 357 moveto 34 ( record) alignedtext
grestore
% Node7->Node3
gsave
1 setlinewidth
dashed
0.77647 0.75294 0.80392 edgecolor
newpath 161.3036 163.332 moveto
168.2201 159.3057 175.2474 154.4852 181 149 curveto
197.7756 133.0043 193.7484 122.4549 209 105 curveto
226.2239 85.2878 233.352 83.0902 254 67 curveto
276.4853 49.4782 303.7338 30.3782 319.3497 19.6263 curveto
stroke
0.77647 0.75294 0.80392 edgecolor
newpath 159.2067 160.4866 moveto
152.0709 168.318 lineto
162.5329 166.6459 lineto
closepath fill
1 setlinewidth
solid
0.77647 0.75294 0.80392 edgecolor
newpath 159.2067 160.4866 moveto
152.0709 168.318 lineto
162.5329 166.6459 lineto
closepath stroke
0 0 0 edgecolor
10 /Helvetica set_font
254 74.5 moveto 25 ( face) alignedtext
grestore
% Node7->Node7
gsave
1 setlinewidth
dashed
0.77647 0.75294 0.80392 edgecolor
newpath 166.0148 184.6175 moveto
170.5146 183.4908 173.5 181.2849 173.5 178 curveto
173.5 172.6094 165.4604 170.1246 155.8819 170.5458 curveto
stroke
0.77647 0.75294 0.80392 edgecolor
newpath 165.56 181.1431 moveto
155.8819 185.4542 lineto
166.1361 188.1194 lineto
closepath fill
1 setlinewidth
solid
0.77647 0.75294 0.80392 edgecolor
newpath 165.56 181.1431 moveto
155.8819 185.4542 lineto
166.1361 188.1194 lineto
closepath stroke
0 0 0 edgecolor
10 /Helvetica set_font
173.5 175.5 moveto 28 ( hook) alignedtext
grestore
% Node7->Node10
gsave
1 setlinewidth
dashed
0.77647 0.75294 0.80392 edgecolor
newpath 165.232 167.1342 moveto
178.3892 162.5451 193.3595 156.4402 206 149 curveto
232.0905 133.6432 231.7862 120.1453 258 105 curveto
271.5404 97.1769 287.7402 90.9994 301.6133 86.5391 curveto
stroke
0.77647 0.75294 0.80392 edgecolor
newpath 163.974 163.8641 moveto
155.5926 170.3451 lineto
166.1862 170.5054 lineto
closepath fill
1 setlinewidth
solid
0.77647 0.75294 0.80392 edgecolor
newpath 163.974 163.8641 moveto
155.5926 170.3451 lineto
166.1862 170.5054 lineto
closepath stroke
0 0 0 edgecolor
10 /Helvetica set_font
258 124.5 moveto 25 ( face) alignedtext
grestore
% Node8
gsave
[ /Rect [ 469.5 67 558.5 87 ]
  /Border [ 0 0 0 ]
  /Action << /Subtype /URI /URI ($structMDeviceDriver.html) >>
  /Subtype /Link
/ANN pdfmark
0 0 1 nodecolor
newpath 469.5 67.5 moveto
469.5 86.5 lineto
558.5 86.5 lineto
558.5 67.5 lineto
closepath fill
1 setlinewidth
filled
0 0 0 nodecolor
newpath 469.5 67.5 moveto
469.5 86.5 lineto
558.5 86.5 lineto
558.5 67.5 lineto
closepath stroke
0 0 0 nodecolor
10 /Helvetica set_font
477.5 74.5 moveto 73 (MDeviceDriver) alignedtext
grestore
% Node8->Node3
gsave
1 setlinewidth
dashed
0.77647 0.75294 0.80392 edgecolor
newpath 480.2218 63.9363 moveto
444.1166 51.0417 387.7879 30.9243 355.9783 19.5637 curveto
stroke
0.77647 0.75294 0.80392 edgecolor
newpath 479.2372 67.3012 moveto
489.8318 67.3685 lineto
481.5916 60.709 lineto
closepath fill
1 setlinewidth
solid
0.77647 0.75294 0.80392 edgecolor
newpath 479.2372 67.3012 moveto
489.8318 67.3685 lineto
481.5916 60.709 lineto
closepath stroke
0 0 0 edgecolor
10 /Helvetica set_font
434 41 moveto 32 ( driver) alignedtext
grestore
% Node9
gsave
[ /Rect [ 663.5 316 710.5 336 ]
  /Border [ 0 0 0 ]
  /Action << /Subtype /URI /URI ($structMFont.html) >>
  /Subtype /Link
/ANN pdfmark
0 0 1 nodecolor
newpath 663.5 316.5 moveto
663.5 335.5 lineto
710.5 335.5 lineto
710.5 316.5 lineto
closepath fill
1 setlinewidth
filled
0 0 0 nodecolor
newpath 663.5 316.5 moveto
663.5 335.5 lineto
710.5 335.5 lineto
710.5 316.5 lineto
closepath stroke
0 0 0 nodecolor
10 /Helvetica set_font
671.5 323.5 moveto 31 (MFont) alignedtext
grestore
% Node9->Node1
gsave
1 setlinewidth
dashed
0.77647 0.75294 0.80392 edgecolor
newpath 672.0142 309.0474 moveto
659.862 296.1111 643.1836 278.3567 633.3053 267.8411 curveto
stroke
0.77647 0.75294 0.80392 edgecolor
newpath 669.4968 311.4795 moveto
678.8946 316.3717 lineto
674.5988 306.6868 lineto
closepath fill
1 setlinewidth
solid
0.77647 0.75294 0.80392 edgecolor
newpath 669.4968 311.4795 moveto
678.8946 316.3717 lineto
674.5988 306.6868 lineto
closepath stroke
0 0 0 edgecolor
10 /Helvetica set_font
661 290 moveto 33 ( select) alignedtext
grestore
% Node9->Node2
gsave
1 setlinewidth
dashed
0.77647 0.75294 0.80392 edgecolor
newpath 653.1523 321.1748 moveto
621.4987 315.6013 575.9135 302.0034 554 269 curveto
545.1415 255.6584 563.1027 208.4949 564 207 curveto
568.6281 199.2895 576.0459 192.4792 582.4651 187.5061 curveto
stroke
0.77647 0.75294 0.80392 edgecolor
newpath 652.8756 324.6743 moveto
663.2985 322.7737 lineto
653.9653 317.7596 lineto
closepath fill
1 setlinewidth
solid
0.77647 0.75294 0.80392 edgecolor
newpath 652.8756 324.6743 moveto
663.2985 322.7737 lineto
653.9653 317.7596 lineto
closepath stroke
0 0 0 edgecolor
10 /Helvetica set_font
554 261 moveto 23 ( font) alignedtext
0 0 0 edgecolor
10 /Helvetica set_font
554 250 moveto 23 (spec) alignedtext
grestore
% Node9->Node3
gsave
1 setlinewidth
dashed
0.77647 0.75294 0.80392 edgecolor
newpath 716.1019 311.6056 moveto
735.3284 300.5406 757 282.7917 757 259 curveto
757 259 757 259 757 76 curveto
757 35.7396 455.1365 17.1726 360.2146 12.3294 curveto
stroke
0.77647 0.75294 0.80392 edgecolor
newpath 714.4035 308.5448 moveto
707.2469 316.3572 lineto
717.7134 314.7129 lineto
closepath fill
1 setlinewidth
solid
0.77647 0.75294 0.80392 edgecolor
newpath 714.4035 308.5448 moveto
707.2469 316.3572 lineto
717.7134 314.7129 lineto
closepath stroke
0 0 0 edgecolor
10 /Helvetica set_font
757 175.5 moveto 23 ( font) alignedtext
grestore
% Node9->Node10
gsave
1 setlinewidth
dashed
0.77647 0.75294 0.80392 edgecolor
newpath 694.7747 306.6512 moveto
695.6955 303.8003 696.4885 300.8538 697 298 curveto
697.8625 293.1878 697.1018 291.8878 697 287 curveto
695.8886 233.632 720.0567 212.4115 692 167 curveto
662.0951 118.5972 634.2317 122.2064 580 105 curveto
543.4055 93.3894 438.2857 84.8714 377.6256 80.7586 curveto
stroke
0.77647 0.75294 0.80392 edgecolor
newpath 691.4183 305.6319 moveto
691.1534 316.2235 lineto
697.9654 308.1089 lineto
closepath fill
1 setlinewidth
solid
0.77647 0.75294 0.80392 edgecolor
newpath 691.4183 305.6319 moveto
691.1534 316.2235 lineto
697.9654 308.1089 lineto
closepath stroke
0 0 0 edgecolor
10 /Helvetica set_font
705 215.5 moveto 23 ( font) alignedtext
grestore
% Node10->Node3
gsave
1 setlinewidth
dashed
0.77647 0.75294 0.80392 edgecolor
newpath 314.624 59.889 moveto
311.9178 56.5797 309.5296 52.9033 308 49 curveto
303.7296 38.1026 312.7033 26.9293 320.8668 19.5448 curveto
stroke
0.77647 0.75294 0.80392 edgecolor
newpath 312.2546 62.4754 moveto
321.6978 67.2792 lineto
317.3114 57.635 lineto
closepath fill
1 setlinewidth
solid
0.77647 0.75294 0.80392 edgecolor
newpath 312.2546 62.4754 moveto
321.6978 67.2792 lineto
317.3114 57.635 lineto
closepath stroke
0 0 0 edgecolor
10 /Helvetica set_font
308 41 moveto 28 ( rface) alignedtext
grestore
% Node10->Node10
gsave
1 setlinewidth
dashed
0.77647 0.75294 0.80392 edgecolor
newpath 387.8258 81.6871 moveto
392.5493 80.6913 395.5 79.1289 395.5 77 curveto
395.5 73.5938 387.9463 71.6378 377.6631 71.1322 curveto
stroke
0.77647 0.75294 0.80392 edgecolor
newpath 387.1924 78.2371 moveto
377.6631 82.8678 lineto
388.0003 85.1903 lineto
closepath fill
1 setlinewidth
solid
0.77647 0.75294 0.80392 edgecolor
newpath 387.1924 78.2371 moveto
377.6631 82.8678 lineto
388.0003 85.1903 lineto
closepath stroke
0 0 0 edgecolor
10 /Helvetica set_font
395.5 74.5 moveto 56 ( ascii_rface) alignedtext
grestore
% Node11
gsave
[ /Rect [ 219.5 168 316.5 188 ]
  /Border [ 0 0 0 ]
  /Action << /Subtype /URI /URI ($structMFaceHLineProp.html) >>
  /Subtype /Link
/ANN pdfmark
0 0 1 nodecolor
newpath 219.5 168.5 moveto
219.5 187.5 lineto
316.5 187.5 lineto
316.5 168.5 lineto
closepath fill
1 setlinewidth
filled
0 0 0 nodecolor
newpath 219.5 168.5 moveto
219.5 187.5 lineto
316.5 187.5 lineto
316.5 168.5 lineto
closepath stroke
0 0 0 nodecolor
10 /Helvetica set_font
227.5 175.5 moveto 81 (MFaceHLineProp) alignedtext
grestore
% Node11->Node10
gsave
1 setlinewidth
dashed
0.77647 0.75294 0.80392 edgecolor
newpath 279.2929 159.5974 moveto
288.7843 144.9958 302.7276 123.6029 315 105 curveto
318.9709 98.9807 323.4709 92.2307 326.9782 86.9855 curveto
stroke
0.77647 0.75294 0.80392 edgecolor
newpath 276.2728 157.8216 moveto
273.761 168.1144 lineto
282.1432 161.6346 lineto
closepath fill
1 setlinewidth
solid
0.77647 0.75294 0.80392 edgecolor
newpath 276.2728 157.8216 moveto
273.761 168.1144 lineto
282.1432 161.6346 lineto
closepath stroke
0 0 0 edgecolor
10 /Helvetica set_font
315 124.5 moveto 28 ( hline) alignedtext
grestore
% Node12
gsave
[ /Rect [ 335 168 423 188 ]
  /Border [ 0 0 0 ]
  /Action << /Subtype /URI /URI ($structMFaceBoxProp.html) >>
  /Subtype /Link
/ANN pdfmark
0 0 1 nodecolor
newpath 335 168.5 moveto
335 187.5 lineto
423 187.5 lineto
423 168.5 lineto
closepath fill
1 setlinewidth
filled
0 0 0 nodecolor
newpath 335 168.5 moveto
335 187.5 lineto
423 187.5 lineto
423 168.5 lineto
closepath stroke
0 0 0 nodecolor
10 /Helvetica set_font
343 175.5 moveto 72 (MFaceBoxProp) alignedtext
grestore
% Node12->Node10
gsave
1 setlinewidth
dashed
0.77647 0.75294 0.80392 edgecolor
newpath 370.5957 158.9125 moveto
360.6411 137.4884 344.4702 102.6858 337.0074 86.6245 curveto
stroke
0.77647 0.75294 0.80392 edgecolor
newpath 367.5298 160.6204 moveto
374.9178 168.2144 lineto
373.878 157.6707 lineto
closepath fill
1 setlinewidth
solid
0.77647 0.75294 0.80392 edgecolor
newpath 367.5298 160.6204 moveto
374.9178 168.2144 lineto
373.878 157.6707 lineto
closepath stroke
0 0 0 edgecolor
10 /Helvetica set_font
366 124.5 moveto 22 ( box) alignedtext
grestore
endpage
showpage
grestore
%%PageTrailer
%%EndPage: 1
%%Trailer
%%Pages: 1
%%BoundingBox: 36 36 824 447
end
restore
%%EOF
