%!PS-Adobe-3.0
%%Creator: graphviz version 2.43.0 (0)
%%Title: GUI API
%%Pages: (atend)
%%BoundingBox: (atend)
%%EndComments
save
%%BeginProlog
/DotDict 200 dict def
DotDict begin

/setupLatin1 {
mark
/EncodingVector 256 array def
 EncodingVector 0

ISOLatin1Encoding 0 255 getinterval putinterval
EncodingVector 45 /hyphen put

% Set up ISO Latin 1 character encoding
/starnetISO {
        dup dup findfont dup length dict begin
        { 1 index /FID ne { def }{ pop pop } ifelse
        } forall
        /Encoding EncodingVector def
        currentdict end definefont
} def
/Times-Roman starnetISO def
/Times-Italic starnetISO def
/Times-Bold starnetISO def
/Times-BoldItalic starnetISO def
/Helvetica starnetISO def
/Helvetica-Oblique starnetISO def
/Helvetica-Bold starnetISO def
/Helvetica-BoldOblique starnetISO def
/Courier starnetISO def
/Courier-Oblique starnetISO def
/Courier-Bold starnetISO def
/Courier-BoldOblique starnetISO def
cleartomark
} bind def

%%BeginResource: procset graphviz 0 0
/coord-font-family /Times-Roman def
/default-font-family /Times-Roman def
/coordfont coord-font-family findfont 8 scalefont def

/InvScaleFactor 1.0 def
/set_scale {
       dup 1 exch div /InvScaleFactor exch def
       scale
} bind def

% styles
/solid { [] 0 setdash } bind def
/dashed { [9 InvScaleFactor mul dup ] 0 setdash } bind def
/dotted { [1 InvScaleFactor mul 6 InvScaleFactor mul] 0 setdash } bind def
/invis {/fill {newpath} def /stroke {newpath} def /show {pop newpath} def} bind def
/bold { 2 setlinewidth } bind def
/filled { } bind def
/unfilled { } bind def
/rounded { } bind def
/diagonals { } bind def
/tapered { } bind def

% hooks for setting color 
/nodecolor { sethsbcolor } bind def
/edgecolor { sethsbcolor } bind def
/graphcolor { sethsbcolor } bind def
/nopcolor {pop pop pop} bind def

/beginpage {	% i j npages
	/npages exch def
	/j exch def
	/i exch def
	/str 10 string def
	npages 1 gt {
		gsave
			coordfont setfont
			0 0 moveto
			(\() show i str cvs show (,) show j str cvs show (\)) show
		grestore
	} if
} bind def

/set_font {
	findfont exch
	scalefont setfont
} def

% draw text fitted to its expected width
/alignedtext {			% width text
	/text exch def
	/width exch def
	gsave
		width 0 gt {
			[] 0 setdash
			text stringwidth pop width exch sub text length div 0 text ashow
		} if
	grestore
} def

/boxprim {				% xcorner ycorner xsize ysize
		4 2 roll
		moveto
		2 copy
		exch 0 rlineto
		0 exch rlineto
		pop neg 0 rlineto
		closepath
} bind def

/ellipse_path {
	/ry exch def
	/rx exch def
	/y exch def
	/x exch def
	matrix currentmatrix
	newpath
	x y translate
	rx ry scale
	0 0 1 0 360 arc
	setmatrix
} bind def

/endpage { showpage } bind def
/showpage { } def

/layercolorseq
	[	% layer color sequence - darkest to lightest
		[0 0 0]
		[.2 .8 .8]
		[.4 .8 .8]
		[.6 .8 .8]
		[.8 .8 .8]
	]
def

/layerlen layercolorseq length def

/setlayer {/maxlayer exch def /curlayer exch def
	layercolorseq curlayer 1 sub layerlen mod get
	aload pop sethsbcolor
	/nodecolor {nopcolor} def
	/edgecolor {nopcolor} def
	/graphcolor {nopcolor} def
} bind def

/onlayer { curlayer ne {invis} if } def

/onlayers {
	/myupper exch def
	/mylower exch def
	curlayer mylower lt
	curlayer myupper gt
	or
	{invis} if
} def

/curlayer 0 def

%%EndResource
%%EndProlog
%%BeginSetup
14 default-font-family set_font
% /arrowlength 10 def
% /arrowwidth 5 def

% make sure pdfmark is harmless for PS-interpreters other than Distiller
/pdfmark where {pop} {userdict /pdfmark /cleartomark load put} ifelse
% make '<<' and '>>' safe on PS Level 1 devices
/languagelevel where {pop languagelevel}{1} ifelse
2 lt {
    userdict (<<) cvn ([) cvn load put
    userdict (>>) cvn ([) cvn load put
} if

%%EndSetup
setupLatin1
%%Page: 1 1
%%PageBoundingBox: 36 36 218 260
%%PageOrientation: Portrait
0 0 1 beginpage
gsave
36 36 182 224 boxprim clip newpath
1 1 set_scale 0 rotate 40 40 translate
% Node5
gsave
[ /Rect [ 103.5 197 159.5 216 ]
  /Border [ 0 0 0 ]
  /Action << /Subtype /URI /URI ($group__m17nFace.html) >>
  /Subtype /Link
/ANN pdfmark
0 0 1 nodecolor
newpath 159.5 216 moveto
103.5 216 lineto
103.5 197 lineto
159.5 197 lineto
closepath fill
1 setlinewidth
filled
0 0 0 nodecolor
newpath 159.5 216 moveto
103.5 216 lineto
103.5 197 lineto
159.5 197 lineto
closepath stroke
0 0 0 nodecolor
10 /Helvetica set_font
111.5 204 moveto 40 (フェース) alignedtext
grestore
% Node7
gsave
[ /Rect [ 94 148.5 169 178.5 ]
  /Border [ 0 0 0 ]
  /Action << /Subtype /URI /URI ($group__m17nInputMethodWin.html) >>
  /Subtype /Link
/ANN pdfmark
0 0 1 nodecolor
newpath 169 178.5 moveto
94 178.5 lineto
94 148.5 lineto
169 148.5 lineto
closepath fill
1 setlinewidth
filled
0 0 0 nodecolor
newpath 169 178.5 moveto
94 178.5 lineto
94 148.5 lineto
169 148.5 lineto
closepath stroke
0 0 0 nodecolor
10 /Helvetica set_font
102 166.5 moveto 59 (入力メソッド) alignedtext
0 0 0 nodecolor
10 /Helvetica set_font
117 155.5 moveto 29 ( \(GUI\)) alignedtext
grestore
% Node1
gsave
0 0 0.74902 nodecolor
newpath 53 111 moveto
0 111 lineto
0 92 lineto
53 92 lineto
closepath fill
1 setlinewidth
filled
0 0 0 nodecolor
newpath 53 111 moveto
0 111 lineto
0 92 lineto
53 92 lineto
closepath stroke
0 0 0 nodecolor
10 /Helvetica set_font
8 99 moveto 37 (GUI API) alignedtext
grestore
% Node1->Node5
gsave
1 setlinewidth
solid
0 0 0 edgecolor
newpath 36.8816 119.889 moveto
47.3775 138.9308 65.9684 168.5039 89 187.5 curveto
93.4014 191.1302 98.6097 194.2214 103.8229 196.7895 curveto
stroke
0 0 0 edgecolor
newpath 39.9395 118.1848 moveto
32.1501 111.003 lineto
33.7608 121.4747 lineto
closepath fill
1 setlinewidth
solid
0 0 0 edgecolor
newpath 39.9395 118.1848 moveto
32.1501 111.003 lineto
33.7608 121.4747 lineto
closepath stroke
grestore
% Node1->Node7
gsave
1 setlinewidth
solid
0 0 0 edgecolor
newpath 51.3526 116.4619 moveto
62.7075 123.527 76.5052 132.029 89 139.5 curveto
93.8575 142.4044 99.0625 145.4592 104.0878 148.3796 curveto
stroke
0 0 0 edgecolor
newpath 53.1782 113.4756 moveto
42.8415 111.1512 lineto
49.4725 119.4143 lineto
closepath fill
1 setlinewidth
solid
0 0 0 edgecolor
newpath 53.1782 113.4756 moveto
42.8415 111.1512 lineto
49.4725 119.4143 lineto
closepath stroke
grestore
% Node4
gsave
[ /Rect [ 89 111 174 130 ]
  /Border [ 0 0 0 ]
  /Action << /Subtype /URI /URI ($group__m17nFontset.html) >>
  /Subtype /Link
/ANN pdfmark
0 0 1 nodecolor
newpath 174 130 moveto
89 130 lineto
89 111 lineto
174 111 lineto
closepath fill
1 setlinewidth
filled
0 0 0 nodecolor
newpath 174 130 moveto
89 130 lineto
89 111 lineto
174 111 lineto
closepath stroke
0 0 0 nodecolor
10 /Helvetica set_font
97 118 moveto 69 (フォントセット) alignedtext
grestore
% Node1->Node4
gsave
1 setlinewidth
solid
0 0 0 edgecolor
newpath 63.2376 108.0924 moveto
71.4481 109.6069 80.2502 111.2306 88.6918 112.7878 curveto
stroke
0 0 0 edgecolor
newpath 63.6946 104.6177 moveto
53.2256 106.2455 lineto
62.4247 111.5016 lineto
closepath fill
1 setlinewidth
solid
0 0 0 edgecolor
newpath 63.6946 104.6177 moveto
53.2256 106.2455 lineto
62.4247 111.5016 lineto
closepath stroke
grestore
% Node2
gsave
[ /Rect [ 103.5 74 159.5 93 ]
  /Border [ 0 0 0 ]
  /Action << /Subtype /URI /URI ($group__m17nFrame.html) >>
  /Subtype /Link
/ANN pdfmark
0 0 1 nodecolor
newpath 159.5 93 moveto
103.5 93 lineto
103.5 74 lineto
159.5 74 lineto
closepath fill
1 setlinewidth
filled
0 0 0 nodecolor
newpath 159.5 93 moveto
103.5 93 lineto
103.5 74 lineto
159.5 74 lineto
closepath stroke
0 0 0 nodecolor
10 /Helvetica set_font
111.5 81 moveto 40 (フレーム) alignedtext
grestore
% Node1->Node2
gsave
1 setlinewidth
solid
0 0 0 edgecolor
newpath 63.3471 95.2355 moveto
76.4599 92.9439 91.0687 90.3909 103.3032 88.2528 curveto
stroke
0 0 0 edgecolor
newpath 62.4737 91.835 moveto
53.2256 97.0043 lineto
63.6788 98.7305 lineto
closepath fill
1 setlinewidth
solid
0 0 0 edgecolor
newpath 62.4737 91.835 moveto
53.2256 97.0043 lineto
63.6788 98.7305 lineto
closepath stroke
grestore
% Node6
gsave
[ /Rect [ 113.5 37 149.5 56 ]
  /Border [ 0 0 0 ]
  /Action << /Subtype /URI /URI ($group__m17nDraw.html) >>
  /Subtype /Link
/ANN pdfmark
0 0 1 nodecolor
newpath 149.5 56 moveto
113.5 56 lineto
113.5 37 lineto
149.5 37 lineto
closepath fill
1 setlinewidth
filled
0 0 0 nodecolor
newpath 149.5 56 moveto
113.5 56 lineto
113.5 37 lineto
149.5 37 lineto
closepath stroke
0 0 0 nodecolor
10 /Helvetica set_font
121.5 44 moveto 20 (表示) alignedtext
grestore
% Node1->Node6
gsave
1 setlinewidth
solid
0 0 0 edgecolor
newpath 51.7059 86.5752 moveto
62.9073 79.8654 76.4796 72.0098 89 65.5 curveto
96.8742 61.4059 105.8019 57.2574 113.354 53.8858 curveto
stroke
0 0 0 edgecolor
newpath 49.6723 83.7148 moveto
42.9297 91.8872 lineto
53.297 89.7033 lineto
closepath fill
1 setlinewidth
solid
0 0 0 edgecolor
newpath 49.6723 83.7148 moveto
42.9297 91.8872 lineto
53.297 89.7033 lineto
closepath stroke
grestore
% Node3
gsave
[ /Rect [ 103.5 0 159.5 19 ]
  /Border [ 0 0 0 ]
  /Action << /Subtype /URI /URI ($group__m17nFont.html) >>
  /Subtype /Link
/ANN pdfmark
0 0 1 nodecolor
newpath 159.5 19 moveto
103.5 19 lineto
103.5 0 lineto
159.5 0 lineto
closepath fill
1 setlinewidth
filled
0 0 0 nodecolor
newpath 159.5 19 moveto
103.5 19 lineto
103.5 0 lineto
159.5 0 lineto
closepath stroke
0 0 0 nodecolor
10 /Helvetica set_font
111.5 7 moveto 40 (フォント) alignedtext
grestore
% Node1->Node3
gsave
1 setlinewidth
solid
0 0 0 edgecolor
newpath 39.3751 83.2651 moveto
50.5993 67.1681 68.7087 43.9262 89 28.5 curveto
93.7942 24.8553 99.3994 21.7001 104.9116 19.0649 curveto
stroke
0 0 0 edgecolor
newpath 36.3027 81.5603 moveto
33.5975 91.804 lineto
42.1003 85.4831 lineto
closepath fill
1 setlinewidth
solid
0 0 0 edgecolor
newpath 36.3027 81.5603 moveto
33.5975 91.804 lineto
42.1003 85.4831 lineto
closepath stroke
grestore
endpage
showpage
grestore
%%PageTrailer
%%EndPage: 1
%%Trailer
%%Pages: 1
%%BoundingBox: 36 36 218 260
end
restore
%%EOF
