%!PS-Adobe-3.0
%%Creator: graphviz version 2.43.0 (0)
%%Title: シェル API
%%Pages: (atend)
%%BoundingBox: (atend)
%%EndComments
save
%%BeginProlog
/DotDict 200 dict def
DotDict begin

/setupLatin1 {
mark
/EncodingVector 256 array def
 EncodingVector 0

ISOLatin1Encoding 0 255 getinterval putinterval
EncodingVector 45 /hyphen put

% Set up ISO Latin 1 character encoding
/starnetISO {
        dup dup findfont dup length dict begin
        { 1 index /FID ne { def }{ pop pop } ifelse
        } forall
        /Encoding EncodingVector def
        currentdict end definefont
} def
/Times-Roman starnetISO def
/Times-Italic starnetISO def
/Times-Bold starnetISO def
/Times-BoldItalic starnetISO def
/Helvetica starnetISO def
/Helvetica-Oblique starnetISO def
/Helvetica-Bold starnetISO def
/Helvetica-BoldOblique starnetISO def
/Courier starnetISO def
/Courier-Oblique starnetISO def
/Courier-Bold starnetISO def
/Courier-BoldOblique starnetISO def
cleartomark
} bind def

%%BeginResource: procset graphviz 0 0
/coord-font-family /Times-Roman def
/default-font-family /Times-Roman def
/coordfont coord-font-family findfont 8 scalefont def

/InvScaleFactor 1.0 def
/set_scale {
       dup 1 exch div /InvScaleFactor exch def
       scale
} bind def

% styles
/solid { [] 0 setdash } bind def
/dashed { [9 InvScaleFactor mul dup ] 0 setdash } bind def
/dotted { [1 InvScaleFactor mul 6 InvScaleFactor mul] 0 setdash } bind def
/invis {/fill {newpath} def /stroke {newpath} def /show {pop newpath} def} bind def
/bold { 2 setlinewidth } bind def
/filled { } bind def
/unfilled { } bind def
/rounded { } bind def
/diagonals { } bind def
/tapered { } bind def

% hooks for setting color 
/nodecolor { sethsbcolor } bind def
/edgecolor { sethsbcolor } bind def
/graphcolor { sethsbcolor } bind def
/nopcolor {pop pop pop} bind def

/beginpage {	% i j npages
	/npages exch def
	/j exch def
	/i exch def
	/str 10 string def
	npages 1 gt {
		gsave
			coordfont setfont
			0 0 moveto
			(\() show i str cvs show (,) show j str cvs show (\)) show
		grestore
	} if
} bind def

/set_font {
	findfont exch
	scalefont setfont
} def

% draw text fitted to its expected width
/alignedtext {			% width text
	/text exch def
	/width exch def
	gsave
		width 0 gt {
			[] 0 setdash
			text stringwidth pop width exch sub text length div 0 text ashow
		} if
	grestore
} def

/boxprim {				% xcorner ycorner xsize ysize
		4 2 roll
		moveto
		2 copy
		exch 0 rlineto
		0 exch rlineto
		pop neg 0 rlineto
		closepath
} bind def

/ellipse_path {
	/ry exch def
	/rx exch def
	/y exch def
	/x exch def
	matrix currentmatrix
	newpath
	x y translate
	rx ry scale
	0 0 1 0 360 arc
	setmatrix
} bind def

/endpage { showpage } bind def
/showpage { } def

/layercolorseq
	[	% layer color sequence - darkest to lightest
		[0 0 0]
		[.2 .8 .8]
		[.4 .8 .8]
		[.6 .8 .8]
		[.8 .8 .8]
	]
def

/layerlen layercolorseq length def

/setlayer {/maxlayer exch def /curlayer exch def
	layercolorseq curlayer 1 sub layerlen mod get
	aload pop sethsbcolor
	/nodecolor {nopcolor} def
	/edgecolor {nopcolor} def
	/graphcolor {nopcolor} def
} bind def

/onlayer { curlayer ne {invis} if } def

/onlayers {
	/myupper exch def
	/mylower exch def
	curlayer mylower lt
	curlayer myupper gt
	or
	{invis} if
} def

/curlayer 0 def

%%EndResource
%%EndProlog
%%BeginSetup
14 default-font-family set_font
% /arrowlength 10 def
% /arrowwidth 5 def

% make sure pdfmark is harmless for PS-interpreters other than Distiller
/pdfmark where {pop} {userdict /pdfmark /cleartomark load put} ifelse
% make '<<' and '>>' safe on PS Level 1 devices
/languagelevel where {pop languagelevel}{1} ifelse
2 lt {
    userdict (<<) cvn ([) cvn load put
    userdict (>>) cvn ([) cvn load put
} if

%%EndSetup
setupLatin1
%%Page: 1 1
%%PageBoundingBox: 36 36 219 186
%%PageOrientation: Portrait
0 0 1 beginpage
gsave
36 36 183 150 boxprim clip newpath
1 1 set_scale 0 rotate 40 40 translate
% Node4
gsave
[ /Rect [ 109.5 123 165.5 142 ]
  /Border [ 0 0 0 ]
  /Action << /Subtype /URI /URI ($group__m17nLocale.html) >>
  /Subtype /Link
/ANN pdfmark
0 0 1 nodecolor
newpath 165.5 142 moveto
109.5 142 lineto
109.5 123 lineto
165.5 123 lineto
closepath fill
1 setlinewidth
filled
0 0 0 nodecolor
newpath 165.5 142 moveto
109.5 142 lineto
109.5 123 lineto
165.5 123 lineto
closepath stroke
0 0 0 nodecolor
10 /Helvetica set_font
117.5 130 moveto 40 (ロケール) alignedtext
grestore
% Node2
gsave
[ /Rect [ 105 86 170 105 ]
  /Border [ 0 0 0 ]
  /Action << /Subtype /URI /URI ($group__m17nCharset.html) >>
  /Subtype /Link
/ANN pdfmark
0 0 1 nodecolor
newpath 170 105 moveto
105 105 lineto
105 86 lineto
170 86 lineto
closepath fill
1 setlinewidth
filled
0 0 0 nodecolor
newpath 170 105 moveto
105 105 lineto
105 86 lineto
170 86 lineto
closepath stroke
0 0 0 nodecolor
10 /Helvetica set_font
113 93 moveto 49 (文字セット) alignedtext
grestore
% Node5
gsave
[ /Rect [ 100 37.5 175 67.5 ]
  /Border [ 0 0 0 ]
  /Action << /Subtype /URI /URI ($group__m17nInputMethod.html) >>
  /Subtype /Link
/ANN pdfmark
0 0 1 nodecolor
newpath 175 67.5 moveto
100 67.5 lineto
100 37.5 lineto
175 37.5 lineto
closepath fill
1 setlinewidth
filled
0 0 0 nodecolor
newpath 175 67.5 moveto
100 67.5 lineto
100 37.5 lineto
175 37.5 lineto
closepath stroke
0 0 0 nodecolor
10 /Helvetica set_font
108 55.5 moveto 59 (入力メソッド) alignedtext
0 0 0 nodecolor
10 /Helvetica set_font
112.5 44.5 moveto 50 ( \(基本部分\)) alignedtext
grestore
% Node3
gsave
[ /Rect [ 105 0 170 19 ]
  /Border [ 0 0 0 ]
  /Action << /Subtype /URI /URI ($group__m17nConv.html) >>
  /Subtype /Link
/ANN pdfmark
0 0 1 nodecolor
newpath 170 19 moveto
105 19 lineto
105 0 lineto
170 0 lineto
closepath fill
1 setlinewidth
filled
0 0 0 nodecolor
newpath 170 19 moveto
105 19 lineto
105 0 lineto
170 0 lineto
closepath stroke
0 0 0 nodecolor
10 /Helvetica set_font
113 7 moveto 49 (コード変換) alignedtext
grestore
% Node1
gsave
0 0 0.74902 nodecolor
newpath 64 83 moveto
0 83 lineto
0 64 lineto
64 64 lineto
closepath fill
1 setlinewidth
filled
0 0 0 nodecolor
newpath 64 83 moveto
0 83 lineto
0 64 lineto
64 64 lineto
closepath stroke
0 0 0 nodecolor
10 /Helvetica set_font
8 71 moveto 48 (シェル API) alignedtext
grestore
% Node1->Node4
gsave
1 setlinewidth
solid
0 0 0 edgecolor
newpath 56.2812 88.4663 moveto
69.0279 96.4768 85.1992 106.3439 100 114.5 curveto
105.198 117.3644 110.9146 120.287 116.2499 122.9213 curveto
stroke
0 0 0 edgecolor
newpath 57.9939 85.4081 moveto
47.6734 83.0126 lineto
54.2475 91.3212 lineto
closepath fill
1 setlinewidth
solid
0 0 0 edgecolor
newpath 57.9939 85.4081 moveto
47.6734 83.0126 lineto
54.2475 91.3212 lineto
closepath stroke
grestore
% Node1->Node2
gsave
1 setlinewidth
solid
0 0 0 edgecolor
newpath 74.0197 82.2192 moveto
84.2436 84.3924 95.0519 86.6898 104.752 88.7516 curveto
stroke
0 0 0 edgecolor
newpath 74.5626 78.7564 moveto
64.0534 80.1007 lineto
73.1072 85.6035 lineto
closepath fill
1 setlinewidth
solid
0 0 0 edgecolor
newpath 74.5626 78.7564 moveto
64.0534 80.1007 lineto
73.1072 85.6035 lineto
closepath stroke
grestore
% Node1->Node5
gsave
1 setlinewidth
solid
0 0 0 edgecolor
newpath 74.0848 65.1639 moveto
82.5219 63.4521 91.3544 61.66 99.6317 59.9805 curveto
stroke
0 0 0 edgecolor
newpath 73.1577 61.7807 moveto
64.0534 67.1993 lineto
74.5497 68.6409 lineto
closepath fill
1 setlinewidth
solid
0 0 0 edgecolor
newpath 73.1577 61.7807 moveto
64.0534 67.1993 lineto
74.5497 68.6409 lineto
closepath stroke
grestore
% Node1->Node3
gsave
1 setlinewidth
solid
0 0 0 edgecolor
newpath 54.5749 58.115 moveto
67.5162 49.1138 84.434 37.7399 100 28.5 curveto
105.406 25.291 111.4084 22.0431 116.9583 19.1622 curveto
stroke
0 0 0 edgecolor
newpath 52.4903 55.302 moveto
46.3164 63.9121 lineto
56.5121 61.0314 lineto
closepath fill
1 setlinewidth
solid
0 0 0 edgecolor
newpath 52.4903 55.302 moveto
46.3164 63.9121 lineto
56.5121 61.0314 lineto
closepath stroke
grestore
endpage
showpage
grestore
%%PageTrailer
%%EndPage: 1
%%Trailer
%%Pages: 1
%%BoundingBox: 36 36 219 186
end
restore
%%EOF
