%!PS-Adobe-3.0
%%Creator: graphviz version 2.43.0 (0)
%%Title: コア API
%%Pages: (atend)
%%BoundingBox: (atend)
%%EndComments
save
%%BeginProlog
/DotDict 200 dict def
DotDict begin

/setupLatin1 {
mark
/EncodingVector 256 array def
 EncodingVector 0

ISOLatin1Encoding 0 255 getinterval putinterval
EncodingVector 45 /hyphen put

% Set up ISO Latin 1 character encoding
/starnetISO {
        dup dup findfont dup length dict begin
        { 1 index /FID ne { def }{ pop pop } ifelse
        } forall
        /Encoding EncodingVector def
        currentdict end definefont
} def
/Times-Roman starnetISO def
/Times-Italic starnetISO def
/Times-Bold starnetISO def
/Times-BoldItalic starnetISO def
/Helvetica starnetISO def
/Helvetica-Oblique starnetISO def
/Helvetica-Bold starnetISO def
/Helvetica-BoldOblique starnetISO def
/Courier starnetISO def
/Courier-Oblique starnetISO def
/Courier-Bold starnetISO def
/Courier-BoldOblique starnetISO def
cleartomark
} bind def

%%BeginResource: procset graphviz 0 0
/coord-font-family /Times-Roman def
/default-font-family /Times-Roman def
/coordfont coord-font-family findfont 8 scalefont def

/InvScaleFactor 1.0 def
/set_scale {
       dup 1 exch div /InvScaleFactor exch def
       scale
} bind def

% styles
/solid { [] 0 setdash } bind def
/dashed { [9 InvScaleFactor mul dup ] 0 setdash } bind def
/dotted { [1 InvScaleFactor mul 6 InvScaleFactor mul] 0 setdash } bind def
/invis {/fill {newpath} def /stroke {newpath} def /show {pop newpath} def} bind def
/bold { 2 setlinewidth } bind def
/filled { } bind def
/unfilled { } bind def
/rounded { } bind def
/diagonals { } bind def
/tapered { } bind def

% hooks for setting color 
/nodecolor { sethsbcolor } bind def
/edgecolor { sethsbcolor } bind def
/graphcolor { sethsbcolor } bind def
/nopcolor {pop pop pop} bind def

/beginpage {	% i j npages
	/npages exch def
	/j exch def
	/i exch def
	/str 10 string def
	npages 1 gt {
		gsave
			coordfont setfont
			0 0 moveto
			(\() show i str cvs show (,) show j str cvs show (\)) show
		grestore
	} if
} bind def

/set_font {
	findfont exch
	scalefont setfont
} def

% draw text fitted to its expected width
/alignedtext {			% width text
	/text exch def
	/width exch def
	gsave
		width 0 gt {
			[] 0 setdash
			text stringwidth pop width exch sub text length div 0 text ashow
		} if
	grestore
} def

/boxprim {				% xcorner ycorner xsize ysize
		4 2 roll
		moveto
		2 copy
		exch 0 rlineto
		0 exch rlineto
		pop neg 0 rlineto
		closepath
} bind def

/ellipse_path {
	/ry exch def
	/rx exch def
	/y exch def
	/x exch def
	matrix currentmatrix
	newpath
	x y translate
	rx ry scale
	0 0 1 0 360 arc
	setmatrix
} bind def

/endpage { showpage } bind def
/showpage { } def

/layercolorseq
	[	% layer color sequence - darkest to lightest
		[0 0 0]
		[.2 .8 .8]
		[.4 .8 .8]
		[.6 .8 .8]
		[.8 .8 .8]
	]
def

/layerlen layercolorseq length def

/setlayer {/maxlayer exch def /curlayer exch def
	layercolorseq curlayer 1 sub layerlen mod get
	aload pop sethsbcolor
	/nodecolor {nopcolor} def
	/edgecolor {nopcolor} def
	/graphcolor {nopcolor} def
} bind def

/onlayer { curlayer ne {invis} if } def

/onlayers {
	/myupper exch def
	/mylower exch def
	curlayer mylower lt
	curlayer myupper gt
	or
	{invis} if
} def

/curlayer 0 def

%%EndResource
%%EndProlog
%%BeginSetup
14 default-font-family set_font
% /arrowlength 10 def
% /arrowwidth 5 def

% make sure pdfmark is harmless for PS-interpreters other than Distiller
/pdfmark where {pop} {userdict /pdfmark /cleartomark load put} ifelse
% make '<<' and '>>' safe on PS Level 1 devices
/languagelevel where {pop languagelevel}{1} ifelse
2 lt {
    userdict (<<) cvn ([) cvn load put
    userdict (>>) cvn ([) cvn load put
} if

%%EndSetup
setupLatin1
%%Page: 1 1
%%PageBoundingBox: 36 36 238 322
%%PageOrientation: Portrait
0 0 1 beginpage
gsave
36 36 202 286 boxprim clip newpath
1 1 set_scale 0 rotate 40 40 translate
% Node8
gsave
[ /Rect [ 90 259 194 278 ]
  /Border [ 0 0 0 ]
  /Action << /Subtype /URI /URI ($group__m17nTextProperty.html) >>
  /Subtype /Link
/ANN pdfmark
0 0 1 nodecolor
newpath 194 278 moveto
90 278 lineto
90 259 lineto
194 259 lineto
closepath fill
1 setlinewidth
filled
0 0 0 nodecolor
newpath 194 278 moveto
90 278 lineto
90 259 lineto
194 259 lineto
closepath stroke
0 0 0 nodecolor
10 /Helvetica set_font
98 266 moveto 88 (テキストプロパティ) alignedtext
grestore
% Node5
gsave
[ /Rect [ 124 222 160 241 ]
  /Border [ 0 0 0 ]
  /Action << /Subtype /URI /URI ($group__m17nCharacter.html) >>
  /Subtype /Link
/ANN pdfmark
0 0 1 nodecolor
newpath 160 241 moveto
124 241 lineto
124 222 lineto
160 222 lineto
closepath fill
1 setlinewidth
filled
0 0 0 nodecolor
newpath 160 241 moveto
124 241 lineto
124 222 lineto
160 222 lineto
closepath stroke
0 0 0 nodecolor
10 /Helvetica set_font
132 229 moveto 20 (文字) alignedtext
grestore
% Node3
gsave
[ /Rect [ 114 185 170 204 ]
  /Border [ 0 0 0 ]
  /Action << /Subtype /URI /URI ($group__m17nSymbol.html) >>
  /Subtype /Link
/ANN pdfmark
0 0 1 nodecolor
newpath 170 204 moveto
114 204 lineto
114 185 lineto
170 185 lineto
closepath fill
1 setlinewidth
filled
0 0 0 nodecolor
newpath 170 204 moveto
114 204 lineto
114 185 lineto
170 185 lineto
closepath stroke
0 0 0 nodecolor
10 /Helvetica set_font
122 192 moveto 40 (シンボル) alignedtext
grestore
% Node6
gsave
[ /Rect [ 104.5 148 179.5 167 ]
  /Border [ 0 0 0 ]
  /Action << /Subtype /URI /URI ($group__m17nChartable.html) >>
  /Subtype /Link
/ANN pdfmark
0 0 1 nodecolor
newpath 179.5 167 moveto
104.5 167 lineto
104.5 148 lineto
179.5 148 lineto
closepath fill
1 setlinewidth
filled
0 0 0 nodecolor
newpath 179.5 167 moveto
104.5 167 lineto
104.5 148 lineto
179.5 148 lineto
closepath stroke
0 0 0 nodecolor
10 /Helvetica set_font
112.5 155 moveto 59 (文字テーブル) alignedtext
grestore
% Node1
gsave
0 0 0.74902 nodecolor
newpath 54 148 moveto
0 148 lineto
0 129 lineto
54 129 lineto
closepath fill
1 setlinewidth
filled
0 0 0 nodecolor
newpath 54 148 moveto
0 148 lineto
0 129 lineto
54 129 lineto
closepath stroke
0 0 0 nodecolor
10 /Helvetica set_font
8 136 moveto 38 (コア API) alignedtext
grestore
% Node1->Node8
gsave
1 setlinewidth
solid
0 0 0 edgecolor
newpath 33.8897 157.8298 moveto
42.4001 182.6488 60.4416 225.4892 90 250.5 curveto
94.014 253.8964 98.7123 256.6682 103.6034 258.9262 curveto
stroke
0 0 0 edgecolor
newpath 37.1508 156.5402 moveto
30.7312 148.1117 lineto
30.4936 158.7038 lineto
closepath fill
1 setlinewidth
solid
0 0 0 edgecolor
newpath 37.1508 156.5402 moveto
30.7312 148.1117 lineto
30.4936 158.7038 lineto
closepath stroke
grestore
% Node1->Node5
gsave
1 setlinewidth
solid
0 0 0 edgecolor
newpath 39.2089 157.1515 moveto
50.2178 174.0228 68.4647 198.4598 90 213.5 curveto
100.1613 220.5966 113.4031 225.1605 123.847 227.9167 curveto
stroke
0 0 0 edgecolor
newpath 41.8792 154.823 moveto
33.5933 148.2205 lineto
35.9533 158.5491 lineto
closepath fill
1 setlinewidth
solid
0 0 0 edgecolor
newpath 41.8792 154.823 moveto
33.5933 148.2205 lineto
35.9533 158.5491 lineto
closepath stroke
grestore
% Node1->Node3
gsave
1 setlinewidth
solid
0 0 0 edgecolor
newpath 50.3404 153.7741 moveto
61.8601 161.2368 76.33 169.9879 90 176.5 curveto
97.5443 180.0939 106.0071 183.3645 113.8378 186.1022 curveto
stroke
0 0 0 edgecolor
newpath 52.0781 150.7272 moveto
41.8059 148.1327 lineto
48.2181 156.5668 lineto
closepath fill
1 setlinewidth
solid
0 0 0 edgecolor
newpath 52.0781 150.7272 moveto
41.8059 148.1327 lineto
48.2181 156.5668 lineto
closepath stroke
grestore
% Node1->Node6
gsave
1 setlinewidth
solid
0 0 0 edgecolor
newpath 64.0846 144.5673 moveto
76.9086 146.7236 91.3538 149.1524 104.2341 151.3181 curveto
stroke
0 0 0 edgecolor
newpath 64.6504 141.1134 moveto
54.2085 142.9067 lineto
63.4897 148.0165 lineto
closepath fill
1 setlinewidth
solid
0 0 0 edgecolor
newpath 64.6504 141.1134 moveto
54.2085 142.9067 lineto
63.4897 148.0165 lineto
closepath stroke
grestore
% Node7
gsave
[ /Rect [ 117.5 111 166.5 130 ]
  /Border [ 0 0 0 ]
  /Action << /Subtype /URI /URI ($group__m17nMtext.html) >>
  /Subtype /Link
/ANN pdfmark
0 0 1 nodecolor
newpath 166.5 130 moveto
117.5 130 lineto
117.5 111 lineto
166.5 111 lineto
closepath fill
1 setlinewidth
filled
0 0 0 nodecolor
newpath 166.5 130 moveto
117.5 130 lineto
117.5 111 lineto
166.5 111 lineto
closepath stroke
0 0 0 nodecolor
10 /Helvetica set_font
125.5 118 moveto 33 (M-text) alignedtext
grestore
% Node1->Node7
gsave
1 setlinewidth
solid
0 0 0 edgecolor
newpath 64.533 132.6806 moveto
81.8199 129.9269 101.9687 126.7174 117.2426 124.2844 curveto
stroke
0 0 0 edgecolor
newpath 63.5334 129.2956 moveto
54.2085 134.3252 lineto
64.6346 136.2085 lineto
closepath fill
1 setlinewidth
solid
0 0 0 edgecolor
newpath 63.5334 129.2956 moveto
54.2085 134.3252 lineto
64.6346 136.2085 lineto
closepath stroke
grestore
% Node9
gsave
[ /Rect [ 104.5 74 179.5 93 ]
  /Border [ 0 0 0 ]
  /Action << /Subtype /URI /URI ($group__m17nDatabase.html) >>
  /Subtype /Link
/ANN pdfmark
0 0 1 nodecolor
newpath 179.5 93 moveto
104.5 93 lineto
104.5 74 lineto
179.5 74 lineto
closepath fill
1 setlinewidth
filled
0 0 0 nodecolor
newpath 179.5 93 moveto
104.5 93 lineto
104.5 74 lineto
179.5 74 lineto
closepath stroke
0 0 0 nodecolor
10 /Helvetica set_font
112.5 81 moveto 59 (データベース) alignedtext
grestore
% Node1->Node9
gsave
1 setlinewidth
solid
0 0 0 edgecolor
newpath 51.7438 123.443 moveto
63.0815 116.5857 76.9874 108.6475 90 102.5 curveto
97.2618 99.0694 105.3238 95.8222 112.854 93.015 curveto
stroke
0 0 0 edgecolor
newpath 49.582 120.6637 moveto
42.9002 128.8858 lineto
53.251 126.6251 lineto
closepath fill
1 setlinewidth
solid
0 0 0 edgecolor
newpath 49.582 120.6637 moveto
42.9002 128.8858 lineto
53.251 126.6251 lineto
closepath stroke
grestore
% Node4
gsave
[ /Rect [ 94.5 37 189.5 56 ]
  /Border [ 0 0 0 ]
  /Action << /Subtype /URI /URI ($group__m17nPlist.html) >>
  /Subtype /Link
/ANN pdfmark
0 0 1 nodecolor
newpath 189.5 56 moveto
94.5 56 lineto
94.5 37 lineto
189.5 37 lineto
closepath fill
1 setlinewidth
filled
0 0 0 nodecolor
newpath 189.5 56 moveto
94.5 56 lineto
94.5 37 lineto
189.5 37 lineto
closepath stroke
0 0 0 nodecolor
10 /Helvetica set_font
102.5 44 moveto 79 (プロパティリスト) alignedtext
grestore
% Node1->Node4
gsave
1 setlinewidth
solid
0 0 0 edgecolor
newpath 39.7411 119.9114 moveto
50.9021 103.5773 69.0614 80.1862 90 65.5 curveto
95.4149 61.702 101.6817 58.5605 107.9297 56.0003 curveto
stroke
0 0 0 edgecolor
newpath 36.5978 118.32 moveto
34.0102 128.594 lineto
42.44 122.176 lineto
closepath fill
1 setlinewidth
solid
0 0 0 edgecolor
newpath 36.5978 118.32 moveto
34.0102 128.594 lineto
42.44 122.176 lineto
closepath stroke
grestore
% Node2
gsave
[ /Rect [ 90 0 194 19 ]
  /Border [ 0 0 0 ]
  /Action << /Subtype /URI /URI ($group__m17nObject.html) >>
  /Subtype /Link
/ANN pdfmark
0 0 1 nodecolor
newpath 194 19 moveto
90 19 lineto
90 0 lineto
194 0 lineto
closepath fill
1 setlinewidth
filled
0 0 0 nodecolor
newpath 194 19 moveto
90 19 lineto
90 0 lineto
194 0 lineto
closepath stroke
0 0 0 nodecolor
10 /Helvetica set_font
98 7 moveto 88 (管理下オブジェクト) alignedtext
grestore
% Node1->Node2
gsave
1 setlinewidth
solid
0 0 0 edgecolor
newpath 34.1807 119.2249 moveto
42.9166 94.8773 61.1094 53.1861 90 28.5 curveto
94.5256 24.633 99.9124 21.5187 105.4625 19.0207 curveto
stroke
0 0 0 edgecolor
newpath 30.8362 118.1887 moveto
30.9197 128.7832 lineto
37.4612 120.4491 lineto
closepath fill
1 setlinewidth
solid
0 0 0 edgecolor
newpath 30.8362 118.1887 moveto
30.9197 128.7832 lineto
37.4612 120.4491 lineto
closepath stroke
grestore
endpage
showpage
grestore
%%PageTrailer
%%EndPage: 1
%%Trailer
%%Pages: 1
%%BoundingBox: 36 36 238 322
end
restore
%%EOF
