%!PS-Adobe-3.0
%%Creator: graphviz version 2.43.0 (0)
%%Title: language.c
%%Pages: (atend)
%%BoundingBox: (atend)
%%EndComments
save
%%BeginProlog
/DotDict 200 dict def
DotDict begin

/setupLatin1 {
mark
/EncodingVector 256 array def
 EncodingVector 0

ISOLatin1Encoding 0 255 getinterval putinterval
EncodingVector 45 /hyphen put

% Set up ISO Latin 1 character encoding
/starnetISO {
        dup dup findfont dup length dict begin
        { 1 index /FID ne { def }{ pop pop } ifelse
        } forall
        /Encoding EncodingVector def
        currentdict end definefont
} def
/Times-Roman starnetISO def
/Times-Italic starnetISO def
/Times-Bold starnetISO def
/Times-BoldItalic starnetISO def
/Helvetica starnetISO def
/Helvetica-Oblique starnetISO def
/Helvetica-Bold starnetISO def
/Helvetica-BoldOblique starnetISO def
/Courier starnetISO def
/Courier-Oblique starnetISO def
/Courier-Bold starnetISO def
/Courier-BoldOblique starnetISO def
cleartomark
} bind def

%%BeginResource: procset graphviz 0 0
/coord-font-family /Times-Roman def
/default-font-family /Times-Roman def
/coordfont coord-font-family findfont 8 scalefont def

/InvScaleFactor 1.0 def
/set_scale {
       dup 1 exch div /InvScaleFactor exch def
       scale
} bind def

% styles
/solid { [] 0 setdash } bind def
/dashed { [9 InvScaleFactor mul dup ] 0 setdash } bind def
/dotted { [1 InvScaleFactor mul 6 InvScaleFactor mul] 0 setdash } bind def
/invis {/fill {newpath} def /stroke {newpath} def /show {pop newpath} def} bind def
/bold { 2 setlinewidth } bind def
/filled { } bind def
/unfilled { } bind def
/rounded { } bind def
/diagonals { } bind def
/tapered { } bind def

% hooks for setting color 
/nodecolor { sethsbcolor } bind def
/edgecolor { sethsbcolor } bind def
/graphcolor { sethsbcolor } bind def
/nopcolor {pop pop pop} bind def

/beginpage {	% i j npages
	/npages exch def
	/j exch def
	/i exch def
	/str 10 string def
	npages 1 gt {
		gsave
			coordfont setfont
			0 0 moveto
			(\() show i str cvs show (,) show j str cvs show (\)) show
		grestore
	} if
} bind def

/set_font {
	findfont exch
	scalefont setfont
} def

% draw text fitted to its expected width
/alignedtext {			% width text
	/text exch def
	/width exch def
	gsave
		width 0 gt {
			[] 0 setdash
			text stringwidth pop width exch sub text length div 0 text ashow
		} if
	grestore
} def

/boxprim {				% xcorner ycorner xsize ysize
		4 2 roll
		moveto
		2 copy
		exch 0 rlineto
		0 exch rlineto
		pop neg 0 rlineto
		closepath
} bind def

/ellipse_path {
	/ry exch def
	/rx exch def
	/y exch def
	/x exch def
	matrix currentmatrix
	newpath
	x y translate
	rx ry scale
	0 0 1 0 360 arc
	setmatrix
} bind def

/endpage { showpage } bind def
/showpage { } def

/layercolorseq
	[	% layer color sequence - darkest to lightest
		[0 0 0]
		[.2 .8 .8]
		[.4 .8 .8]
		[.6 .8 .8]
		[.8 .8 .8]
	]
def

/layerlen layercolorseq length def

/setlayer {/maxlayer exch def /curlayer exch def
	layercolorseq curlayer 1 sub layerlen mod get
	aload pop sethsbcolor
	/nodecolor {nopcolor} def
	/edgecolor {nopcolor} def
	/graphcolor {nopcolor} def
} bind def

/onlayer { curlayer ne {invis} if } def

/onlayers {
	/myupper exch def
	/mylower exch def
	curlayer mylower lt
	curlayer myupper gt
	or
	{invis} if
} def

/curlayer 0 def

%%EndResource
%%EndProlog
%%BeginSetup
14 default-font-family set_font
% /arrowlength 10 def
% /arrowwidth 5 def

% make sure pdfmark is harmless for PS-interpreters other than Distiller
/pdfmark where {pop} {userdict /pdfmark /cleartomark load put} ifelse
% make '<<' and '>>' safe on PS Level 1 devices
/languagelevel where {pop languagelevel}{1} ifelse
2 lt {
    userdict (<<) cvn ([) cvn load put
    userdict (>>) cvn ([) cvn load put
} if

%%EndSetup
setupLatin1
%%Page: 1 1
%%PageBoundingBox: 36 36 885 176
%%PageOrientation: Portrait
0 0 1 beginpage
gsave
36 36 849 140 boxprim clip newpath
1 1 set_scale 0 rotate 40 40 translate
% Node1
gsave
0 0 0.74902 nodecolor
newpath 360.5 112.5 moveto
360.5 131.5 lineto
430.5 131.5 lineto
430.5 112.5 lineto
closepath fill
1 setlinewidth
filled
0 0 0 nodecolor
newpath 360.5 112.5 moveto
360.5 131.5 lineto
430.5 131.5 lineto
430.5 112.5 lineto
closepath stroke
0 0 0 nodecolor
10 /Helvetica set_font
368.5 119.5 moveto 54 (language.c) alignedtext
grestore
% Node2
gsave
0 0 1 nodecolor
newpath 0 56.5 moveto
0 75.5 lineto
55 75.5 lineto
55 56.5 lineto
closepath fill
1 setlinewidth
filled
0 0 0.74902 nodecolor
newpath 0 56.5 moveto
0 75.5 lineto
55 75.5 lineto
55 56.5 lineto
closepath stroke
0 0 0 nodecolor
10 /Helvetica set_font
8 63.5 moveto 39 (config.h) alignedtext
grestore
% Node1->Node2
gsave
1 setlinewidth
solid
0.66667 0.77647 0.43922 edgecolor
newpath 360.1505 116.9891 moveto
300.1712 109.9896 174.7247 94.5104 69.5 76 curveto
68.0311 75.7416 66.5354 75.4687 65.026 75.185 curveto
stroke
0.66667 0.77647 0.43922 edgecolor
newpath 65.4953 71.71 moveto
55.0055 73.1984 lineto
64.1339 78.5763 lineto
closepath fill
1 setlinewidth
solid
0.66667 0.77647 0.43922 edgecolor
newpath 65.4953 71.71 moveto
55.0055 73.1984 lineto
64.1339 78.5763 lineto
closepath stroke
grestore
% Node3
gsave
0 0 1 nodecolor
newpath 125 .5 moveto
125 19.5 lineto
178 19.5 lineto
178 .5 lineto
closepath fill
1 setlinewidth
filled
0 0 0.74902 nodecolor
newpath 125 .5 moveto
125 19.5 lineto
178 19.5 lineto
178 .5 lineto
closepath stroke
0 0 0 nodecolor
10 /Helvetica set_font
133 7.5 moveto 37 (stdlib.h) alignedtext
grestore
% Node1->Node3
gsave
1 setlinewidth
solid
0.66667 0.77647 0.43922 edgecolor
newpath 360.4417 121.0531 moveto
290.0411 120.3347 135.3867 114.3232 102.5 76 curveto
88.1345 59.2597 109.5049 38.7679 128.3728 25.3233 curveto
stroke
0.66667 0.77647 0.43922 edgecolor
newpath 130.3998 28.1778 moveto
136.7283 19.6807 lineto
126.4822 22.3767 lineto
closepath fill
1 setlinewidth
solid
0.66667 0.77647 0.43922 edgecolor
newpath 130.3998 28.1778 moveto
136.7283 19.6807 lineto
126.4822 22.3767 lineto
closepath stroke
grestore
% Node4
gsave
0 0 1 nodecolor
newpath 112 56.5 moveto
112 75.5 lineto
165 75.5 lineto
165 56.5 lineto
closepath fill
1 setlinewidth
filled
0 0 0.74902 nodecolor
newpath 112 56.5 moveto
112 75.5 lineto
165 75.5 lineto
165 56.5 lineto
closepath stroke
0 0 0 nodecolor
10 /Helvetica set_font
120 63.5 moveto 37 (string.h) alignedtext
grestore
% Node1->Node4
gsave
1 setlinewidth
solid
0.66667 0.77647 0.43922 edgecolor
newpath 360.39 114.4644 moveto
318.4955 106.5385 246.1075 92.442 175.2091 76.3112 curveto
stroke
0.66667 0.77647 0.43922 edgecolor
newpath 175.7474 72.8439 moveto
165.2183 74.022 lineto
174.184 79.6671 lineto
closepath fill
1 setlinewidth
solid
0.66667 0.77647 0.43922 edgecolor
newpath 175.7474 72.8439 moveto
165.2183 74.022 lineto
174.184 79.6671 lineto
closepath stroke
grestore
% Node5
gsave
0 0 1 nodecolor
newpath 183 56.5 moveto
183 75.5 lineto
236 75.5 lineto
236 56.5 lineto
closepath fill
1 setlinewidth
filled
0 0 0.74902 nodecolor
newpath 183 56.5 moveto
183 75.5 lineto
236 75.5 lineto
236 56.5 lineto
closepath stroke
0 0 0 nodecolor
10 /Helvetica set_font
191 63.5 moveto 37 (ctype.h) alignedtext
grestore
% Node1->Node5
gsave
1 setlinewidth
solid
0.66667 0.77647 0.43922 edgecolor
newpath 366.0277 112.4435 moveto
333.4897 102.997 281.078 87.7807 245.9756 77.5897 curveto
stroke
0.66667 0.77647 0.43922 edgecolor
newpath 246.7016 74.156 moveto
236.1222 74.729 lineto
244.7498 80.8784 lineto
closepath fill
1 setlinewidth
solid
0.66667 0.77647 0.43922 edgecolor
newpath 246.7016 74.156 moveto
236.1222 74.729 lineto
244.7498 80.8784 lineto
closepath stroke
grestore
% Node6
gsave
0 0 1 nodecolor
newpath 254 56.5 moveto
254 75.5 lineto
309 75.5 lineto
309 56.5 lineto
closepath fill
1 setlinewidth
filled
0 0 0.74902 nodecolor
newpath 254 56.5 moveto
254 75.5 lineto
309 75.5 lineto
309 56.5 lineto
closepath stroke
0 0 0 nodecolor
10 /Helvetica set_font
262 63.5 moveto 39 (locale.h) alignedtext
grestore
% Node1->Node6
gsave
1 setlinewidth
solid
0.66667 0.77647 0.43922 edgecolor
newpath 377.4364 112.4435 moveto
358.9252 103.6751 329.9193 89.9355 308.6445 79.8579 curveto
stroke
0.66667 0.77647 0.43922 edgecolor
newpath 310.0148 76.6343 moveto
299.4791 75.5164 lineto
307.0182 82.9604 lineto
closepath fill
1 setlinewidth
solid
0.66667 0.77647 0.43922 edgecolor
newpath 310.0148 76.6343 moveto
299.4791 75.5164 lineto
307.0182 82.9604 lineto
closepath stroke
grestore
% Node7
gsave
[ /Rect [ 327 56 380 76 ]
  /Border [ 0 0 0 ]
  /Action << /Subtype /URI /URI ($m17n_8h.html) >>
  /Subtype /Link
/ANN pdfmark
0 0 1 nodecolor
newpath 327 56.5 moveto
327 75.5 lineto
380 75.5 lineto
380 56.5 lineto
closepath fill
1 setlinewidth
filled
0 0 0 nodecolor
newpath 327 56.5 moveto
327 75.5 lineto
380 75.5 lineto
380 56.5 lineto
closepath stroke
0 0 0 nodecolor
10 /Helvetica set_font
335 63.5 moveto 37 (m17n.h) alignedtext
grestore
% Node1->Node7
gsave
1 setlinewidth
solid
0.66667 0.77647 0.43922 edgecolor
newpath 388.5646 112.083 moveto
382.5708 104.3768 373.7482 93.0333 366.4524 83.6531 curveto
stroke
0.66667 0.77647 0.43922 edgecolor
newpath 369.2086 81.4958 moveto
360.3064 75.7511 lineto
363.6831 85.7934 lineto
closepath fill
1 setlinewidth
solid
0.66667 0.77647 0.43922 edgecolor
newpath 369.2086 81.4958 moveto
360.3064 75.7511 lineto
363.6831 85.7934 lineto
closepath stroke
grestore
% Node11
gsave
[ /Rect [ 398.5 56 478.5 76 ]
  /Border [ 0 0 0 ]
  /Action << /Subtype /URI /URI ($m17n-misc_8h.html) >>
  /Subtype /Link
/ANN pdfmark
0 0 1 nodecolor
newpath 398.5 56.5 moveto
398.5 75.5 lineto
478.5 75.5 lineto
478.5 56.5 lineto
closepath fill
1 setlinewidth
filled
0 0 0 nodecolor
newpath 398.5 56.5 moveto
398.5 75.5 lineto
478.5 75.5 lineto
478.5 56.5 lineto
closepath stroke
0 0 0 nodecolor
10 /Helvetica set_font
406.5 63.5 moveto 64 (m17n-misc.h) alignedtext
grestore
% Node1->Node11
gsave
1 setlinewidth
solid
0.66667 0.77647 0.43922 edgecolor
newpath 402.6006 112.083 moveto
408.737 104.3768 417.7697 93.0333 425.2392 83.6531 curveto
stroke
0.66667 0.77647 0.43922 edgecolor
newpath 428.0402 85.7542 moveto
431.5315 75.7511 lineto
422.5643 81.3936 lineto
closepath fill
1 setlinewidth
solid
0.66667 0.77647 0.43922 edgecolor
newpath 428.0402 85.7542 moveto
431.5315 75.7511 lineto
422.5643 81.3936 lineto
closepath stroke
grestore
% Node12
gsave
[ /Rect [ 497 56 560 76 ]
  /Border [ 0 0 0 ]
  /Action << /Subtype /URI /URI ($internal_8h.html) >>
  /Subtype /Link
/ANN pdfmark
0 0 1 nodecolor
newpath 497 56.5 moveto
497 75.5 lineto
560 75.5 lineto
560 56.5 lineto
closepath fill
1 setlinewidth
filled
0 0 0 nodecolor
newpath 497 56.5 moveto
497 75.5 lineto
560 75.5 lineto
560 56.5 lineto
closepath stroke
0 0 0 nodecolor
10 /Helvetica set_font
505 63.5 moveto 47 (internal.h) alignedtext
grestore
% Node1->Node12
gsave
1 setlinewidth
solid
0.66667 0.77647 0.43922 edgecolor
newpath 416.5742 112.4435 moveto
438.5598 103.5171 473.2343 89.4387 498.1641 79.3168 curveto
stroke
0.66667 0.77647 0.43922 edgecolor
newpath 499.5756 82.5213 moveto
507.5244 75.5164 lineto
496.9422 76.0355 lineto
closepath fill
1 setlinewidth
solid
0.66667 0.77647 0.43922 edgecolor
newpath 499.5756 82.5213 moveto
507.5244 75.5164 lineto
496.9422 76.0355 lineto
closepath stroke
grestore
% Node13
gsave
[ /Rect [ 578 56 649 76 ]
  /Border [ 0 0 0 ]
  /Action << /Subtype /URI /URI ($language_8h.html) >>
  /Subtype /Link
/ANN pdfmark
0 0 1 nodecolor
newpath 578 56.5 moveto
578 75.5 lineto
649 75.5 lineto
649 56.5 lineto
closepath fill
1 setlinewidth
filled
0 0 0 nodecolor
newpath 578 56.5 moveto
578 75.5 lineto
649 75.5 lineto
649 56.5 lineto
closepath stroke
0 0 0 nodecolor
10 /Helvetica set_font
586 63.5 moveto 55 (language.h) alignedtext
grestore
% Node1->Node13
gsave
1 setlinewidth
solid
0.66667 0.77647 0.43922 edgecolor
newpath 430.0427 112.4435 moveto
467.7534 103.1024 528.2401 88.1194 569.3649 77.9326 curveto
stroke
0.66667 0.77647 0.43922 edgecolor
newpath 570.2538 81.3182 moveto
579.1189 75.5164 lineto
568.5707 74.5236 lineto
closepath fill
1 setlinewidth
solid
0.66667 0.77647 0.43922 edgecolor
newpath 570.2538 81.3182 moveto
579.1189 75.5164 lineto
568.5707 74.5236 lineto
closepath stroke
grestore
% Node14
gsave
[ /Rect [ 667.5 56 729.5 76 ]
  /Border [ 0 0 0 ]
  /Action << /Subtype /URI /URI ($symbol_8h.html) >>
  /Subtype /Link
/ANN pdfmark
0 0 1 nodecolor
newpath 667.5 56.5 moveto
667.5 75.5 lineto
729.5 75.5 lineto
729.5 56.5 lineto
closepath fill
1 setlinewidth
filled
0 0 0 nodecolor
newpath 667.5 56.5 moveto
667.5 75.5 lineto
729.5 75.5 lineto
729.5 56.5 lineto
closepath stroke
0 0 0 nodecolor
10 /Helvetica set_font
675.5 63.5 moveto 46 (symbol.h) alignedtext
grestore
% Node1->Node14
gsave
1 setlinewidth
solid
0.66667 0.77647 0.43922 edgecolor
newpath 430.7676 115.471 moveto
479.3474 107.7394 569.8083 92.9288 657.36 75.9466 curveto
stroke
0.66667 0.77647 0.43922 edgecolor
newpath 658.0472 79.3786 moveto
667.1916 74.0279 lineto
656.7063 72.5082 lineto
closepath fill
1 setlinewidth
solid
0.66667 0.77647 0.43922 edgecolor
newpath 658.0472 79.3786 moveto
667.1916 74.0279 lineto
656.7063 72.5082 lineto
closepath stroke
grestore
% Node15
gsave
[ /Rect [ 704 0 751 20 ]
  /Border [ 0 0 0 ]
  /Action << /Subtype /URI /URI ($plist_8h.html) >>
  /Subtype /Link
/ANN pdfmark
0 0 1 nodecolor
newpath 704 .5 moveto
704 19.5 lineto
751 19.5 lineto
751 .5 lineto
closepath fill
1 setlinewidth
filled
0 0 0 nodecolor
newpath 704 .5 moveto
704 19.5 lineto
751 19.5 lineto
751 .5 lineto
closepath stroke
0 0 0 nodecolor
10 /Helvetica set_font
712 7.5 moveto 31 (plist.h) alignedtext
grestore
% Node1->Node15
gsave
1 setlinewidth
solid
0.66667 0.77647 0.43922 edgecolor
newpath 430.6245 118.9774 moveto
513.9958 113.8194 718.3733 98.9397 738.5 76 curveto
749.7846 63.1382 744.1378 43.1311 737.4864 28.7106 curveto
stroke
0.66667 0.77647 0.43922 edgecolor
newpath 740.5865 27.0855 moveto
732.9168 19.7761 lineto
734.3543 30.273 lineto
closepath fill
1 setlinewidth
solid
0.66667 0.77647 0.43922 edgecolor
newpath 740.5865 27.0855 moveto
732.9168 19.7761 lineto
734.3543 30.273 lineto
closepath stroke
grestore
% Node16
gsave
[ /Rect [ 786 56 841 76 ]
  /Border [ 0 0 0 ]
  /Action << /Subtype /URI /URI ($mtext_8h.html) >>
  /Subtype /Link
/ANN pdfmark
0 0 1 nodecolor
newpath 786 56.5 moveto
786 75.5 lineto
841 75.5 lineto
841 56.5 lineto
closepath fill
1 setlinewidth
filled
0 0 0 nodecolor
newpath 786 56.5 moveto
786 75.5 lineto
841 75.5 lineto
841 56.5 lineto
closepath stroke
0 0 0 nodecolor
10 /Helvetica set_font
794 63.5 moveto 39 (mtext.h) alignedtext
grestore
% Node1->Node16
gsave
1 setlinewidth
solid
0.66667 0.77647 0.43922 edgecolor
newpath 430.6435 117.8827 moveto
497.3557 111.7245 646.8267 96.7731 771.5 76 curveto
772.7827 75.7863 774.0855 75.5599 775.3997 75.3236 curveto
stroke
0.66667 0.77647 0.43922 edgecolor
newpath 776.3994 78.6953 moveto
785.5544 73.3629 lineto
775.0722 71.8223 lineto
closepath fill
1 setlinewidth
solid
0.66667 0.77647 0.43922 edgecolor
newpath 776.3994 78.6953 moveto
785.5544 73.3629 lineto
775.0722 71.8223 lineto
closepath stroke
grestore
% Node7->Node3
gsave
1 setlinewidth
solid
0.66667 0.77647 0.43922 edgecolor
newpath 326.676 57.8292 moveto
291.0358 48.3016 227.9321 31.4323 187.9854 20.7535 curveto
stroke
0.66667 0.77647 0.43922 edgecolor
newpath 188.6779 17.3158 moveto
178.1133 18.1144 lineto
186.8701 24.0784 lineto
closepath fill
1 setlinewidth
solid
0.66667 0.77647 0.43922 edgecolor
newpath 188.6779 17.3158 moveto
178.1133 18.1144 lineto
186.8701 24.0784 lineto
closepath stroke
grestore
% Node8
gsave
0 0 1 nodecolor
newpath 262.5 .5 moveto
262.5 19.5 lineto
312.5 19.5 lineto
312.5 .5 lineto
closepath fill
1 setlinewidth
filled
0 0 0.74902 nodecolor
newpath 262.5 .5 moveto
262.5 19.5 lineto
312.5 19.5 lineto
312.5 .5 lineto
closepath stroke
0 0 0 nodecolor
10 /Helvetica set_font
270.5 7.5 moveto 34 (stdio.h) alignedtext
grestore
% Node7->Node8
gsave
1 setlinewidth
solid
0.66667 0.77647 0.43922 edgecolor
newpath 342.896 56.324 moveto
333.0438 48.2631 318.1491 36.0765 306.2849 26.3695 curveto
stroke
0.66667 0.77647 0.43922 edgecolor
newpath 308.2529 23.4575 moveto
298.297 19.8339 lineto
303.8202 28.8752 lineto
closepath fill
1 setlinewidth
solid
0.66667 0.77647 0.43922 edgecolor
newpath 308.2529 23.4575 moveto
298.297 19.8339 lineto
303.8202 28.8752 lineto
closepath stroke
grestore
% Node9
gsave
0 0 1 nodecolor
newpath 330.5 .5 moveto
330.5 19.5 lineto
378.5 19.5 lineto
378.5 .5 lineto
closepath fill
1 setlinewidth
filled
0 0 0.74902 nodecolor
newpath 330.5 .5 moveto
330.5 19.5 lineto
378.5 19.5 lineto
378.5 .5 lineto
closepath stroke
0 0 0 nodecolor
10 /Helvetica set_font
338.5 7.5 moveto 32 (time.h) alignedtext
grestore
% Node7->Node9
gsave
1 setlinewidth
solid
0.66667 0.77647 0.43922 edgecolor
newpath 353.6651 56.083 moveto
353.7962 49.0059 353.9841 38.8611 354.1484 29.9865 curveto
stroke
0.66667 0.77647 0.43922 edgecolor
newpath 357.6521 29.8142 moveto
354.3379 19.7511 lineto
350.6533 29.6845 lineto
closepath fill
1 setlinewidth
solid
0.66667 0.77647 0.43922 edgecolor
newpath 357.6521 29.8142 moveto
354.3379 19.7511 lineto
350.6533 29.6845 lineto
closepath stroke
grestore
% Node10
gsave
[ /Rect [ 397.5 0 475.5 20 ]
  /Border [ 0 0 0 ]
  /Action << /Subtype /URI /URI ($m17n-core_8h.html) >>
  /Subtype /Link
/ANN pdfmark
0 0 1 nodecolor
newpath 397.5 .5 moveto
397.5 19.5 lineto
475.5 19.5 lineto
475.5 .5 lineto
closepath fill
1 setlinewidth
filled
0 0 0 nodecolor
newpath 397.5 .5 moveto
397.5 19.5 lineto
475.5 19.5 lineto
475.5 .5 lineto
closepath stroke
0 0 0 nodecolor
10 /Helvetica set_font
405.5 7.5 moveto 62 (m17n-core.h) alignedtext
grestore
% Node7->Node10
gsave
1 setlinewidth
solid
0.66667 0.77647 0.43922 edgecolor
newpath 366.8354 56.324 moveto
379.662 47.979 399.285 35.2122 414.4398 25.3524 curveto
stroke
0.66667 0.77647 0.43922 edgecolor
newpath 416.7243 28.0417 moveto
423.1977 19.6545 lineto
412.9068 22.1742 lineto
closepath fill
1 setlinewidth
solid
0.66667 0.77647 0.43922 edgecolor
newpath 416.7243 28.0417 moveto
423.1977 19.6545 lineto
412.9068 22.1742 lineto
closepath stroke
grestore
% Node11->Node10
gsave
1 setlinewidth
solid
0.66667 0.77647 0.43922 edgecolor
newpath 438.1697 56.083 moveto
437.9076 49.0059 437.5319 38.8611 437.2032 29.9865 curveto
stroke
0.66667 0.77647 0.43922 edgecolor
newpath 440.6919 29.6147 moveto
436.8241 19.7511 lineto
433.6967 29.8738 lineto
closepath fill
1 setlinewidth
solid
0.66667 0.77647 0.43922 edgecolor
newpath 440.6919 29.6147 moveto
436.8241 19.7511 lineto
433.6967 29.8738 lineto
closepath stroke
grestore
% Node14->Node15
gsave
1 setlinewidth
solid
0.66667 0.77647 0.43922 edgecolor
newpath 703.2888 56.083 moveto
707.2584 48.6913 713.0251 37.9533 717.9348 28.8111 curveto
stroke
0.66667 0.77647 0.43922 edgecolor
newpath 721.1525 30.217 moveto
722.8003 19.7511 lineto
714.9855 26.9051 lineto
closepath fill
1 setlinewidth
solid
0.66667 0.77647 0.43922 edgecolor
newpath 721.1525 30.217 moveto
722.8003 19.7511 lineto
714.9855 26.9051 lineto
closepath stroke
grestore
endpage
showpage
grestore
%%PageTrailer
%%EndPage: 1
%%Trailer
%%Pages: 1
%%BoundingBox: 36 36 885 176
end
restore
%%EOF
