%!PS-Adobe-3.0
%%Creator: graphviz version 2.43.0 (0)
%%Title: m17n.h
%%Pages: (atend)
%%BoundingBox: (atend)
%%EndComments
save
%%BeginProlog
/DotDict 200 dict def
DotDict begin

/setupLatin1 {
mark
/EncodingVector 256 array def
 EncodingVector 0

ISOLatin1Encoding 0 255 getinterval putinterval
EncodingVector 45 /hyphen put

% Set up ISO Latin 1 character encoding
/starnetISO {
        dup dup findfont dup length dict begin
        { 1 index /FID ne { def }{ pop pop } ifelse
        } forall
        /Encoding EncodingVector def
        currentdict end definefont
} def
/Times-Roman starnetISO def
/Times-Italic starnetISO def
/Times-Bold starnetISO def
/Times-BoldItalic starnetISO def
/Helvetica starnetISO def
/Helvetica-Oblique starnetISO def
/Helvetica-Bold starnetISO def
/Helvetica-BoldOblique starnetISO def
/Courier starnetISO def
/Courier-Oblique starnetISO def
/Courier-Bold starnetISO def
/Courier-BoldOblique starnetISO def
cleartomark
} bind def

%%BeginResource: procset graphviz 0 0
/coord-font-family /Times-Roman def
/default-font-family /Times-Roman def
/coordfont coord-font-family findfont 8 scalefont def

/InvScaleFactor 1.0 def
/set_scale {
       dup 1 exch div /InvScaleFactor exch def
       scale
} bind def

% styles
/solid { [] 0 setdash } bind def
/dashed { [9 InvScaleFactor mul dup ] 0 setdash } bind def
/dotted { [1 InvScaleFactor mul 6 InvScaleFactor mul] 0 setdash } bind def
/invis {/fill {newpath} def /stroke {newpath} def /show {pop newpath} def} bind def
/bold { 2 setlinewidth } bind def
/filled { } bind def
/unfilled { } bind def
/rounded { } bind def
/diagonals { } bind def
/tapered { } bind def

% hooks for setting color 
/nodecolor { sethsbcolor } bind def
/edgecolor { sethsbcolor } bind def
/graphcolor { sethsbcolor } bind def
/nopcolor {pop pop pop} bind def

/beginpage {	% i j npages
	/npages exch def
	/j exch def
	/i exch def
	/str 10 string def
	npages 1 gt {
		gsave
			coordfont setfont
			0 0 moveto
			(\() show i str cvs show (,) show j str cvs show (\)) show
		grestore
	} if
} bind def

/set_font {
	findfont exch
	scalefont setfont
} def

% draw text fitted to its expected width
/alignedtext {			% width text
	/text exch def
	/width exch def
	gsave
		width 0 gt {
			[] 0 setdash
			text stringwidth pop width exch sub text length div 0 text ashow
		} if
	grestore
} def

/boxprim {				% xcorner ycorner xsize ysize
		4 2 roll
		moveto
		2 copy
		exch 0 rlineto
		0 exch rlineto
		pop neg 0 rlineto
		closepath
} bind def

/ellipse_path {
	/ry exch def
	/rx exch def
	/y exch def
	/x exch def
	matrix currentmatrix
	newpath
	x y translate
	rx ry scale
	0 0 1 0 360 arc
	setmatrix
} bind def

/endpage { showpage } bind def
/showpage { } def

/layercolorseq
	[	% layer color sequence - darkest to lightest
		[0 0 0]
		[.2 .8 .8]
		[.4 .8 .8]
		[.6 .8 .8]
		[.8 .8 .8]
	]
def

/layerlen layercolorseq length def

/setlayer {/maxlayer exch def /curlayer exch def
	layercolorseq curlayer 1 sub layerlen mod get
	aload pop sethsbcolor
	/nodecolor {nopcolor} def
	/edgecolor {nopcolor} def
	/graphcolor {nopcolor} def
} bind def

/onlayer { curlayer ne {invis} if } def

/onlayers {
	/myupper exch def
	/mylower exch def
	curlayer mylower lt
	curlayer myupper gt
	or
	{invis} if
} def

/curlayer 0 def

%%EndResource
%%EndProlog
%%BeginSetup
14 default-font-family set_font
% /arrowlength 10 def
% /arrowwidth 5 def

% make sure pdfmark is harmless for PS-interpreters other than Distiller
/pdfmark where {pop} {userdict /pdfmark /cleartomark load put} ifelse
% make '<<' and '>>' safe on PS Level 1 devices
/languagelevel where {pop languagelevel}{1} ifelse
2 lt {
    userdict (<<) cvn ([) cvn load put
    userdict (>>) cvn ([) cvn load put
} if

%%EndSetup
setupLatin1
%%Page: 1 1
%%PageBoundingBox: 36 36 276 120
%%PageOrientation: Portrait
0 0 1 beginpage
gsave
36 36 240 84 boxprim clip newpath
1 1 set_scale 0 rotate 40 40 translate
% Node1
gsave
0 0 0.74902 nodecolor
newpath 98.5 56.5 moveto
98.5 75.5 lineto
151.5 75.5 lineto
151.5 56.5 lineto
closepath fill
1 setlinewidth
filled
0 0 0 nodecolor
newpath 98.5 56.5 moveto
98.5 75.5 lineto
151.5 75.5 lineto
151.5 56.5 lineto
closepath stroke
0 0 0 nodecolor
10 /Helvetica set_font
106.5 63.5 moveto 37 (m17n.h) alignedtext
grestore
% Node2
gsave
[ /Rect [ 0 0 72 20 ]
  /Border [ 0 0 0 ]
  /Action << /Subtype /URI /URI ($m17n-gui_8h.html) >>
  /Subtype /Link
/ANN pdfmark
0 0 1 nodecolor
newpath 0 .5 moveto
0 19.5 lineto
72 19.5 lineto
72 .5 lineto
closepath fill
1 setlinewidth
filled
0 0 0 nodecolor
newpath 0 .5 moveto
0 19.5 lineto
72 19.5 lineto
72 .5 lineto
closepath stroke
0 0 0 nodecolor
10 /Helvetica set_font
8 7.5 moveto 56 (m17n-gui.h) alignedtext
grestore
% Node1->Node2
gsave
1 setlinewidth
solid
0.66667 0.77647 0.43922 edgecolor
newpath 101.762 50.9005 moveto
85.4422 40.9986 64.1348 28.0705 50.2639 19.6545 curveto
stroke
0.66667 0.77647 0.43922 edgecolor
newpath 100.3356 54.1289 moveto
110.7006 56.324 lineto
103.9668 48.1444 lineto
closepath fill
1 setlinewidth
solid
0.66667 0.77647 0.43922 edgecolor
newpath 100.3356 54.1289 moveto
110.7006 56.324 lineto
103.9668 48.1444 lineto
closepath stroke
grestore
% Node3
gsave
[ /Rect [ 90 0 160 20 ]
  /Border [ 0 0 0 ]
  /Action << /Subtype /URI /URI ($language_8c.html) >>
  /Subtype /Link
/ANN pdfmark
0 0 1 nodecolor
newpath 90 .5 moveto
90 19.5 lineto
160 19.5 lineto
160 .5 lineto
closepath fill
1 setlinewidth
filled
0 0 0 nodecolor
newpath 90 .5 moveto
90 19.5 lineto
160 19.5 lineto
160 .5 lineto
closepath stroke
0 0 0 nodecolor
10 /Helvetica set_font
98 7.5 moveto 54 (language.c) alignedtext
grestore
% Node1->Node3
gsave
1 setlinewidth
solid
0.66667 0.77647 0.43922 edgecolor
newpath 125 45.8045 moveto
125 36.9102 125 26.7798 125 19.7511 curveto
stroke
0.66667 0.77647 0.43922 edgecolor
newpath 121.5001 46.083 moveto
125 56.083 lineto
128.5001 46.083 lineto
closepath fill
1 setlinewidth
solid
0.66667 0.77647 0.43922 edgecolor
newpath 121.5001 46.083 moveto
125 56.083 lineto
128.5001 46.083 lineto
closepath stroke
grestore
% Node4
gsave
[ /Rect [ 178.5 0 231.5 20 ]
  /Border [ 0 0 0 ]
  /Action << /Subtype /URI /URI ($m17n_8c.html) >>
  /Subtype /Link
/ANN pdfmark
0 0 1 nodecolor
newpath 178.5 .5 moveto
178.5 19.5 lineto
231.5 19.5 lineto
231.5 .5 lineto
closepath fill
1 setlinewidth
filled
0 0 0 nodecolor
newpath 178.5 .5 moveto
178.5 19.5 lineto
231.5 19.5 lineto
231.5 .5 lineto
closepath stroke
0 0 0 nodecolor
10 /Helvetica set_font
186.5 7.5 moveto 37 (m17n.c) alignedtext
grestore
% Node1->Node4
gsave
1 setlinewidth
solid
0.66667 0.77647 0.43922 edgecolor
newpath 146.3006 50.6221 moveto
160.915 40.7574 179.8268 27.9919 192.1785 19.6545 curveto
stroke
0.66667 0.77647 0.43922 edgecolor
newpath 144.1837 47.8282 moveto
137.8534 56.324 lineto
148.1001 53.6302 lineto
closepath fill
1 setlinewidth
solid
0.66667 0.77647 0.43922 edgecolor
newpath 144.1837 47.8282 moveto
137.8534 56.324 lineto
148.1001 53.6302 lineto
closepath stroke
grestore
endpage
showpage
grestore
%%PageTrailer
%%EndPage: 1
%%Trailer
%%Pages: 1
%%BoundingBox: 36 36 276 120
end
restore
%%EOF
