%!PS-Adobe-3.0
%%Creator: graphviz version 2.43.0 (0)
%%Title: m17n.c
%%Pages: (atend)
%%BoundingBox: (atend)
%%EndComments
save
%%BeginProlog
/DotDict 200 dict def
DotDict begin

/setupLatin1 {
mark
/EncodingVector 256 array def
 EncodingVector 0

ISOLatin1Encoding 0 255 getinterval putinterval
EncodingVector 45 /hyphen put

% Set up ISO Latin 1 character encoding
/starnetISO {
        dup dup findfont dup length dict begin
        { 1 index /FID ne { def }{ pop pop } ifelse
        } forall
        /Encoding EncodingVector def
        currentdict end definefont
} def
/Times-Roman starnetISO def
/Times-Italic starnetISO def
/Times-Bold starnetISO def
/Times-BoldItalic starnetISO def
/Helvetica starnetISO def
/Helvetica-Oblique starnetISO def
/Helvetica-Bold starnetISO def
/Helvetica-BoldOblique starnetISO def
/Courier starnetISO def
/Courier-Oblique starnetISO def
/Courier-Bold starnetISO def
/Courier-BoldOblique starnetISO def
cleartomark
} bind def

%%BeginResource: procset graphviz 0 0
/coord-font-family /Times-Roman def
/default-font-family /Times-Roman def
/coordfont coord-font-family findfont 8 scalefont def

/InvScaleFactor 1.0 def
/set_scale {
       dup 1 exch div /InvScaleFactor exch def
       scale
} bind def

% styles
/solid { [] 0 setdash } bind def
/dashed { [9 InvScaleFactor mul dup ] 0 setdash } bind def
/dotted { [1 InvScaleFactor mul 6 InvScaleFactor mul] 0 setdash } bind def
/invis {/fill {newpath} def /stroke {newpath} def /show {pop newpath} def} bind def
/bold { 2 setlinewidth } bind def
/filled { } bind def
/unfilled { } bind def
/rounded { } bind def
/diagonals { } bind def
/tapered { } bind def

% hooks for setting color 
/nodecolor { sethsbcolor } bind def
/edgecolor { sethsbcolor } bind def
/graphcolor { sethsbcolor } bind def
/nopcolor {pop pop pop} bind def

/beginpage {	% i j npages
	/npages exch def
	/j exch def
	/i exch def
	/str 10 string def
	npages 1 gt {
		gsave
			coordfont setfont
			0 0 moveto
			(\() show i str cvs show (,) show j str cvs show (\)) show
		grestore
	} if
} bind def

/set_font {
	findfont exch
	scalefont setfont
} def

% draw text fitted to its expected width
/alignedtext {			% width text
	/text exch def
	/width exch def
	gsave
		width 0 gt {
			[] 0 setdash
			text stringwidth pop width exch sub text length div 0 text ashow
		} if
	grestore
} def

/boxprim {				% xcorner ycorner xsize ysize
		4 2 roll
		moveto
		2 copy
		exch 0 rlineto
		0 exch rlineto
		pop neg 0 rlineto
		closepath
} bind def

/ellipse_path {
	/ry exch def
	/rx exch def
	/y exch def
	/x exch def
	matrix currentmatrix
	newpath
	x y translate
	rx ry scale
	0 0 1 0 360 arc
	setmatrix
} bind def

/endpage { showpage } bind def
/showpage { } def

/layercolorseq
	[	% layer color sequence - darkest to lightest
		[0 0 0]
		[.2 .8 .8]
		[.4 .8 .8]
		[.6 .8 .8]
		[.8 .8 .8]
	]
def

/layerlen layercolorseq length def

/setlayer {/maxlayer exch def /curlayer exch def
	layercolorseq curlayer 1 sub layerlen mod get
	aload pop sethsbcolor
	/nodecolor {nopcolor} def
	/edgecolor {nopcolor} def
	/graphcolor {nopcolor} def
} bind def

/onlayer { curlayer ne {invis} if } def

/onlayers {
	/myupper exch def
	/mylower exch def
	curlayer mylower lt
	curlayer myupper gt
	or
	{invis} if
} def

/curlayer 0 def

%%EndResource
%%EndProlog
%%BeginSetup
14 default-font-family set_font
% /arrowlength 10 def
% /arrowwidth 5 def

% make sure pdfmark is harmless for PS-interpreters other than Distiller
/pdfmark where {pop} {userdict /pdfmark /cleartomark load put} ifelse
% make '<<' and '>>' safe on PS Level 1 devices
/languagelevel where {pop languagelevel}{1} ifelse
2 lt {
    userdict (<<) cvn ([) cvn load put
    userdict (>>) cvn ([) cvn load put
} if

%%EndSetup
setupLatin1
%%Page: 1 1
%%PageBoundingBox: 36 36 546 176
%%PageOrientation: Portrait
0 0 1 beginpage
gsave
36 36 510 140 boxprim clip newpath
1 1 set_scale 0 rotate 40 40 translate
% Node1
gsave
0 0 0.74902 nodecolor
newpath 197 112.5 moveto
197 131.5 lineto
250 131.5 lineto
250 112.5 lineto
closepath fill
1 setlinewidth
filled
0 0 0 nodecolor
newpath 197 112.5 moveto
197 131.5 lineto
250 131.5 lineto
250 112.5 lineto
closepath stroke
0 0 0 nodecolor
10 /Helvetica set_font
205 119.5 moveto 37 (m17n.c) alignedtext
grestore
% Node2
gsave
0 0 1 nodecolor
newpath 0 56.5 moveto
0 75.5 lineto
55 75.5 lineto
55 56.5 lineto
closepath fill
1 setlinewidth
filled
0 0 0.74902 nodecolor
newpath 0 56.5 moveto
0 75.5 lineto
55 75.5 lineto
55 56.5 lineto
closepath stroke
0 0 0 nodecolor
10 /Helvetica set_font
8 63.5 moveto 39 (config.h) alignedtext
grestore
% Node1->Node2
gsave
1 setlinewidth
solid
0.66667 0.77647 0.43922 edgecolor
newpath 196.658 113.6048 moveto
162.5882 104.2182 103.6239 87.9729 65.09 77.3564 curveto
stroke
0.66667 0.77647 0.43922 edgecolor
newpath 65.8518 73.936 moveto
55.2814 74.6541 lineto
63.9925 80.6845 lineto
closepath fill
1 setlinewidth
solid
0.66667 0.77647 0.43922 edgecolor
newpath 65.8518 73.936 moveto
55.2814 74.6541 lineto
63.9925 80.6845 lineto
closepath stroke
grestore
% Node3
gsave
0 0 1 nodecolor
newpath 10.5 .5 moveto
10.5 19.5 lineto
60.5 19.5 lineto
60.5 .5 lineto
closepath fill
1 setlinewidth
filled
0 0 0.74902 nodecolor
newpath 10.5 .5 moveto
10.5 19.5 lineto
60.5 19.5 lineto
60.5 .5 lineto
closepath stroke
0 0 0 nodecolor
10 /Helvetica set_font
18.5 7.5 moveto 34 (stdio.h) alignedtext
grestore
% Node1->Node3
gsave
1 setlinewidth
solid
0.66667 0.77647 0.43922 edgecolor
newpath 196.558 114.4437 moveto
171.0227 107.4542 132.2541 94.7851 102.5 76 curveto
81.4219 62.6924 61.4857 41.9112 48.9284 27.4412 curveto
stroke
0.66667 0.77647 0.43922 edgecolor
newpath 51.5619 25.1349 moveto
42.4347 19.7549 lineto
46.2147 29.6525 lineto
closepath fill
1 setlinewidth
solid
0.66667 0.77647 0.43922 edgecolor
newpath 51.5619 25.1349 moveto
42.4347 19.7549 lineto
46.2147 29.6525 lineto
closepath stroke
grestore
% Node4
gsave
[ /Rect [ 112 56 165 76 ]
  /Border [ 0 0 0 ]
  /Action << /Subtype /URI /URI ($m17n_8h.html) >>
  /Subtype /Link
/ANN pdfmark
0 0 1 nodecolor
newpath 112 56.5 moveto
112 75.5 lineto
165 75.5 lineto
165 56.5 lineto
closepath fill
1 setlinewidth
filled
0 0 0 nodecolor
newpath 112 56.5 moveto
112 75.5 lineto
165 75.5 lineto
165 56.5 lineto
closepath stroke
0 0 0 nodecolor
10 /Helvetica set_font
120 63.5 moveto 37 (m17n.h) alignedtext
grestore
% Node1->Node4
gsave
1 setlinewidth
solid
0.66667 0.77647 0.43922 edgecolor
newpath 209.8433 112.324 moveto
196.5837 103.9002 176.232 90.9709 160.6538 81.0741 curveto
stroke
0.66667 0.77647 0.43922 edgecolor
newpath 162.4404 78.0626 moveto
152.1228 75.6545 lineto
158.6867 83.9711 lineto
closepath fill
1 setlinewidth
solid
0.66667 0.77647 0.43922 edgecolor
newpath 162.4404 78.0626 moveto
152.1228 75.6545 lineto
158.6867 83.9711 lineto
closepath stroke
grestore
% Node8
gsave
[ /Rect [ 183.5 56 263.5 76 ]
  /Border [ 0 0 0 ]
  /Action << /Subtype /URI /URI ($m17n-misc_8h.html) >>
  /Subtype /Link
/ANN pdfmark
0 0 1 nodecolor
newpath 183.5 56.5 moveto
183.5 75.5 lineto
263.5 75.5 lineto
263.5 56.5 lineto
closepath fill
1 setlinewidth
filled
0 0 0 nodecolor
newpath 183.5 56.5 moveto
183.5 75.5 lineto
263.5 75.5 lineto
263.5 56.5 lineto
closepath stroke
0 0 0 nodecolor
10 /Helvetica set_font
191.5 63.5 moveto 64 (m17n-misc.h) alignedtext
grestore
% Node1->Node8
gsave
1 setlinewidth
solid
0.66667 0.77647 0.43922 edgecolor
newpath 223.5 112.083 moveto
223.5 105.0059 223.5 94.8611 223.5 85.9865 curveto
stroke
0.66667 0.77647 0.43922 edgecolor
newpath 227.0001 85.751 moveto
223.5 75.7511 lineto
220.0001 85.7511 lineto
closepath fill
1 setlinewidth
solid
0.66667 0.77647 0.43922 edgecolor
newpath 227.0001 85.751 moveto
223.5 75.7511 lineto
220.0001 85.7511 lineto
closepath stroke
grestore
% Node9
gsave
[ /Rect [ 282 56 345 76 ]
  /Border [ 0 0 0 ]
  /Action << /Subtype /URI /URI ($internal_8h.html) >>
  /Subtype /Link
/ANN pdfmark
0 0 1 nodecolor
newpath 282 56.5 moveto
282 75.5 lineto
345 75.5 lineto
345 56.5 lineto
closepath fill
1 setlinewidth
filled
0 0 0 nodecolor
newpath 282 56.5 moveto
282 75.5 lineto
345 75.5 lineto
345 56.5 lineto
closepath stroke
0 0 0 nodecolor
10 /Helvetica set_font
290 63.5 moveto 47 (internal.h) alignedtext
grestore
% Node1->Node9
gsave
1 setlinewidth
solid
0.66667 0.77647 0.43922 edgecolor
newpath 237.9601 112.324 moveto
251.9996 103.9002 273.5485 90.9709 290.0431 81.0741 curveto
stroke
0.66667 0.77647 0.43922 edgecolor
newpath 292.3016 83.8007 moveto
299.0758 75.6545 lineto
288.7001 77.7983 lineto
closepath fill
1 setlinewidth
solid
0.66667 0.77647 0.43922 edgecolor
newpath 292.3016 83.8007 moveto
299.0758 75.6545 lineto
288.7001 77.7983 lineto
closepath stroke
grestore
% Node10
gsave
[ /Rect [ 363.5 56 425.5 76 ]
  /Border [ 0 0 0 ]
  /Action << /Subtype /URI /URI ($charset_8h.html) >>
  /Subtype /Link
/ANN pdfmark
0 0 1 nodecolor
newpath 363.5 56.5 moveto
363.5 75.5 lineto
425.5 75.5 lineto
425.5 56.5 lineto
closepath fill
1 setlinewidth
filled
0 0 0 nodecolor
newpath 363.5 56.5 moveto
363.5 75.5 lineto
425.5 75.5 lineto
425.5 56.5 lineto
closepath stroke
0 0 0 nodecolor
10 /Helvetica set_font
371.5 63.5 moveto 46 (charset.h) alignedtext
grestore
% Node1->Node10
gsave
1 setlinewidth
solid
0.66667 0.77647 0.43922 edgecolor
newpath 250.2188 112.5625 moveto
279.1619 103.4226 325.5232 88.7821 357.8556 78.5719 curveto
stroke
0.66667 0.77647 0.43922 edgecolor
newpath 358.9227 81.9054 moveto
367.4045 75.5565 lineto
356.8147 75.2303 lineto
closepath fill
1 setlinewidth
solid
0.66667 0.77647 0.43922 edgecolor
newpath 358.9227 81.9054 moveto
367.4045 75.5565 lineto
356.8147 75.2303 lineto
closepath stroke
grestore
% Node11
gsave
[ /Rect [ 443.5 56 501.5 76 ]
  /Border [ 0 0 0 ]
  /Action << /Subtype /URI /URI ($coding_8h.html) >>
  /Subtype /Link
/ANN pdfmark
0 0 1 nodecolor
newpath 443.5 56.5 moveto
443.5 75.5 lineto
501.5 75.5 lineto
501.5 56.5 lineto
closepath fill
1 setlinewidth
filled
0 0 0 nodecolor
newpath 443.5 56.5 moveto
443.5 75.5 lineto
501.5 75.5 lineto
501.5 56.5 lineto
closepath stroke
0 0 0 nodecolor
10 /Helvetica set_font
451.5 63.5 moveto 42 (coding.h) alignedtext
grestore
% Node1->Node11
gsave
1 setlinewidth
solid
0.66667 0.77647 0.43922 edgecolor
newpath 250.1885 115.5083 moveto
288.4676 107.5885 361.4197 92.3346 433.3328 76.2246 curveto
stroke
0.66667 0.77647 0.43922 edgecolor
newpath 434.4803 79.5541 moveto
443.4694 73.9464 lineto
432.9453 72.7245 lineto
closepath fill
1 setlinewidth
solid
0.66667 0.77647 0.43922 edgecolor
newpath 434.4803 79.5541 moveto
443.4694 73.9464 lineto
432.9453 72.7245 lineto
closepath stroke
grestore
% Node4->Node3
gsave
1 setlinewidth
solid
0.66667 0.77647 0.43922 edgecolor
newpath 121.9513 56.324 moveto
105.5084 47.7034 80.0652 34.3643 61.0316 24.3855 curveto
stroke
0.66667 0.77647 0.43922 edgecolor
newpath 62.4895 21.198 moveto
52.0077 19.6545 lineto
59.2391 27.3977 lineto
closepath fill
1 setlinewidth
solid
0.66667 0.77647 0.43922 edgecolor
newpath 62.4895 21.198 moveto
52.0077 19.6545 lineto
59.2391 27.3977 lineto
closepath stroke
grestore
% Node5
gsave
0 0 1 nodecolor
newpath 79 .5 moveto
79 19.5 lineto
132 19.5 lineto
132 .5 lineto
closepath fill
1 setlinewidth
filled
0 0 0.74902 nodecolor
newpath 79 .5 moveto
79 19.5 lineto
132 19.5 lineto
132 .5 lineto
closepath stroke
0 0 0 nodecolor
10 /Helvetica set_font
87 7.5 moveto 37 (stdlib.h) alignedtext
grestore
% Node4->Node5
gsave
1 setlinewidth
solid
0.66667 0.77647 0.43922 edgecolor
newpath 133.0507 56.083 moveto
128.4855 48.6127 121.8316 37.7244 116.2066 28.5199 curveto
stroke
0.66667 0.77647 0.43922 edgecolor
newpath 119.0489 26.4588 moveto
110.8479 19.7511 lineto
113.0759 30.109 lineto
closepath fill
1 setlinewidth
solid
0.66667 0.77647 0.43922 edgecolor
newpath 119.0489 26.4588 moveto
110.8479 19.7511 lineto
113.0759 30.109 lineto
closepath stroke
grestore
% Node6
gsave
0 0 1 nodecolor
newpath 150.5 .5 moveto
150.5 19.5 lineto
198.5 19.5 lineto
198.5 .5 lineto
closepath fill
1 setlinewidth
filled
0 0 0.74902 nodecolor
newpath 150.5 .5 moveto
150.5 19.5 lineto
198.5 19.5 lineto
198.5 .5 lineto
closepath stroke
0 0 0 nodecolor
10 /Helvetica set_font
158.5 7.5 moveto 32 (time.h) alignedtext
grestore
% Node4->Node6
gsave
1 setlinewidth
solid
0.66667 0.77647 0.43922 edgecolor
newpath 144.4447 56.083 moveto
149.4773 48.5341 156.8368 37.4948 163.0135 28.2298 curveto
stroke
0.66667 0.77647 0.43922 edgecolor
newpath 166.0311 30.0131 moveto
168.6659 19.7511 lineto
160.2067 26.1301 lineto
closepath fill
1 setlinewidth
solid
0.66667 0.77647 0.43922 edgecolor
newpath 166.0311 30.0131 moveto
168.6659 19.7511 lineto
160.2067 26.1301 lineto
closepath stroke
grestore
% Node7
gsave
[ /Rect [ 216.5 0 294.5 20 ]
  /Border [ 0 0 0 ]
  /Action << /Subtype /URI /URI ($m17n-core_8h.html) >>
  /Subtype /Link
/ANN pdfmark
0 0 1 nodecolor
newpath 216.5 .5 moveto
216.5 19.5 lineto
294.5 19.5 lineto
294.5 .5 lineto
closepath fill
1 setlinewidth
filled
0 0 0 nodecolor
newpath 216.5 .5 moveto
216.5 19.5 lineto
294.5 19.5 lineto
294.5 .5 lineto
closepath stroke
0 0 0 nodecolor
10 /Helvetica set_font
224.5 7.5 moveto 62 (m17n-core.h) alignedtext
grestore
% Node4->Node7
gsave
1 setlinewidth
solid
0.66667 0.77647 0.43922 edgecolor
newpath 157.039 56.4435 moveto
176.1229 47.6356 206.0749 33.8116 227.9357 23.722 curveto
stroke
0.66667 0.77647 0.43922 edgecolor
newpath 229.4349 26.8849 moveto
237.0477 19.5164 lineto
226.5014 20.5292 lineto
closepath fill
1 setlinewidth
solid
0.66667 0.77647 0.43922 edgecolor
newpath 229.4349 26.8849 moveto
237.0477 19.5164 lineto
226.5014 20.5292 lineto
closepath stroke
grestore
% Node8->Node7
gsave
1 setlinewidth
solid
0.66667 0.77647 0.43922 edgecolor
newpath 228.7841 56.083 moveto
233.211 48.6127 239.6633 37.7244 245.1179 28.5199 curveto
stroke
0.66667 0.77647 0.43922 edgecolor
newpath 248.2271 30.1383 moveto
250.3142 19.7511 lineto
242.2051 26.5697 lineto
closepath fill
1 setlinewidth
solid
0.66667 0.77647 0.43922 edgecolor
newpath 248.2271 30.1383 moveto
250.3142 19.7511 lineto
242.2051 26.5697 lineto
closepath stroke
grestore
endpage
showpage
grestore
%%PageTrailer
%%EndPage: 1
%%Trailer
%%Pages: 1
%%BoundingBox: 36 36 546 176
end
restore
%%EOF
