%!PS-Adobe-3.0
%%Creator: graphviz version 2.43.0 (0)
%%Title: m17n-core.h
%%Pages: (atend)
%%BoundingBox: (atend)
%%EndComments
save
%%BeginProlog
/DotDict 200 dict def
DotDict begin

/setupLatin1 {
mark
/EncodingVector 256 array def
 EncodingVector 0

ISOLatin1Encoding 0 255 getinterval putinterval
EncodingVector 45 /hyphen put

% Set up ISO Latin 1 character encoding
/starnetISO {
        dup dup findfont dup length dict begin
        { 1 index /FID ne { def }{ pop pop } ifelse
        } forall
        /Encoding EncodingVector def
        currentdict end definefont
} def
/Times-Roman starnetISO def
/Times-Italic starnetISO def
/Times-Bold starnetISO def
/Times-BoldItalic starnetISO def
/Helvetica starnetISO def
/Helvetica-Oblique starnetISO def
/Helvetica-Bold starnetISO def
/Helvetica-BoldOblique starnetISO def
/Courier starnetISO def
/Courier-Oblique starnetISO def
/Courier-Bold starnetISO def
/Courier-BoldOblique starnetISO def
cleartomark
} bind def

%%BeginResource: procset graphviz 0 0
/coord-font-family /Times-Roman def
/default-font-family /Times-Roman def
/coordfont coord-font-family findfont 8 scalefont def

/InvScaleFactor 1.0 def
/set_scale {
       dup 1 exch div /InvScaleFactor exch def
       scale
} bind def

% styles
/solid { [] 0 setdash } bind def
/dashed { [9 InvScaleFactor mul dup ] 0 setdash } bind def
/dotted { [1 InvScaleFactor mul 6 InvScaleFactor mul] 0 setdash } bind def
/invis {/fill {newpath} def /stroke {newpath} def /show {pop newpath} def} bind def
/bold { 2 setlinewidth } bind def
/filled { } bind def
/unfilled { } bind def
/rounded { } bind def
/diagonals { } bind def
/tapered { } bind def

% hooks for setting color 
/nodecolor { sethsbcolor } bind def
/edgecolor { sethsbcolor } bind def
/graphcolor { sethsbcolor } bind def
/nopcolor {pop pop pop} bind def

/beginpage {	% i j npages
	/npages exch def
	/j exch def
	/i exch def
	/str 10 string def
	npages 1 gt {
		gsave
			coordfont setfont
			0 0 moveto
			(\() show i str cvs show (,) show j str cvs show (\)) show
		grestore
	} if
} bind def

/set_font {
	findfont exch
	scalefont setfont
} def

% draw text fitted to its expected width
/alignedtext {			% width text
	/text exch def
	/width exch def
	gsave
		width 0 gt {
			[] 0 setdash
			text stringwidth pop width exch sub text length div 0 text ashow
		} if
	grestore
} def

/boxprim {				% xcorner ycorner xsize ysize
		4 2 roll
		moveto
		2 copy
		exch 0 rlineto
		0 exch rlineto
		pop neg 0 rlineto
		closepath
} bind def

/ellipse_path {
	/ry exch def
	/rx exch def
	/y exch def
	/x exch def
	matrix currentmatrix
	newpath
	x y translate
	rx ry scale
	0 0 1 0 360 arc
	setmatrix
} bind def

/endpage { showpage } bind def
/showpage { } def

/layercolorseq
	[	% layer color sequence - darkest to lightest
		[0 0 0]
		[.2 .8 .8]
		[.4 .8 .8]
		[.6 .8 .8]
		[.8 .8 .8]
	]
def

/layerlen layercolorseq length def

/setlayer {/maxlayer exch def /curlayer exch def
	layercolorseq curlayer 1 sub layerlen mod get
	aload pop sethsbcolor
	/nodecolor {nopcolor} def
	/edgecolor {nopcolor} def
	/graphcolor {nopcolor} def
} bind def

/onlayer { curlayer ne {invis} if } def

/onlayers {
	/myupper exch def
	/mylower exch def
	curlayer mylower lt
	curlayer myupper gt
	or
	{invis} if
} def

/curlayer 0 def

%%EndResource
%%EndProlog
%%BeginSetup
14 default-font-family set_font
% /arrowlength 10 def
% /arrowwidth 5 def

% make sure pdfmark is harmless for PS-interpreters other than Distiller
/pdfmark where {pop} {userdict /pdfmark /cleartomark load put} ifelse
% make '<<' and '>>' safe on PS Level 1 devices
/languagelevel where {pop languagelevel}{1} ifelse
2 lt {
    userdict (<<) cvn ([) cvn load put
    userdict (>>) cvn ([) cvn load put
} if

%%EndSetup
setupLatin1
%%Page: 1 1
%%PageBoundingBox: 36 36 282 176
%%PageOrientation: Portrait
0 0 1 beginpage
gsave
36 36 246 140 boxprim clip newpath
1 1 set_scale 0 rotate 40 40 translate
% Node1
gsave
0 0 0.74902 nodecolor
newpath 74 112.5 moveto
74 131.5 lineto
152 131.5 lineto
152 112.5 lineto
closepath fill
1 setlinewidth
filled
0 0 0 nodecolor
newpath 74 112.5 moveto
74 131.5 lineto
152 131.5 lineto
152 112.5 lineto
closepath stroke
0 0 0 nodecolor
10 /Helvetica set_font
82 119.5 moveto 62 (m17n-core.h) alignedtext
grestore
% Node2
gsave
[ /Rect [ 86.5 56 139.5 76 ]
  /Border [ 0 0 0 ]
  /Action << /Subtype /URI /URI ($m17n_8h.html) >>
  /Subtype /Link
/ANN pdfmark
0 0 1 nodecolor
newpath 86.5 56.5 moveto
86.5 75.5 lineto
139.5 75.5 lineto
139.5 56.5 lineto
closepath fill
1 setlinewidth
filled
0 0 0 nodecolor
newpath 86.5 56.5 moveto
86.5 75.5 lineto
139.5 75.5 lineto
139.5 56.5 lineto
closepath stroke
0 0 0 nodecolor
10 /Helvetica set_font
94.5 63.5 moveto 37 (m17n.h) alignedtext
grestore
% Node1->Node2
gsave
1 setlinewidth
solid
0.66667 0.77647 0.43922 edgecolor
newpath 113 101.8045 moveto
113 92.9102 113 82.7798 113 75.7511 curveto
stroke
0.66667 0.77647 0.43922 edgecolor
newpath 109.5001 102.083 moveto
113 112.083 lineto
116.5001 102.083 lineto
closepath fill
1 setlinewidth
solid
0.66667 0.77647 0.43922 edgecolor
newpath 109.5001 102.083 moveto
113 112.083 lineto
116.5001 102.083 lineto
closepath stroke
grestore
% Node6
gsave
[ /Rect [ 1.5 56 68.5 76 ]
  /Border [ 0 0 0 ]
  /Action << /Subtype /URI /URI ($m17n-flt_8h.html) >>
  /Subtype /Link
/ANN pdfmark
0 0 1 nodecolor
newpath 1.5 56.5 moveto
1.5 75.5 lineto
68.5 75.5 lineto
68.5 56.5 lineto
closepath fill
1 setlinewidth
filled
0 0 0 nodecolor
newpath 1.5 56.5 moveto
1.5 75.5 lineto
68.5 75.5 lineto
68.5 56.5 lineto
closepath stroke
0 0 0 nodecolor
10 /Helvetica set_font
9.5 63.5 moveto 51 (m17n-flt.h) alignedtext
grestore
% Node1->Node6
gsave
1 setlinewidth
solid
0.66667 0.77647 0.43922 edgecolor
newpath 92.232 106.6221 moveto
77.9829 96.7574 59.5438 83.9919 47.5009 75.6545 curveto
stroke
0.66667 0.77647 0.43922 edgecolor
newpath 90.2538 109.5095 moveto
100.468 112.324 lineto
94.2383 103.7541 lineto
closepath fill
1 setlinewidth
solid
0.66667 0.77647 0.43922 edgecolor
newpath 90.2538 109.5095 moveto
100.468 112.324 lineto
94.2383 103.7541 lineto
closepath stroke
grestore
% Node7
gsave
[ /Rect [ 158 56 238 76 ]
  /Border [ 0 0 0 ]
  /Action << /Subtype /URI /URI ($m17n-misc_8h.html) >>
  /Subtype /Link
/ANN pdfmark
0 0 1 nodecolor
newpath 158 56.5 moveto
158 75.5 lineto
238 75.5 lineto
238 56.5 lineto
closepath fill
1 setlinewidth
filled
0 0 0 nodecolor
newpath 158 56.5 moveto
158 75.5 lineto
238 75.5 lineto
238 56.5 lineto
closepath stroke
0 0 0 nodecolor
10 /Helvetica set_font
166 63.5 moveto 64 (m17n-misc.h) alignedtext
grestore
% Node1->Node7
gsave
1 setlinewidth
solid
0.66667 0.77647 0.43922 edgecolor
newpath 135.1936 106.9005 moveto
150.78 96.9986 171.1297 84.0705 184.3772 75.6545 curveto
stroke
0.66667 0.77647 0.43922 edgecolor
newpath 133.2206 104.0073 moveto
126.6567 112.324 lineto
136.9743 109.9158 lineto
closepath fill
1 setlinewidth
solid
0.66667 0.77647 0.43922 edgecolor
newpath 133.2206 104.0073 moveto
126.6567 112.324 lineto
136.9743 109.9158 lineto
closepath stroke
grestore
% Node3
gsave
[ /Rect [ 0 0 72 20 ]
  /Border [ 0 0 0 ]
  /Action << /Subtype /URI /URI ($m17n-gui_8h.html) >>
  /Subtype /Link
/ANN pdfmark
0 0 1 nodecolor
newpath 0 .5 moveto
0 19.5 lineto
72 19.5 lineto
72 .5 lineto
closepath fill
1 setlinewidth
filled
0 0 0 nodecolor
newpath 0 .5 moveto
0 19.5 lineto
72 19.5 lineto
72 .5 lineto
closepath stroke
0 0 0 nodecolor
10 /Helvetica set_font
8 7.5 moveto 56 (m17n-gui.h) alignedtext
grestore
% Node2->Node3
gsave
1 setlinewidth
solid
0.66667 0.77647 0.43922 edgecolor
newpath 92.099 50.3422 moveto
78.0889 40.5169 60.117 27.9132 48.3407 19.6545 curveto
stroke
0.66667 0.77647 0.43922 edgecolor
newpath 90.4317 53.4477 moveto
100.6286 56.324 lineto
94.4509 47.7166 lineto
closepath fill
1 setlinewidth
solid
0.66667 0.77647 0.43922 edgecolor
newpath 90.4317 53.4477 moveto
100.6286 56.324 lineto
94.4509 47.7166 lineto
closepath stroke
grestore
% Node4
gsave
[ /Rect [ 162 0 232 20 ]
  /Border [ 0 0 0 ]
  /Action << /Subtype /URI /URI ($language_8c.html) >>
  /Subtype /Link
/ANN pdfmark
0 0 1 nodecolor
newpath 162 .5 moveto
162 19.5 lineto
232 19.5 lineto
232 .5 lineto
closepath fill
1 setlinewidth
filled
0 0 0 nodecolor
newpath 162 .5 moveto
162 19.5 lineto
232 19.5 lineto
232 .5 lineto
closepath stroke
0 0 0 nodecolor
10 /Helvetica set_font
170 7.5 moveto 54 (language.c) alignedtext
grestore
% Node2->Node4
gsave
1 setlinewidth
solid
0.66667 0.77647 0.43922 edgecolor
newpath 134.9325 50.9005 moveto
150.3355 40.9986 170.4458 28.0705 183.5374 19.6545 curveto
stroke
0.66667 0.77647 0.43922 edgecolor
newpath 133.0152 47.9722 moveto
126.4961 56.324 lineto
136.8005 53.8605 lineto
closepath fill
1 setlinewidth
solid
0.66667 0.77647 0.43922 edgecolor
newpath 133.0152 47.9722 moveto
126.4961 56.324 lineto
136.8005 53.8605 lineto
closepath stroke
grestore
% Node5
gsave
[ /Rect [ 90.5 0 143.5 20 ]
  /Border [ 0 0 0 ]
  /Action << /Subtype /URI /URI ($m17n_8c.html) >>
  /Subtype /Link
/ANN pdfmark
0 0 1 nodecolor
newpath 90.5 .5 moveto
90.5 19.5 lineto
143.5 19.5 lineto
143.5 .5 lineto
closepath fill
1 setlinewidth
filled
0 0 0 nodecolor
newpath 90.5 .5 moveto
90.5 19.5 lineto
143.5 19.5 lineto
143.5 .5 lineto
closepath stroke
0 0 0 nodecolor
10 /Helvetica set_font
98.5 7.5 moveto 37 (m17n.c) alignedtext
grestore
% Node2->Node5
gsave
1 setlinewidth
solid
0.66667 0.77647 0.43922 edgecolor
newpath 114.4 46.1005 moveto
115.064 37.1357 115.8253 26.8579 116.3518 19.7511 curveto
stroke
0.66667 0.77647 0.43922 edgecolor
newpath 110.9089 45.8517 moveto
113.6605 56.083 lineto
117.8898 46.3689 lineto
closepath fill
1 setlinewidth
solid
0.66667 0.77647 0.43922 edgecolor
newpath 110.9089 45.8517 moveto
113.6605 56.083 lineto
117.8898 46.3689 lineto
closepath stroke
grestore
% Node6->Node3
gsave
1 setlinewidth
solid
0.66667 0.77647 0.43922 edgecolor
newpath 35.3555 45.8045 moveto
35.5202 36.9102 35.7078 26.7798 35.8379 19.7511 curveto
stroke
0.66667 0.77647 0.43922 edgecolor
newpath 31.851 46.0199 moveto
35.1651 56.083 lineto
38.8498 46.1495 lineto
closepath fill
1 setlinewidth
solid
0.66667 0.77647 0.43922 edgecolor
newpath 31.851 46.0199 moveto
35.1651 56.083 lineto
38.8498 46.1495 lineto
closepath stroke
grestore
% Node7->Node4
gsave
1 setlinewidth
solid
0.66667 0.77647 0.43922 edgecolor
newpath 197.6445 45.8045 moveto
197.4798 36.9102 197.2922 26.7798 197.1621 19.7511 curveto
stroke
0.66667 0.77647 0.43922 edgecolor
newpath 194.1502 46.1495 moveto
197.8349 56.083 lineto
201.149 46.0199 lineto
closepath fill
1 setlinewidth
solid
0.66667 0.77647 0.43922 edgecolor
newpath 194.1502 46.1495 moveto
197.8349 56.083 lineto
201.149 46.0199 lineto
closepath stroke
grestore
% Node7->Node5
gsave
1 setlinewidth
solid
0.66667 0.77647 0.43922 edgecolor
newpath 176.4332 50.6221 moveto
161.636 40.7574 142.4878 27.9919 129.9818 19.6545 curveto
stroke
0.66667 0.77647 0.43922 edgecolor
newpath 174.724 53.6891 moveto
184.9859 56.324 lineto
178.6069 47.8647 lineto
closepath fill
1 setlinewidth
solid
0.66667 0.77647 0.43922 edgecolor
newpath 174.724 53.6891 moveto
184.9859 56.324 lineto
178.6069 47.8647 lineto
closepath stroke
grestore
endpage
showpage
grestore
%%PageTrailer
%%EndPage: 1
%%Trailer
%%Pages: 1
%%BoundingBox: 36 36 282 176
end
restore
%%EOF
