%!PS-Adobe-3.0
%%Creator: graphviz version 2.43.0 (0)
%%Title: plist.h
%%Pages: (atend)
%%BoundingBox: (atend)
%%EndComments
save
%%BeginProlog
/DotDict 200 dict def
DotDict begin

/setupLatin1 {
mark
/EncodingVector 256 array def
 EncodingVector 0

ISOLatin1Encoding 0 255 getinterval putinterval
EncodingVector 45 /hyphen put

% Set up ISO Latin 1 character encoding
/starnetISO {
        dup dup findfont dup length dict begin
        { 1 index /FID ne { def }{ pop pop } ifelse
        } forall
        /Encoding EncodingVector def
        currentdict end definefont
} def
/Times-Roman starnetISO def
/Times-Italic starnetISO def
/Times-Bold starnetISO def
/Times-BoldItalic starnetISO def
/Helvetica starnetISO def
/Helvetica-Oblique starnetISO def
/Helvetica-Bold starnetISO def
/Helvetica-BoldOblique starnetISO def
/Courier starnetISO def
/Courier-Oblique starnetISO def
/Courier-Bold starnetISO def
/Courier-BoldOblique starnetISO def
cleartomark
} bind def

%%BeginResource: procset graphviz 0 0
/coord-font-family /Times-Roman def
/default-font-family /Times-Roman def
/coordfont coord-font-family findfont 8 scalefont def

/InvScaleFactor 1.0 def
/set_scale {
       dup 1 exch div /InvScaleFactor exch def
       scale
} bind def

% styles
/solid { [] 0 setdash } bind def
/dashed { [9 InvScaleFactor mul dup ] 0 setdash } bind def
/dotted { [1 InvScaleFactor mul 6 InvScaleFactor mul] 0 setdash } bind def
/invis {/fill {newpath} def /stroke {newpath} def /show {pop newpath} def} bind def
/bold { 2 setlinewidth } bind def
/filled { } bind def
/unfilled { } bind def
/rounded { } bind def
/diagonals { } bind def
/tapered { } bind def

% hooks for setting color 
/nodecolor { sethsbcolor } bind def
/edgecolor { sethsbcolor } bind def
/graphcolor { sethsbcolor } bind def
/nopcolor {pop pop pop} bind def

/beginpage {	% i j npages
	/npages exch def
	/j exch def
	/i exch def
	/str 10 string def
	npages 1 gt {
		gsave
			coordfont setfont
			0 0 moveto
			(\() show i str cvs show (,) show j str cvs show (\)) show
		grestore
	} if
} bind def

/set_font {
	findfont exch
	scalefont setfont
} def

% draw text fitted to its expected width
/alignedtext {			% width text
	/text exch def
	/width exch def
	gsave
		width 0 gt {
			[] 0 setdash
			text stringwidth pop width exch sub text length div 0 text ashow
		} if
	grestore
} def

/boxprim {				% xcorner ycorner xsize ysize
		4 2 roll
		moveto
		2 copy
		exch 0 rlineto
		0 exch rlineto
		pop neg 0 rlineto
		closepath
} bind def

/ellipse_path {
	/ry exch def
	/rx exch def
	/y exch def
	/x exch def
	matrix currentmatrix
	newpath
	x y translate
	rx ry scale
	0 0 1 0 360 arc
	setmatrix
} bind def

/endpage { showpage } bind def
/showpage { } def

/layercolorseq
	[	% layer color sequence - darkest to lightest
		[0 0 0]
		[.2 .8 .8]
		[.4 .8 .8]
		[.6 .8 .8]
		[.8 .8 .8]
	]
def

/layerlen layercolorseq length def

/setlayer {/maxlayer exch def /curlayer exch def
	layercolorseq curlayer 1 sub layerlen mod get
	aload pop sethsbcolor
	/nodecolor {nopcolor} def
	/edgecolor {nopcolor} def
	/graphcolor {nopcolor} def
} bind def

/onlayer { curlayer ne {invis} if } def

/onlayers {
	/myupper exch def
	/mylower exch def
	curlayer mylower lt
	curlayer myupper gt
	or
	{invis} if
} def

/curlayer 0 def

%%EndResource
%%EndProlog
%%BeginSetup
14 default-font-family set_font
% /arrowlength 10 def
% /arrowwidth 5 def

% make sure pdfmark is harmless for PS-interpreters other than Distiller
/pdfmark where {pop} {userdict /pdfmark /cleartomark load put} ifelse
% make '<<' and '>>' safe on PS Level 1 devices
/languagelevel where {pop languagelevel}{1} ifelse
2 lt {
    userdict (<<) cvn ([) cvn load put
    userdict (>>) cvn ([) cvn load put
} if

%%EndSetup
setupLatin1
%%Page: 1 1
%%PageBoundingBox: 36 36 140 176
%%PageOrientation: Portrait
0 0 1 beginpage
gsave
36 36 104 140 boxprim clip newpath
1 1 set_scale 0 rotate 40 40 translate
% Node1
gsave
0 0 0.74902 nodecolor
newpath 11.5 112.5 moveto
11.5 131.5 lineto
58.5 131.5 lineto
58.5 112.5 lineto
closepath fill
1 setlinewidth
filled
0 0 0 nodecolor
newpath 11.5 112.5 moveto
11.5 131.5 lineto
58.5 131.5 lineto
58.5 112.5 lineto
closepath stroke
0 0 0 nodecolor
10 /Helvetica set_font
19.5 119.5 moveto 31 (plist.h) alignedtext
grestore
% Node2
gsave
[ /Rect [ 0 0 70 20 ]
  /Border [ 0 0 0 ]
  /Action << /Subtype /URI /URI ($language_8c.html) >>
  /Subtype /Link
/ANN pdfmark
0 0 1 nodecolor
newpath 0 .5 moveto
0 19.5 lineto
70 19.5 lineto
70 .5 lineto
closepath fill
1 setlinewidth
filled
0 0 0 nodecolor
newpath 0 .5 moveto
0 19.5 lineto
70 19.5 lineto
70 .5 lineto
closepath stroke
0 0 0 nodecolor
10 /Helvetica set_font
8 7.5 moveto 54 (language.c) alignedtext
grestore
% Node1->Node2
gsave
1 setlinewidth
solid
0.66667 0.77647 0.43922 edgecolor
newpath 29.4663 102.1912 moveto
26.3065 89.2427 23.2848 71.6248 25 56 curveto
26.4147 43.1124 30.0434 28.5154 32.5176 19.5332 curveto
stroke
0.66667 0.77647 0.43922 edgecolor
newpath 26.1821 103.4555 moveto
32.1631 112.2007 lineto
32.9411 101.6344 lineto
closepath fill
1 setlinewidth
solid
0.66667 0.77647 0.43922 edgecolor
newpath 26.1821 103.4555 moveto
32.1631 112.2007 lineto
32.9411 101.6344 lineto
closepath stroke
grestore
% Node3
gsave
[ /Rect [ 34 56 96 76 ]
  /Border [ 0 0 0 ]
  /Action << /Subtype /URI /URI ($symbol_8h.html) >>
  /Subtype /Link
/ANN pdfmark
0 0 1 nodecolor
newpath 34 56.5 moveto
34 75.5 lineto
96 75.5 lineto
96 56.5 lineto
closepath fill
1 setlinewidth
filled
0 0 0 nodecolor
newpath 34 56.5 moveto
34 75.5 lineto
96 75.5 lineto
96 56.5 lineto
closepath stroke
0 0 0 nodecolor
10 /Helvetica set_font
42 63.5 moveto 46 (symbol.h) alignedtext
grestore
% Node1->Node3
gsave
1 setlinewidth
solid
0.66667 0.77647 0.43922 edgecolor
newpath 44.8474 103.2747 moveto
49.9748 94.0454 56.0165 83.1703 60.1383 75.7511 curveto
stroke
0.66667 0.77647 0.43922 edgecolor
newpath 41.7508 101.6416 moveto
39.9539 112.083 lineto
47.8699 105.0412 lineto
closepath fill
1 setlinewidth
solid
0.66667 0.77647 0.43922 edgecolor
newpath 41.7508 101.6416 moveto
39.9539 112.083 lineto
47.8699 105.0412 lineto
closepath stroke
grestore
% Node3->Node2
gsave
1 setlinewidth
solid
0.66667 0.77647 0.43922 edgecolor
newpath 55.1526 47.2747 moveto
50.0252 38.0454 43.9835 27.1703 39.8617 19.7511 curveto
stroke
0.66667 0.77647 0.43922 edgecolor
newpath 52.1301 49.0412 moveto
60.0461 56.083 lineto
58.2492 45.6416 lineto
closepath fill
1 setlinewidth
solid
0.66667 0.77647 0.43922 edgecolor
newpath 52.1301 49.0412 moveto
60.0461 56.083 lineto
58.2492 45.6416 lineto
closepath stroke
grestore
endpage
showpage
grestore
%%PageTrailer
%%EndPage: 1
%%Trailer
%%Pages: 1
%%BoundingBox: 36 36 140 176
end
restore
%%EOF
