%!PS-Adobe-3.0
%%Creator: graphviz version 2.43.0 (0)
%%Title: MInputGUIArgIC
%%Pages: (atend)
%%BoundingBox: (atend)
%%EndComments
save
%%BeginProlog
/DotDict 200 dict def
DotDict begin

/setupLatin1 {
mark
/EncodingVector 256 array def
 EncodingVector 0

ISOLatin1Encoding 0 255 getinterval putinterval
EncodingVector 45 /hyphen put

% Set up ISO Latin 1 character encoding
/starnetISO {
        dup dup findfont dup length dict begin
        { 1 index /FID ne { def }{ pop pop } ifelse
        } forall
        /Encoding EncodingVector def
        currentdict end definefont
} def
/Times-Roman starnetISO def
/Times-Italic starnetISO def
/Times-Bold starnetISO def
/Times-BoldItalic starnetISO def
/Helvetica starnetISO def
/Helvetica-Oblique starnetISO def
/Helvetica-Bold starnetISO def
/Helvetica-BoldOblique starnetISO def
/Courier starnetISO def
/Courier-Oblique starnetISO def
/Courier-Bold starnetISO def
/Courier-BoldOblique starnetISO def
cleartomark
} bind def

%%BeginResource: procset graphviz 0 0
/coord-font-family /Times-Roman def
/default-font-family /Times-Roman def
/coordfont coord-font-family findfont 8 scalefont def

/InvScaleFactor 1.0 def
/set_scale {
       dup 1 exch div /InvScaleFactor exch def
       scale
} bind def

% styles
/solid { [] 0 setdash } bind def
/dashed { [9 InvScaleFactor mul dup ] 0 setdash } bind def
/dotted { [1 InvScaleFactor mul 6 InvScaleFactor mul] 0 setdash } bind def
/invis {/fill {newpath} def /stroke {newpath} def /show {pop newpath} def} bind def
/bold { 2 setlinewidth } bind def
/filled { } bind def
/unfilled { } bind def
/rounded { } bind def
/diagonals { } bind def
/tapered { } bind def

% hooks for setting color 
/nodecolor { sethsbcolor } bind def
/edgecolor { sethsbcolor } bind def
/graphcolor { sethsbcolor } bind def
/nopcolor {pop pop pop} bind def

/beginpage {	% i j npages
	/npages exch def
	/j exch def
	/i exch def
	/str 10 string def
	npages 1 gt {
		gsave
			coordfont setfont
			0 0 moveto
			(\() show i str cvs show (,) show j str cvs show (\)) show
		grestore
	} if
} bind def

/set_font {
	findfont exch
	scalefont setfont
} def

% draw text fitted to its expected width
/alignedtext {			% width text
	/text exch def
	/width exch def
	gsave
		width 0 gt {
			[] 0 setdash
			text stringwidth pop width exch sub text length div 0 text ashow
		} if
	grestore
} def

/boxprim {				% xcorner ycorner xsize ysize
		4 2 roll
		moveto
		2 copy
		exch 0 rlineto
		0 exch rlineto
		pop neg 0 rlineto
		closepath
} bind def

/ellipse_path {
	/ry exch def
	/rx exch def
	/y exch def
	/x exch def
	matrix currentmatrix
	newpath
	x y translate
	rx ry scale
	0 0 1 0 360 arc
	setmatrix
} bind def

/endpage { showpage } bind def
/showpage { } def

/layercolorseq
	[	% layer color sequence - darkest to lightest
		[0 0 0]
		[.2 .8 .8]
		[.4 .8 .8]
		[.6 .8 .8]
		[.8 .8 .8]
	]
def

/layerlen layercolorseq length def

/setlayer {/maxlayer exch def /curlayer exch def
	layercolorseq curlayer 1 sub layerlen mod get
	aload pop sethsbcolor
	/nodecolor {nopcolor} def
	/edgecolor {nopcolor} def
	/graphcolor {nopcolor} def
} bind def

/onlayer { curlayer ne {invis} if } def

/onlayers {
	/myupper exch def
	/mylower exch def
	curlayer mylower lt
	curlayer myupper gt
	or
	{invis} if
} def

/curlayer 0 def

%%EndResource
%%EndProlog
%%BeginSetup
14 default-font-family set_font
% /arrowlength 10 def
% /arrowwidth 5 def

% make sure pdfmark is harmless for PS-interpreters other than Distiller
/pdfmark where {pop} {userdict /pdfmark /cleartomark load put} ifelse
% make '<<' and '>>' safe on PS Level 1 devices
/languagelevel where {pop languagelevel}{1} ifelse
2 lt {
    userdict (<<) cvn ([) cvn load put
    userdict (>>) cvn ([) cvn load put
} if

%%EndSetup
setupLatin1
%%Page: 1 1
%%PageBoundingBox: 36 36 867 503
%%PageOrientation: Portrait
0 0 1 beginpage
gsave
36 36 831 467 boxprim clip newpath
1 1 set_scale 0 rotate 40 40 translate
% Node1
gsave
0 0 0.74902 nodecolor
newpath 361 78.5 moveto
361 97.5 lineto
456 97.5 lineto
456 78.5 lineto
closepath fill
1 setlinewidth
filled
0 0 0 nodecolor
newpath 361 78.5 moveto
361 97.5 lineto
456 97.5 lineto
456 78.5 lineto
closepath stroke
0 0 0 nodecolor
10 /Helvetica set_font
369 85.5 moveto 79 (MInputGUIArgIC) alignedtext
grestore
% Node2
gsave
[ /Rect [ 526.5 146 582.5 166 ]
  /Border [ 0 0 0 ]
  /Action << /Subtype /URI /URI ($structMFrame.html) >>
  /Subtype /Link
/ANN pdfmark
0 0 1 nodecolor
newpath 526.5 146.5 moveto
526.5 165.5 lineto
582.5 165.5 lineto
582.5 146.5 lineto
closepath fill
1 setlinewidth
filled
0 0 0 nodecolor
newpath 526.5 146.5 moveto
526.5 165.5 lineto
582.5 165.5 lineto
582.5 146.5 lineto
closepath stroke
0 0 0 nodecolor
10 /Helvetica set_font
534.5 153.5 moveto 40 (MFrame) alignedtext
grestore
% Node2->Node1
gsave
1 setlinewidth
dashed
0.77647 0.75294 0.80392 edgecolor
newpath 516.5511 150.4592 moveto
494.6574 146.6052 467.2458 139.5981 445.5 127 curveto
432.5927 119.5223 421.2045 106.2914 414.5815 97.5832 curveto
stroke
0.77647 0.75294 0.80392 edgecolor
newpath 516.0638 153.9257 moveto
526.4935 152.0627 lineto
517.1784 147.015 lineto
closepath fill
1 setlinewidth
solid
0.77647 0.75294 0.80392 edgecolor
newpath 516.0638 153.9257 moveto
526.4935 152.0627 lineto
517.1784 147.015 lineto
closepath stroke
0 0 0 edgecolor
10 /Helvetica set_font
445.5 119 moveto 33 ( frame) alignedtext
grestore
% Node9
gsave
[ /Rect [ 368 0 457 20 ]
  /Border [ 0 0 0 ]
  /Action << /Subtype /URI /URI ($structMRealizedFace.html) >>
  /Subtype /Link
/ANN pdfmark
0 0 1 nodecolor
newpath 368 .5 moveto
368 19.5 lineto
457 19.5 lineto
457 .5 lineto
closepath fill
1 setlinewidth
filled
0 0 0 nodecolor
newpath 368 .5 moveto
368 19.5 lineto
457 19.5 lineto
457 .5 lineto
closepath stroke
0 0 0 nodecolor
10 /Helvetica set_font
376 7.5 moveto 73 (MRealizedFace) alignedtext
grestore
% Node2->Node9
gsave
1 setlinewidth
dashed
0.77647 0.75294 0.80392 edgecolor
newpath 552.4547 136.279 moveto
549.8044 119.5157 543.8221 95.0229 530.5 78 curveto
507.1972 48.2237 466.7316 29.4484 439.7834 19.584 curveto
stroke
0.77647 0.75294 0.80392 edgecolor
newpath 549.0209 137.0102 moveto
553.8064 146.4627 lineto
555.9601 136.0891 lineto
closepath fill
1 setlinewidth
solid
0.77647 0.75294 0.80392 edgecolor
newpath 549.0209 137.0102 moveto
553.8064 146.4627 lineto
555.9601 136.0891 lineto
closepath stroke
0 0 0 edgecolor
10 /Helvetica set_font
542.5 85.5 moveto 33 ( frame) alignedtext
grestore
% Node11
gsave
[ /Rect [ 653 78 742 98 ]
  /Border [ 0 0 0 ]
  /Action << /Subtype /URI /URI ($structMRealizedFont.html) >>
  /Subtype /Link
/ANN pdfmark
0 0 1 nodecolor
newpath 653 78.5 moveto
653 97.5 lineto
742 97.5 lineto
742 78.5 lineto
closepath fill
1 setlinewidth
filled
0 0 0 nodecolor
newpath 653 78.5 moveto
653 97.5 lineto
742 97.5 lineto
742 78.5 lineto
closepath stroke
0 0 0 nodecolor
10 /Helvetica set_font
661 85.5 moveto 73 (MRealizedFont) alignedtext
grestore
% Node2->Node11
gsave
1 setlinewidth
dashed
0.77647 0.75294 0.80392 edgecolor
newpath 567.5612 138.3026 moveto
574.492 130.4792 583.6123 121.6574 593.5 116 curveto
611.5531 105.6706 633.6092 99.2171 652.7566 95.2228 curveto
stroke
0.77647 0.75294 0.80392 edgecolor
newpath 564.6881 136.2828 moveto
560.9673 146.2028 lineto
570.0622 140.7683 lineto
closepath fill
1 setlinewidth
solid
0.77647 0.75294 0.80392 edgecolor
newpath 564.6881 136.2828 moveto
560.9673 146.2028 lineto
570.0622 140.7683 lineto
closepath stroke
0 0 0 edgecolor
10 /Helvetica set_font
593.5 119 moveto 33 ( frame) alignedtext
grestore
% Node3
gsave
[ /Rect [ 283 305 330 325 ]
  /Border [ 0 0 0 ]
  /Action << /Subtype /URI /URI ($structMPlist.html) >>
  /Subtype /Link
/ANN pdfmark
0 0 1 nodecolor
newpath 283 305.5 moveto
283 324.5 lineto
330 324.5 lineto
330 305.5 lineto
closepath fill
1 setlinewidth
filled
0 0 0 nodecolor
newpath 283 305.5 moveto
283 324.5 lineto
330 324.5 lineto
330 305.5 lineto
closepath stroke
0 0 0 nodecolor
10 /Helvetica set_font
291 312.5 moveto 31 (MPlist) alignedtext
grestore
% Node3->Node2
gsave
1 setlinewidth
dashed
0.77647 0.75294 0.80392 edgecolor
newpath 337.191 300.7094 moveto
344.0124 296.8973 350.8783 292.3085 356.5 287 curveto
384.2111 260.8325 372.0445 238.1871 401.5 214 curveto
438.5225 183.5994 493.3421 168.4961 526.3264 161.7417 curveto
stroke
0.77647 0.75294 0.80392 edgecolor
newpath 335.3269 297.7324 moveto
328.0376 305.4212 lineto
338.5307 303.9563 lineto
closepath fill
1 setlinewidth
solid
0.77647 0.75294 0.80392 edgecolor
newpath 335.3269 297.7324 moveto
328.0376 305.4212 lineto
338.5307 303.9563 lineto
closepath stroke
0 0 0 edgecolor
10 /Helvetica set_font
413 250 moveto 77 ( font_driver_list) alignedtext
0 0 0 edgecolor
10 /Helvetica set_font
408.5 239 moveto 86 (realized_face_list) alignedtext
0 0 0 edgecolor
10 /Helvetica set_font
409 228 moveto 85 (realized_font_list) alignedtext
0 0 0 edgecolor
10 /Helvetica set_font
401.5 217 moveto 100 (realized_fontset_list) alignedtext
grestore
% Node3->Node3
gsave
1 setlinewidth
dashed
0.77647 0.75294 0.80392 edgecolor
newpath 340.5148 320.294 moveto
345.0146 319.3926 348 317.6279 348 315 curveto
348 310.6875 339.9604 308.6997 330.3819 309.0366 curveto
stroke
0.77647 0.75294 0.80392 edgecolor
newpath 340.1295 316.8118 moveto
330.3819 320.9634 lineto
340.5909 323.7965 lineto
closepath fill
1 setlinewidth
solid
0.77647 0.75294 0.80392 edgecolor
newpath 340.1295 316.8118 moveto
330.3819 320.9634 lineto
340.5909 323.7965 lineto
closepath stroke
0 0 0 edgecolor
10 /Helvetica set_font
348 312.5 moveto 25 ( next) alignedtext
grestore
% Node6
gsave
[ /Rect [ 262 226 309 246 ]
  /Border [ 0 0 0 ]
  /Action << /Subtype /URI /URI ($structMFace.html) >>
  /Subtype /Link
/ANN pdfmark
0 0 1 nodecolor
newpath 262 226.5 moveto
262 245.5 lineto
309 245.5 lineto
309 226.5 lineto
closepath fill
1 setlinewidth
filled
0 0 0 nodecolor
newpath 262 226.5 moveto
262 245.5 lineto
309 245.5 lineto
309 226.5 lineto
closepath stroke
0 0 0 nodecolor
10 /Helvetica set_font
270 233.5 moveto 31 (MFace) alignedtext
grestore
% Node3->Node6
gsave
1 setlinewidth
dashed
0.77647 0.75294 0.80392 edgecolor
newpath 301.5284 295.7708 moveto
297.2315 280.0156 291.2067 257.9244 287.9026 245.8094 curveto
stroke
0.77647 0.75294 0.80392 edgecolor
newpath 298.1645 296.7387 moveto
304.1724 305.4655 lineto
304.9178 294.8969 lineto
closepath fill
1 setlinewidth
solid
0.77647 0.75294 0.80392 edgecolor
newpath 298.1645 296.7387 moveto
304.1724 305.4655 lineto
304.9178 294.8969 lineto
closepath stroke
0 0 0 edgecolor
10 /Helvetica set_font
299.5 279 moveto 53 ( frame_list) alignedtext
grestore
% Node3->Node9
gsave
1 setlinewidth
dashed
0.77647 0.75294 0.80392 edgecolor
newpath 279.5292 300.3097 moveto
258.0275 287.2641 231.5 265.4119 231.5 237 curveto
231.5 237 231.5 237 231.5 87 curveto
231.5 28.0393 314.1591 14.06 367.7584 11.1931 curveto
stroke
0.77647 0.75294 0.80392 edgecolor
newpath 277.9269 303.4253 moveto
288.3446 305.355 lineto
281.4041 297.35 lineto
closepath fill
1 setlinewidth
solid
0.77647 0.75294 0.80392 edgecolor
newpath 277.9269 303.4253 moveto
288.3446 305.355 lineto
281.4041 297.35 lineto
closepath stroke
0 0 0 edgecolor
10 /Helvetica set_font
231.5 159 moveto 73 ( base_face_list) alignedtext
0 0 0 edgecolor
10 /Helvetica set_font
234.5 148 moveto 67 (non_ascii_list) alignedtext
grestore
% Node4
gsave
[ /Rect [ 378 372 455 392 ]
  /Border [ 0 0 0 ]
  /Action << /Subtype /URI /URI ($structM17NObject.html) >>
  /Subtype /Link
/ANN pdfmark
0 0 1 nodecolor
newpath 378 372.5 moveto
378 391.5 lineto
455 391.5 lineto
455 372.5 lineto
closepath fill
1 setlinewidth
filled
0 0 0 nodecolor
newpath 378 372.5 moveto
378 391.5 lineto
455 391.5 lineto
455 372.5 lineto
closepath stroke
0 0 0 nodecolor
10 /Helvetica set_font
386 379.5 moveto 61 (M17NObject) alignedtext
grestore
% Node4->Node2
gsave
1 setlinewidth
dashed
0.77647 0.75294 0.80392 edgecolor
newpath 454.6676 369.0302 moveto
500.4663 352.3713 575.1257 317.3549 607.5 258 curveto
623.6082 228.4673 610.0702 209.9447 587.5 185 curveto
581.0474 177.8685 572.7974 170.8685 566.1605 165.6514 curveto
stroke
0.77647 0.75294 0.80392 edgecolor
newpath 453.3521 365.7826 moveto
445.0804 372.4031 lineto
455.6753 372.3859 lineto
closepath fill
1 setlinewidth
solid
0.77647 0.75294 0.80392 edgecolor
newpath 453.3521 365.7826 moveto
445.0804 372.4031 lineto
455.6753 372.3859 lineto
closepath stroke
0 0 0 edgecolor
10 /Helvetica set_font
594.5 279 moveto 37 ( control) alignedtext
grestore
% Node4->Node3
gsave
1 setlinewidth
dashed
0.77647 0.75294 0.80392 edgecolor
newpath 390.3195 367.6872 moveto
382.2785 363.4524 373.4546 358.6559 365.5 354 curveto
349.3069 344.522 331.2453 332.6959 319.4232 324.7766 curveto
stroke
0.77647 0.75294 0.80392 edgecolor
newpath 388.8136 370.849 moveto
399.3004 372.3583 lineto
392.0437 364.6388 lineto
closepath fill
1 setlinewidth
solid
0.77647 0.75294 0.80392 edgecolor
newpath 388.8136 370.849 moveto
399.3004 372.3583 lineto
392.0437 364.6388 lineto
closepath stroke
0 0 0 edgecolor
10 /Helvetica set_font
365.5 346 moveto 37 ( control) alignedtext
grestore
% Node4->Node6
gsave
1 setlinewidth
dashed
0.77647 0.75294 0.80392 edgecolor
newpath 410.6443 362.4657 moveto
402.3074 339.0161 384.8091 298.9309 356.5 276 curveto
340.7634 263.2531 320.2656 252.5066 305.3422 245.5433 curveto
stroke
0.77647 0.75294 0.80392 edgecolor
newpath 407.4194 363.8568 moveto
413.9225 372.221 lineto
414.0548 361.627 lineto
closepath fill
1 setlinewidth
solid
0.77647 0.75294 0.80392 edgecolor
newpath 407.4194 363.8568 moveto
413.9225 372.221 lineto
414.0548 361.627 lineto
closepath stroke
0 0 0 edgecolor
10 /Helvetica set_font
394.5 312.5 moveto 37 ( control) alignedtext
grestore
% Node5
gsave
[ /Rect [ 361.5 439 471.5 459 ]
  /Border [ 0 0 0 ]
  /Action << /Subtype /URI /URI ($structM17NObjectRecord.html) >>
  /Subtype /Link
/ANN pdfmark
0 0 1 nodecolor
newpath 361.5 439.5 moveto
361.5 458.5 lineto
471.5 458.5 lineto
471.5 439.5 lineto
closepath fill
1 setlinewidth
filled
0 0 0 nodecolor
newpath 361.5 439.5 moveto
361.5 458.5 lineto
471.5 458.5 lineto
471.5 439.5 lineto
closepath stroke
0 0 0 nodecolor
10 /Helvetica set_font
369.5 446.5 moveto 94 (M17NObjectRecord) alignedtext
grestore
% Node5->Node4
gsave
1 setlinewidth
dashed
0.77647 0.75294 0.80392 edgecolor
newpath 416.5 429.037 moveto
416.5 416.6703 416.5 401.1198 416.5 391.6273 curveto
stroke
0.77647 0.75294 0.80392 edgecolor
newpath 413.0001 429.2338 moveto
416.5 439.2338 lineto
420.0001 429.2338 lineto
closepath fill
1 setlinewidth
solid
0.77647 0.75294 0.80392 edgecolor
newpath 413.0001 429.2338 moveto
416.5 439.2338 lineto
420.0001 429.2338 lineto
closepath stroke
0 0 0 edgecolor
10 /Helvetica set_font
416.5 413 moveto 34 ( record) alignedtext
grestore
% Node6->Node2
gsave
1 setlinewidth
dashed
0.77647 0.75294 0.80392 edgecolor
newpath 303.1227 219.6953 moveto
317.3548 208.2171 338.4179 193.1385 359.5 185 curveto
415.9744 163.1986 487.5736 158.1593 526.3857 157.1252 curveto
stroke
0.77647 0.75294 0.80392 edgecolor
newpath 300.6538 217.1963 moveto
295.2048 226.2825 lineto
305.1307 222.5775 lineto
closepath fill
1 setlinewidth
solid
0.77647 0.75294 0.80392 edgecolor
newpath 300.6538 217.1963 moveto
295.2048 226.2825 lineto
305.1307 222.5775 lineto
closepath stroke
0 0 0 edgecolor
10 /Helvetica set_font
359.5 188 moveto 25 ( face) alignedtext
grestore
% Node6->Node6
gsave
1 setlinewidth
dashed
0.77647 0.75294 0.80392 edgecolor
newpath 319.5148 243.2793 moveto
324.0146 242.0398 327 239.6134 327 236 curveto
327 230.0703 318.9604 227.3371 309.3819 227.8004 curveto
stroke
0.77647 0.75294 0.80392 edgecolor
newpath 319.0243 239.8093 moveto
309.3819 244.1996 lineto
319.6576 246.7806 lineto
closepath fill
1 setlinewidth
solid
0.77647 0.75294 0.80392 edgecolor
newpath 319.0243 239.8093 moveto
309.3819 244.1996 lineto
319.6576 246.7806 lineto
closepath stroke
0 0 0 edgecolor
10 /Helvetica set_font
327 233.5 moveto 28 ( hook) alignedtext
grestore
% Node6->Node9
gsave
1 setlinewidth
dashed
0.77647 0.75294 0.80392 edgecolor
newpath 292.3461 216.5579 moveto
305.8606 180.5476 335.9981 102.2782 351.5 78 curveto
366.3996 54.665 389.6443 31.7477 402.7172 19.7031 curveto
stroke
0.77647 0.75294 0.80392 edgecolor
newpath 288.9388 215.6776 moveto
288.7202 226.2702 lineto
295.4967 218.1259 lineto
closepath fill
1 setlinewidth
solid
0.77647 0.75294 0.80392 edgecolor
newpath 288.9388 215.6776 moveto
288.7202 226.2702 lineto
295.4967 218.1259 lineto
closepath stroke
0 0 0 edgecolor
10 /Helvetica set_font
332.5 119 moveto 25 ( face) alignedtext
grestore
% Node7
gsave
[ /Rect [ 510 226 599 246 ]
  /Border [ 0 0 0 ]
  /Action << /Subtype /URI /URI ($structMDeviceDriver.html) >>
  /Subtype /Link
/ANN pdfmark
0 0 1 nodecolor
newpath 510 226.5 moveto
510 245.5 lineto
599 245.5 lineto
599 226.5 lineto
closepath fill
1 setlinewidth
filled
0 0 0 nodecolor
newpath 510 226.5 moveto
510 245.5 lineto
599 245.5 lineto
599 226.5 lineto
closepath stroke
0 0 0 nodecolor
10 /Helvetica set_font
518 233.5 moveto 73 (MDeviceDriver) alignedtext
grestore
% Node7->Node2
gsave
1 setlinewidth
dashed
0.77647 0.75294 0.80392 edgecolor
newpath 554.5 216.0719 moveto
554.5 200.1448 554.5 178.0781 554.5 165.9238 curveto
stroke
0.77647 0.75294 0.80392 edgecolor
newpath 551.0001 216.3546 moveto
554.5 226.3546 lineto
558.0001 216.3546 lineto
closepath fill
1 setlinewidth
solid
0.77647 0.75294 0.80392 edgecolor
newpath 551.0001 216.3546 moveto
554.5 226.3546 lineto
558.0001 216.3546 lineto
closepath stroke
0 0 0 edgecolor
10 /Helvetica set_font
554.5 188 moveto 32 ( driver) alignedtext
grestore
% Node8
gsave
[ /Rect [ 665 226 712 246 ]
  /Border [ 0 0 0 ]
  /Action << /Subtype /URI /URI ($structMFont.html) >>
  /Subtype /Link
/ANN pdfmark
0 0 1 nodecolor
newpath 665 226.5 moveto
665 245.5 lineto
712 245.5 lineto
712 226.5 lineto
closepath fill
1 setlinewidth
filled
0 0 0 nodecolor
newpath 665 226.5 moveto
665 245.5 lineto
712 245.5 lineto
712 226.5 lineto
closepath stroke
0 0 0 nodecolor
10 /Helvetica set_font
673 233.5 moveto 31 (MFont) alignedtext
grestore
% Node8->Node2
gsave
1 setlinewidth
dashed
0.77647 0.75294 0.80392 edgecolor
newpath 667.9266 220.397 moveto
652.8942 209.9933 631.8416 195.9675 612.5 185 curveto
599.9528 177.8852 585.3234 170.831 573.8962 165.5829 curveto
stroke
0.77647 0.75294 0.80392 edgecolor
newpath 666.2378 223.4868 moveto
676.4393 226.3469 lineto
670.248 217.7493 lineto
closepath fill
1 setlinewidth
solid
0.77647 0.75294 0.80392 edgecolor
newpath 666.2378 223.4868 moveto
676.4393 226.3469 lineto
670.248 217.7493 lineto
closepath stroke
0 0 0 edgecolor
10 /Helvetica set_font
629.5 188 moveto 23 ( font) alignedtext
grestore
% Node8->Node9
gsave
1 setlinewidth
dashed
0.77647 0.75294 0.80392 edgecolor
newpath 681.7188 216.6811 moveto
672.0203 192.0613 652.4531 147.7288 626.5 116 curveto
587.3983 68.1964 568.4077 61.9924 511.5 38 curveto
492.95 30.1793 471.4871 24.0021 453.297 19.5414 curveto
stroke
0.77647 0.75294 0.80392 edgecolor
newpath 678.5226 218.122 moveto
685.3648 226.2112 lineto
685.0605 215.6207 lineto
closepath fill
1 setlinewidth
solid
0.77647 0.75294 0.80392 edgecolor
newpath 678.5226 218.122 moveto
685.3648 226.2112 lineto
685.0605 215.6207 lineto
closepath stroke
0 0 0 edgecolor
10 /Helvetica set_font
633.5 119 moveto 23 ( font) alignedtext
grestore
% Node8->Node11
gsave
1 setlinewidth
dashed
0.77647 0.75294 0.80392 edgecolor
newpath 689.6638 216.121 moveto
691.6271 184.2716 695.5232 121.0677 696.9554 97.8348 curveto
stroke
0.77647 0.75294 0.80392 edgecolor
newpath 686.158 216.1078 moveto
689.036 226.3043 lineto
693.1448 216.5386 lineto
closepath fill
1 setlinewidth
solid
0.77647 0.75294 0.80392 edgecolor
newpath 686.158 216.1078 moveto
689.036 226.3043 lineto
693.1448 216.5386 lineto
closepath stroke
0 0 0 edgecolor
10 /Helvetica set_font
693.5 159 moveto 23 ( font) alignedtext
0 0 0 edgecolor
10 /Helvetica set_font
693.5 148 moveto 23 (spec) alignedtext
grestore
% Node12
gsave
[ /Rect [ 718 0 795 20 ]
  /Border [ 0 0 0 ]
  /Action << /Subtype /URI /URI ($structMFontDriver.html) >>
  /Subtype /Link
/ANN pdfmark
0 0 1 nodecolor
newpath 718 .5 moveto
718 19.5 lineto
795 19.5 lineto
795 .5 lineto
closepath fill
1 setlinewidth
filled
0 0 0 nodecolor
newpath 718 .5 moveto
718 19.5 lineto
795 19.5 lineto
795 .5 lineto
closepath stroke
0 0 0 nodecolor
10 /Helvetica set_font
726 7.5 moveto 61 (MFontDriver) alignedtext
grestore
% Node8->Node12
gsave
1 setlinewidth
dashed
0.77647 0.75294 0.80392 edgecolor
newpath 706.271 219.5203 moveto
736.7464 191.474 797.2692 128.7549 813.5 60 curveto
815.7465 50.4838 818.7287 46.2623 813.5 38 curveto
808.113 29.4874 799.2363 23.6062 790.0739 19.5645 curveto
stroke
0.77647 0.75294 0.80392 edgecolor
newpath 703.6229 217.1949 moveto
698.5339 226.4875 lineto
708.3071 222.3967 lineto
closepath fill
1 setlinewidth
solid
0.77647 0.75294 0.80392 edgecolor
newpath 703.6229 217.1949 moveto
698.5339 226.4875 lineto
708.3071 222.3967 lineto
closepath stroke
0 0 0 edgecolor
10 /Helvetica set_font
789.5 119 moveto 33 ( select) alignedtext
grestore
% Node9->Node2
gsave
1 setlinewidth
dashed
0.77647 0.75294 0.80392 edgecolor
newpath 428.2716 26.9938 moveto
458.3364 57.482 522.913 122.9682 546.0425 146.4234 curveto
stroke
0.77647 0.75294 0.80392 edgecolor
newpath 430.6063 24.3766 moveto
421.0927 19.7137 lineto
425.6221 29.2916 lineto
closepath fill
1 setlinewidth
solid
0.77647 0.75294 0.80392 edgecolor
newpath 430.6063 24.3766 moveto
421.0927 19.7137 lineto
425.6221 29.2916 lineto
closepath stroke
0 0 0 edgecolor
10 /Helvetica set_font
498.5 85.5 moveto 28 ( rface) alignedtext
grestore
% Node9->Node9
gsave
1 setlinewidth
dashed
0.77647 0.75294 0.80392 edgecolor
newpath 467.3258 15.566 moveto
472.0493 14.3834 475 12.5281 475 10 curveto
475 5.9551 467.4463 3.6324 457.1631 3.032 curveto
stroke
0.77647 0.75294 0.80392 edgecolor
newpath 466.591 12.1341 moveto
457.1631 16.968 lineto
467.5477 19.0684 lineto
closepath fill
1 setlinewidth
solid
0.77647 0.75294 0.80392 edgecolor
newpath 466.591 12.1341 moveto
457.1631 16.968 lineto
467.5477 19.0684 lineto
closepath stroke
0 0 0 edgecolor
10 /Helvetica set_font
475 7.5 moveto 56 ( ascii_rface) alignedtext
grestore
% Node10
gsave
[ /Rect [ 0 78 97 98 ]
  /Border [ 0 0 0 ]
  /Action << /Subtype /URI /URI ($structMFaceHLineProp.html) >>
  /Subtype /Link
/ANN pdfmark
0 0 1 nodecolor
newpath 0 78.5 moveto
0 97.5 lineto
97 97.5 lineto
97 78.5 lineto
closepath fill
1 setlinewidth
filled
0 0 0 nodecolor
newpath 0 78.5 moveto
0 97.5 lineto
97 97.5 lineto
97 78.5 lineto
closepath stroke
0 0 0 nodecolor
10 /Helvetica set_font
8 85.5 moveto 81 (MFaceHLineProp) alignedtext
grestore
% Node10->Node9
gsave
1 setlinewidth
dashed
0.77647 0.75294 0.80392 edgecolor
newpath 69.6899 72.9443 moveto
88.1142 61.4781 115.9489 45.926 142.5 38 curveto
219.2387 15.0922 313.1231 10.7024 367.5415 10.3382 curveto
stroke
0.77647 0.75294 0.80392 edgecolor
newpath 67.7606 70.0234 moveto
61.2089 78.3496 lineto
71.5229 75.9264 lineto
closepath fill
1 setlinewidth
solid
0.77647 0.75294 0.80392 edgecolor
newpath 67.7606 70.0234 moveto
61.2089 78.3496 lineto
71.5229 75.9264 lineto
closepath stroke
0 0 0 edgecolor
10 /Helvetica set_font
142.5 46.5 moveto 28 ( hline) alignedtext
grestore
% Node11->Node9
gsave
1 setlinewidth
dashed
0.77647 0.75294 0.80392 edgecolor
newpath 678.9952 72.0575 moveto
662.7067 59.2114 639.9962 42.1207 629.5 38 curveto
572.9585 15.8026 502.3283 10.8051 457.3067 10.1784 curveto
stroke
0.77647 0.75294 0.80392 edgecolor
newpath 676.8263 74.8045 moveto
686.8289 78.2971 lineto
681.1875 69.3291 lineto
closepath fill
1 setlinewidth
solid
0.77647 0.75294 0.80392 edgecolor
newpath 676.8263 74.8045 moveto
686.8289 78.2971 lineto
681.1875 69.3291 lineto
closepath stroke
0 0 0 edgecolor
10 /Helvetica set_font
662.5 46.5 moveto 27 ( rfont) alignedtext
grestore
% Node11->Node11
gsave
1 setlinewidth
dashed
0.77647 0.75294 0.80392 edgecolor
newpath 752.3258 92.6871 moveto
757.0493 91.6913 760 90.1289 760 88 curveto
760 84.5938 752.4463 82.6378 742.1631 82.1322 curveto
stroke
0.77647 0.75294 0.80392 edgecolor
newpath 751.6924 89.2371 moveto
742.1631 93.8678 lineto
752.5003 96.1903 lineto
closepath fill
1 setlinewidth
solid
0.77647 0.75294 0.80392 edgecolor
newpath 751.6924 89.2371 moveto
742.1631 93.8678 lineto
752.5003 96.1903 lineto
closepath stroke
0 0 0 edgecolor
10 /Helvetica set_font
760 85.5 moveto 25 ( next) alignedtext
grestore
% Node11->Node12
gsave
1 setlinewidth
dashed
0.77647 0.75294 0.80392 edgecolor
newpath 721.4417 72.3583 moveto
726.1709 68.7275 730.8069 64.5558 734.5 60 curveto
744.4828 47.6855 750.9087 30.1182 754.0995 19.7049 curveto
stroke
0.77647 0.75294 0.80392 edgecolor
newpath 719.186 69.6654 moveto
713.0123 78.2757 lineto
723.2079 75.3947 lineto
closepath fill
1 setlinewidth
solid
0.77647 0.75294 0.80392 edgecolor
newpath 719.186 69.6654 moveto
713.0123 78.2757 lineto
723.2079 75.3947 lineto
closepath stroke
0 0 0 edgecolor
10 /Helvetica set_font
746.5 52 moveto 63 ( encapsulate) alignedtext
0 0 0 edgecolor
10 /Helvetica set_font
765.5 41 moveto 25 (open) alignedtext
grestore
% Node12->Node11
gsave
1 setlinewidth
dashed
0.77647 0.75294 0.80392 edgecolor
newpath 717.871 24.1607 moveto
711.8987 27.7776 706.422 32.3213 702.5 38 curveto
694.2389 49.9614 694.7447 67.6446 696.0168 78.1755 curveto
stroke
0.77647 0.75294 0.80392 edgecolor
newpath 719.5881 27.2129 moveto
726.8523 19.5005 lineto
716.3641 20.9995 lineto
closepath fill
1 setlinewidth
solid
0.77647 0.75294 0.80392 edgecolor
newpath 719.5881 27.2129 moveto
726.8523 19.5005 lineto
716.3641 20.9995 lineto
closepath stroke
0 0 0 edgecolor
10 /Helvetica set_font
702.5 46.5 moveto 32 ( driver) alignedtext
grestore
% Node13
gsave
[ /Rect [ 115.5 78 203.5 98 ]
  /Border [ 0 0 0 ]
  /Action << /Subtype /URI /URI ($structMFaceBoxProp.html) >>
  /Subtype /Link
/ANN pdfmark
0 0 1 nodecolor
newpath 115.5 78.5 moveto
115.5 97.5 lineto
203.5 97.5 lineto
203.5 78.5 lineto
closepath fill
1 setlinewidth
filled
0 0 0 nodecolor
newpath 115.5 78.5 moveto
115.5 97.5 lineto
203.5 97.5 lineto
203.5 78.5 lineto
closepath stroke
0 0 0 nodecolor
10 /Helvetica set_font
123.5 85.5 moveto 72 (MFaceBoxProp) alignedtext
grestore
% Node13->Node9
gsave
1 setlinewidth
dashed
0.77647 0.75294 0.80392 edgecolor
newpath 167.8204 69.2795 moveto
173.9034 58.3932 183.2306 45.1967 195.5 38 curveto
223.8258 21.3853 312.9671 14.8961 367.7922 12.4347 curveto
stroke
0.77647 0.75294 0.80392 edgecolor
newpath 164.5981 67.893 moveto
163.1547 78.3891 lineto
170.8285 71.0841 lineto
closepath fill
1 setlinewidth
solid
0.77647 0.75294 0.80392 edgecolor
newpath 164.5981 67.893 moveto
163.1547 78.3891 lineto
170.8285 71.0841 lineto
closepath stroke
0 0 0 edgecolor
10 /Helvetica set_font
195.5 46.5 moveto 22 ( box) alignedtext
grestore
endpage
showpage
grestore
%%PageTrailer
%%EndPage: 1
%%Trailer
%%Pages: 1
%%BoundingBox: 36 36 867 503
end
restore
%%EOF
