%!PS-Adobe-3.0
%%Creator: graphviz version 2.43.0 (0)
%%Title: MDrawGlyphInfo
%%Pages: (atend)
%%BoundingBox: (atend)
%%EndComments
save
%%BeginProlog
/DotDict 200 dict def
DotDict begin

/setupLatin1 {
mark
/EncodingVector 256 array def
 EncodingVector 0

ISOLatin1Encoding 0 255 getinterval putinterval
EncodingVector 45 /hyphen put

% Set up ISO Latin 1 character encoding
/starnetISO {
        dup dup findfont dup length dict begin
        { 1 index /FID ne { def }{ pop pop } ifelse
        } forall
        /Encoding EncodingVector def
        currentdict end definefont
} def
/Times-Roman starnetISO def
/Times-Italic starnetISO def
/Times-Bold starnetISO def
/Times-BoldItalic starnetISO def
/Helvetica starnetISO def
/Helvetica-Oblique starnetISO def
/Helvetica-Bold starnetISO def
/Helvetica-BoldOblique starnetISO def
/Courier starnetISO def
/Courier-Oblique starnetISO def
/Courier-Bold starnetISO def
/Courier-BoldOblique starnetISO def
cleartomark
} bind def

%%BeginResource: procset graphviz 0 0
/coord-font-family /Times-Roman def
/default-font-family /Times-Roman def
/coordfont coord-font-family findfont 8 scalefont def

/InvScaleFactor 1.0 def
/set_scale {
       dup 1 exch div /InvScaleFactor exch def
       scale
} bind def

% styles
/solid { [] 0 setdash } bind def
/dashed { [9 InvScaleFactor mul dup ] 0 setdash } bind def
/dotted { [1 InvScaleFactor mul 6 InvScaleFactor mul] 0 setdash } bind def
/invis {/fill {newpath} def /stroke {newpath} def /show {pop newpath} def} bind def
/bold { 2 setlinewidth } bind def
/filled { } bind def
/unfilled { } bind def
/rounded { } bind def
/diagonals { } bind def
/tapered { } bind def

% hooks for setting color 
/nodecolor { sethsbcolor } bind def
/edgecolor { sethsbcolor } bind def
/graphcolor { sethsbcolor } bind def
/nopcolor {pop pop pop} bind def

/beginpage {	% i j npages
	/npages exch def
	/j exch def
	/i exch def
	/str 10 string def
	npages 1 gt {
		gsave
			coordfont setfont
			0 0 moveto
			(\() show i str cvs show (,) show j str cvs show (\)) show
		grestore
	} if
} bind def

/set_font {
	findfont exch
	scalefont setfont
} def

% draw text fitted to its expected width
/alignedtext {			% width text
	/text exch def
	/width exch def
	gsave
		width 0 gt {
			[] 0 setdash
			text stringwidth pop width exch sub text length div 0 text ashow
		} if
	grestore
} def

/boxprim {				% xcorner ycorner xsize ysize
		4 2 roll
		moveto
		2 copy
		exch 0 rlineto
		0 exch rlineto
		pop neg 0 rlineto
		closepath
} bind def

/ellipse_path {
	/ry exch def
	/rx exch def
	/y exch def
	/x exch def
	matrix currentmatrix
	newpath
	x y translate
	rx ry scale
	0 0 1 0 360 arc
	setmatrix
} bind def

/endpage { showpage } bind def
/showpage { } def

/layercolorseq
	[	% layer color sequence - darkest to lightest
		[0 0 0]
		[.2 .8 .8]
		[.4 .8 .8]
		[.6 .8 .8]
		[.8 .8 .8]
	]
def

/layerlen layercolorseq length def

/setlayer {/maxlayer exch def /curlayer exch def
	layercolorseq curlayer 1 sub layerlen mod get
	aload pop sethsbcolor
	/nodecolor {nopcolor} def
	/edgecolor {nopcolor} def
	/graphcolor {nopcolor} def
} bind def

/onlayer { curlayer ne {invis} if } def

/onlayers {
	/myupper exch def
	/mylower exch def
	curlayer mylower lt
	curlayer myupper gt
	or
	{invis} if
} def

/curlayer 0 def

%%EndResource
%%EndProlog
%%BeginSetup
14 default-font-family set_font
% /arrowlength 10 def
% /arrowwidth 5 def

% make sure pdfmark is harmless for PS-interpreters other than Distiller
/pdfmark where {pop} {userdict /pdfmark /cleartomark load put} ifelse
% make '<<' and '>>' safe on PS Level 1 devices
/languagelevel where {pop languagelevel}{1} ifelse
2 lt {
    userdict (<<) cvn ([) cvn load put
    userdict (>>) cvn ([) cvn load put
} if

%%EndSetup
setupLatin1
%%Page: 1 1
%%PageBoundingBox: 36 36 192 131
%%PageOrientation: Portrait
0 0 1 beginpage
gsave
36 36 156 95 boxprim clip newpath
1 1 set_scale 0 rotate 40 40 translate
% Node1
gsave
0 0 0.74902 nodecolor
newpath 15.5 .5 moveto
15.5 19.5 lineto
113.5 19.5 lineto
113.5 .5 lineto
closepath fill
1 setlinewidth
filled
0 0 0 nodecolor
newpath 15.5 .5 moveto
15.5 19.5 lineto
113.5 19.5 lineto
113.5 .5 lineto
closepath stroke
0 0 0 nodecolor
10 /Helvetica set_font
23.5 7.5 moveto 82 (MDrawGlyphInfo) alignedtext
grestore
% Node2
gsave
[ /Rect [ 0 67 47 87 ]
  /Border [ 0 0 0 ]
  /Action << /Subtype /URI /URI ($structMFont.html) >>
  /Subtype /Link
/ANN pdfmark
0 0 1 nodecolor
newpath 0 67.5 moveto
0 86.5 lineto
47 86.5 lineto
47 67.5 lineto
closepath fill
1 setlinewidth
filled
0 0 0 nodecolor
newpath 0 67.5 moveto
0 86.5 lineto
47 86.5 lineto
47 67.5 lineto
closepath stroke
0 0 0 nodecolor
10 /Helvetica set_font
8 74.5 moveto 31 (MFont) alignedtext
grestore
% Node2->Node1
gsave
1 setlinewidth
dashed
0.77647 0.75294 0.80392 edgecolor
newpath 34.5166 58.5347 moveto
42.4547 45.9499 52.8262 29.5072 59.0582 19.6273 curveto
stroke
0.77647 0.75294 0.80392 edgecolor
newpath 31.4042 56.9085 moveto
29.0294 67.2338 lineto
37.3248 60.6431 lineto
closepath fill
1 setlinewidth
solid
0.77647 0.75294 0.80392 edgecolor
newpath 31.4042 56.9085 moveto
29.0294 67.2338 lineto
37.3248 60.6431 lineto
closepath stroke
0 0 0 edgecolor
10 /Helvetica set_font
46.5 41 moveto 23 ( font) alignedtext
grestore
% Node3
gsave
[ /Rect [ 65.5 67 147.5 87 ]
  /Border [ 0 0 0 ]
  /Action << /Subtype /URI /URI ($structMDrawMetric.html) >>
  /Subtype /Link
/ANN pdfmark
0 0 1 nodecolor
newpath 65.5 67.5 moveto
65.5 86.5 lineto
147.5 86.5 lineto
147.5 67.5 lineto
closepath fill
1 setlinewidth
filled
0 0 0 nodecolor
newpath 65.5 67.5 moveto
65.5 86.5 lineto
147.5 86.5 lineto
147.5 67.5 lineto
closepath stroke
0 0 0 nodecolor
10 /Helvetica set_font
73.5 74.5 moveto 66 (MDrawMetric) alignedtext
grestore
% Node3->Node1
gsave
1 setlinewidth
dashed
0.77647 0.75294 0.80392 edgecolor
newpath 95.2147 58.5347 moveto
87.083 45.9499 76.4585 29.5072 70.0746 19.6273 curveto
stroke
0.77647 0.75294 0.80392 edgecolor
newpath 92.4688 60.7341 moveto
100.8357 67.2338 lineto
98.3482 56.9351 lineto
closepath fill
1 setlinewidth
solid
0.77647 0.75294 0.80392 edgecolor
newpath 92.4688 60.7341 moveto
100.8357 67.2338 lineto
98.3482 56.9351 lineto
closepath stroke
0 0 0 edgecolor
10 /Helvetica set_font
87.5 41 moveto 40 ( metrics) alignedtext
grestore
endpage
showpage
grestore
%%PageTrailer
%%EndPage: 1
%%Trailer
%%Pages: 1
%%BoundingBox: 36 36 192 131
end
restore
%%EOF
