%!PS-Adobe-3.0
%%Creator: graphviz version 2.43.0 (0)
%%Title: MFLTFontForRealized
%%Pages: (atend)
%%BoundingBox: (atend)
%%EndComments
save
%%BeginProlog
/DotDict 200 dict def
DotDict begin

/setupLatin1 {
mark
/EncodingVector 256 array def
 EncodingVector 0

ISOLatin1Encoding 0 255 getinterval putinterval
EncodingVector 45 /hyphen put

% Set up ISO Latin 1 character encoding
/starnetISO {
        dup dup findfont dup length dict begin
        { 1 index /FID ne { def }{ pop pop } ifelse
        } forall
        /Encoding EncodingVector def
        currentdict end definefont
} def
/Times-Roman starnetISO def
/Times-Italic starnetISO def
/Times-Bold starnetISO def
/Times-BoldItalic starnetISO def
/Helvetica starnetISO def
/Helvetica-Oblique starnetISO def
/Helvetica-Bold starnetISO def
/Helvetica-BoldOblique starnetISO def
/Courier starnetISO def
/Courier-Oblique starnetISO def
/Courier-Bold starnetISO def
/Courier-BoldOblique starnetISO def
cleartomark
} bind def

%%BeginResource: procset graphviz 0 0
/coord-font-family /Times-Roman def
/default-font-family /Times-Roman def
/coordfont coord-font-family findfont 8 scalefont def

/InvScaleFactor 1.0 def
/set_scale {
       dup 1 exch div /InvScaleFactor exch def
       scale
} bind def

% styles
/solid { [] 0 setdash } bind def
/dashed { [9 InvScaleFactor mul dup ] 0 setdash } bind def
/dotted { [1 InvScaleFactor mul 6 InvScaleFactor mul] 0 setdash } bind def
/invis {/fill {newpath} def /stroke {newpath} def /show {pop newpath} def} bind def
/bold { 2 setlinewidth } bind def
/filled { } bind def
/unfilled { } bind def
/rounded { } bind def
/diagonals { } bind def
/tapered { } bind def

% hooks for setting color 
/nodecolor { sethsbcolor } bind def
/edgecolor { sethsbcolor } bind def
/graphcolor { sethsbcolor } bind def
/nopcolor {pop pop pop} bind def

/beginpage {	% i j npages
	/npages exch def
	/j exch def
	/i exch def
	/str 10 string def
	npages 1 gt {
		gsave
			coordfont setfont
			0 0 moveto
			(\() show i str cvs show (,) show j str cvs show (\)) show
		grestore
	} if
} bind def

/set_font {
	findfont exch
	scalefont setfont
} def

% draw text fitted to its expected width
/alignedtext {			% width text
	/text exch def
	/width exch def
	gsave
		width 0 gt {
			[] 0 setdash
			text stringwidth pop width exch sub text length div 0 text ashow
		} if
	grestore
} def

/boxprim {				% xcorner ycorner xsize ysize
		4 2 roll
		moveto
		2 copy
		exch 0 rlineto
		0 exch rlineto
		pop neg 0 rlineto
		closepath
} bind def

/ellipse_path {
	/ry exch def
	/rx exch def
	/y exch def
	/x exch def
	matrix currentmatrix
	newpath
	x y translate
	rx ry scale
	0 0 1 0 360 arc
	setmatrix
} bind def

/endpage { showpage } bind def
/showpage { } def

/layercolorseq
	[	% layer color sequence - darkest to lightest
		[0 0 0]
		[.2 .8 .8]
		[.4 .8 .8]
		[.6 .8 .8]
		[.8 .8 .8]
	]
def

/layerlen layercolorseq length def

/setlayer {/maxlayer exch def /curlayer exch def
	layercolorseq curlayer 1 sub layerlen mod get
	aload pop sethsbcolor
	/nodecolor {nopcolor} def
	/edgecolor {nopcolor} def
	/graphcolor {nopcolor} def
} bind def

/onlayer { curlayer ne {invis} if } def

/onlayers {
	/myupper exch def
	/mylower exch def
	curlayer mylower lt
	curlayer myupper gt
	or
	{invis} if
} def

/curlayer 0 def

%%EndResource
%%EndProlog
%%BeginSetup
14 default-font-family set_font
% /arrowlength 10 def
% /arrowwidth 5 def

% make sure pdfmark is harmless for PS-interpreters other than Distiller
/pdfmark where {pop} {userdict /pdfmark /cleartomark load put} ifelse
% make '<<' and '>>' safe on PS Level 1 devices
/languagelevel where {pop languagelevel}{1} ifelse
2 lt {
    userdict (<<) cvn ([) cvn load put
    userdict (>>) cvn ([) cvn load put
} if

%%EndSetup
setupLatin1
%%Page: 1 1
%%PageBoundingBox: 36 36 1096 445
%%PageOrientation: Portrait
0 0 1 beginpage
gsave
36 36 1060 409 boxprim clip newpath
1 1 set_scale 0 rotate 40 40 translate
% Node1
gsave
0 0 0.74902 nodecolor
newpath 882 67.5 moveto
882 86.5 lineto
1002 86.5 lineto
1002 67.5 lineto
closepath fill
1 setlinewidth
filled
0 0 0 nodecolor
newpath 882 67.5 moveto
882 86.5 lineto
1002 86.5 lineto
1002 67.5 lineto
closepath stroke
0 0 0 nodecolor
10 /Helvetica set_font
890 74.5 moveto 104 (MFLTFontForRealized) alignedtext
grestore
% Node2
gsave
[ /Rect [ 740.5 168 829.5 188 ]
  /Border [ 0 0 0 ]
  /Action << /Subtype /URI /URI ($structMRealizedFont.html) >>
  /Subtype /Link
/ANN pdfmark
0 0 1 nodecolor
newpath 740.5 168.5 moveto
740.5 187.5 lineto
829.5 187.5 lineto
829.5 168.5 lineto
closepath fill
1 setlinewidth
filled
0 0 0 nodecolor
newpath 740.5 168.5 moveto
740.5 187.5 lineto
829.5 187.5 lineto
829.5 168.5 lineto
closepath stroke
0 0 0 nodecolor
10 /Helvetica set_font
748.5 175.5 moveto 73 (MRealizedFont) alignedtext
grestore
% Node2->Node1
gsave
1 setlinewidth
dashed
0.77647 0.75294 0.80392 edgecolor
newpath 820.2783 164.6755 moveto
831.0862 160.3236 842.807 154.9995 853 149 curveto
869.6083 139.2245 912.5541 103.1461 932.0774 86.5075 curveto
stroke
0.77647 0.75294 0.80392 edgecolor
newpath 818.7421 161.5169 moveto
810.6793 168.3902 lineto
821.2685 168.0451 lineto
closepath fill
1 setlinewidth
solid
0.77647 0.75294 0.80392 edgecolor
newpath 818.7421 161.5169 moveto
810.6793 168.3902 lineto
821.2685 168.0451 lineto
closepath stroke
0 0 0 edgecolor
10 /Helvetica set_font
909 124.5 moveto 27 ( rfont) alignedtext
grestore
% Node2->Node2
gsave
1 setlinewidth
dashed
0.77647 0.75294 0.80392 edgecolor
newpath 839.8258 183.8589 moveto
844.5493 182.6141 847.5 180.6611 847.5 178 curveto
847.5 173.7422 839.9463 171.2973 829.6631 170.6653 curveto
stroke
0.77647 0.75294 0.80392 edgecolor
newpath 839.0563 180.4339 moveto
829.6631 185.3347 lineto
840.0624 187.3612 lineto
closepath fill
1 setlinewidth
solid
0.77647 0.75294 0.80392 edgecolor
newpath 839.0563 180.4339 moveto
829.6631 185.3347 lineto
840.0624 187.3612 lineto
closepath stroke
0 0 0 edgecolor
10 /Helvetica set_font
847.5 175.5 moveto 25 ( next) alignedtext
grestore
% Node10
gsave
[ /Rect [ 316.5 67 405.5 87 ]
  /Border [ 0 0 0 ]
  /Action << /Subtype /URI /URI ($structMRealizedFace.html) >>
  /Subtype /Link
/ANN pdfmark
0 0 1 nodecolor
newpath 316.5 67.5 moveto
316.5 86.5 lineto
405.5 86.5 lineto
405.5 67.5 lineto
closepath fill
1 setlinewidth
filled
0 0 0 nodecolor
newpath 316.5 67.5 moveto
316.5 86.5 lineto
405.5 86.5 lineto
405.5 67.5 lineto
closepath stroke
0 0 0 nodecolor
10 /Helvetica set_font
324.5 74.5 moveto 73 (MRealizedFace) alignedtext
grestore
% Node2->Node10
gsave
1 setlinewidth
dashed
0.77647 0.75294 0.80392 edgecolor
newpath 730.164 169.7306 moveto
709.0433 165.5334 685.1695 159.0195 665 149 curveto
637.5816 135.3795 640.1981 116.9226 612 105 curveto
575.8709 89.7241 467.5504 82.6101 405.6575 79.7126 curveto
stroke
0.77647 0.75294 0.80392 edgecolor
newpath 729.8119 173.225 moveto
740.2829 171.6101 lineto
731.0903 166.3427 lineto
closepath fill
1 setlinewidth
solid
0.77647 0.75294 0.80392 edgecolor
newpath 729.8119 173.225 moveto
740.2829 171.6101 lineto
731.0903 166.3427 lineto
closepath stroke
0 0 0 edgecolor
10 /Helvetica set_font
665 124.5 moveto 27 ( rfont) alignedtext
grestore
% Node13
gsave
[ /Rect [ 667.5 67 744.5 87 ]
  /Border [ 0 0 0 ]
  /Action << /Subtype /URI /URI ($structMFontDriver.html) >>
  /Subtype /Link
/ANN pdfmark
0 0 1 nodecolor
newpath 667.5 67.5 moveto
667.5 86.5 lineto
744.5 86.5 lineto
744.5 67.5 lineto
closepath fill
1 setlinewidth
filled
0 0 0 nodecolor
newpath 667.5 67.5 moveto
667.5 86.5 lineto
744.5 86.5 lineto
744.5 67.5 lineto
closepath stroke
0 0 0 nodecolor
10 /Helvetica set_font
675.5 74.5 moveto 61 (MFontDriver) alignedtext
grestore
% Node2->Node13
gsave
1 setlinewidth
dashed
0.77647 0.75294 0.80392 edgecolor
newpath 730.495 168.824 moveto
719.7292 164.6382 709.7009 158.3689 703 149 curveto
689.6504 130.3351 697.2831 101.3122 702.4554 86.8359 curveto
stroke
0.77647 0.75294 0.80392 edgecolor
newpath 729.4873 172.1771 moveto
740.0805 171.9916 lineto
731.6837 165.5306 lineto
closepath fill
1 setlinewidth
solid
0.77647 0.75294 0.80392 edgecolor
newpath 729.4873 172.1771 moveto
740.0805 171.9916 lineto
731.6837 165.5306 lineto
closepath stroke
0 0 0 edgecolor
10 /Helvetica set_font
703 130 moveto 63 ( encapsulate) alignedtext
0 0 0 edgecolor
10 /Helvetica set_font
722 119 moveto 25 (open) alignedtext
grestore
% Node3
gsave
[ /Rect [ 468 0 524 20 ]
  /Border [ 0 0 0 ]
  /Action << /Subtype /URI /URI ($structMFrame.html) >>
  /Subtype /Link
/ANN pdfmark
0 0 1 nodecolor
newpath 468 .5 moveto
468 19.5 lineto
524 19.5 lineto
524 .5 lineto
closepath fill
1 setlinewidth
filled
0 0 0 nodecolor
newpath 468 .5 moveto
468 19.5 lineto
524 19.5 lineto
524 .5 lineto
closepath stroke
0 0 0 nodecolor
10 /Helvetica set_font
476 7.5 moveto 40 (MFrame) alignedtext
grestore
% Node3->Node2
gsave
1 setlinewidth
dashed
0.77647 0.75294 0.80392 edgecolor
newpath 534.2118 15.579 moveto
613.7843 26.0587 792.3545 54.8295 822 105 curveto
831.9483 121.836 830.7078 131.4902 822 149 curveto
817.9108 157.2227 810.1263 163.6746 802.7485 168.3022 curveto
stroke
0.77647 0.75294 0.80392 edgecolor
newpath 534.4804 12.0848 moveto
524.115 14.2778 lineto
533.5856 19.0274 lineto
closepath fill
1 setlinewidth
solid
0.77647 0.75294 0.80392 edgecolor
newpath 534.4804 12.0848 moveto
524.115 14.2778 lineto
533.5856 19.0274 lineto
closepath stroke
0 0 0 edgecolor
10 /Helvetica set_font
804 74.5 moveto 33 ( frame) alignedtext
grestore
% Node3->Node10
gsave
1 setlinewidth
dashed
0.77647 0.75294 0.80392 edgecolor
newpath 457.5241 12.9082 moveto
434.3383 15.7403 405.2793 22.4348 384 38 curveto
373.9169 45.3755 367.3848 58.6336 363.9473 67.3755 curveto
stroke
0.77647 0.75294 0.80392 edgecolor
newpath 458.1251 16.365 moveto
467.7148 11.8607 lineto
457.4093 9.4016 lineto
closepath fill
1 setlinewidth
solid
0.77647 0.75294 0.80392 edgecolor
newpath 458.1251 16.365 moveto
467.7148 11.8607 lineto
457.4093 9.4016 lineto
closepath stroke
0 0 0 edgecolor
10 /Helvetica set_font
384 41 moveto 33 ( frame) alignedtext
grestore
% Node4
gsave
[ /Rect [ 222.5 247 269.5 267 ]
  /Border [ 0 0 0 ]
  /Action << /Subtype /URI /URI ($structMPlist.html) >>
  /Subtype /Link
/ANN pdfmark
0 0 1 nodecolor
newpath 222.5 247.5 moveto
222.5 266.5 lineto
269.5 266.5 lineto
269.5 247.5 lineto
closepath fill
1 setlinewidth
filled
0 0 0 nodecolor
newpath 222.5 247.5 moveto
222.5 266.5 lineto
269.5 266.5 lineto
269.5 247.5 lineto
closepath stroke
0 0 0 nodecolor
10 /Helvetica set_font
230.5 254.5 moveto 31 (MPlist) alignedtext
grestore
% Node4->Node3
gsave
1 setlinewidth
dashed
0.77647 0.75294 0.80392 edgecolor
newpath 279.835 251.5367 moveto
340.0755 242.837 462.0511 221.565 488 189 curveto
529.254 137.2277 507.1268 47.6273 498.7559 19.6207 curveto
stroke
0.77647 0.75294 0.80392 edgecolor
newpath 279.0995 248.1057 moveto
269.686 252.9674 lineto
280.0767 255.0371 lineto
closepath fill
1 setlinewidth
solid
0.77647 0.75294 0.80392 edgecolor
newpath 279.0995 248.1057 moveto
269.686 252.9674 lineto
280.0767 255.0371 lineto
closepath stroke
0 0 0 edgecolor
10 /Helvetica set_font
524.5 141 moveto 77 ( font_driver_list) alignedtext
0 0 0 edgecolor
10 /Helvetica set_font
520 130 moveto 86 (realized_face_list) alignedtext
0 0 0 edgecolor
10 /Helvetica set_font
520.5 119 moveto 85 (realized_font_list) alignedtext
0 0 0 edgecolor
10 /Helvetica set_font
513 108 moveto 100 (realized_fontset_list) alignedtext
grestore
% Node4->Node4
gsave
1 setlinewidth
dashed
0.77647 0.75294 0.80392 edgecolor
newpath 280.0148 262.294 moveto
284.5146 261.3926 287.5 259.6279 287.5 257 curveto
287.5 252.6875 279.4604 250.6997 269.8819 251.0366 curveto
stroke
0.77647 0.75294 0.80392 edgecolor
newpath 279.6295 258.8118 moveto
269.8819 262.9634 lineto
280.0909 265.7965 lineto
closepath fill
1 setlinewidth
solid
0.77647 0.75294 0.80392 edgecolor
newpath 279.6295 258.8118 moveto
269.8819 262.9634 lineto
280.0909 265.7965 lineto
closepath stroke
0 0 0 edgecolor
10 /Helvetica set_font
287.5 254.5 moveto 25 ( next) alignedtext
grestore
% Node7
gsave
[ /Rect [ 55.5 168 102.5 188 ]
  /Border [ 0 0 0 ]
  /Action << /Subtype /URI /URI ($structMFace.html) >>
  /Subtype /Link
/ANN pdfmark
0 0 1 nodecolor
newpath 55.5 168.5 moveto
55.5 187.5 lineto
102.5 187.5 lineto
102.5 168.5 lineto
closepath fill
1 setlinewidth
filled
0 0 0 nodecolor
newpath 55.5 168.5 moveto
55.5 187.5 lineto
102.5 187.5 lineto
102.5 168.5 lineto
closepath stroke
0 0 0 nodecolor
10 /Helvetica set_font
63.5 175.5 moveto 31 (MFace) alignedtext
grestore
% Node4->Node7
gsave
1 setlinewidth
dashed
0.77647 0.75294 0.80392 edgecolor
newpath 218.0743 243.1241 moveto
183.8651 227.351 126.8621 201.0682 97.5929 187.5728 curveto
stroke
0.77647 0.75294 0.80392 edgecolor
newpath 216.9433 246.4567 moveto
227.49 247.4655 lineto
219.8743 240.0998 lineto
closepath fill
1 setlinewidth
solid
0.77647 0.75294 0.80392 edgecolor
newpath 216.9433 246.4567 moveto
227.49 247.4655 lineto
219.8743 240.0998 lineto
closepath stroke
0 0 0 edgecolor
10 /Helvetica set_font
188 215.5 moveto 53 ( frame_list) alignedtext
grestore
% Node4->Node10
gsave
1 setlinewidth
dashed
0.77647 0.75294 0.80392 edgecolor
newpath 256.2405 238.4807 moveto
266.8979 220.403 284.2066 191.4721 300 167 curveto
319.2993 137.0954 343.5526 102.5555 354.7754 86.7335 curveto
stroke
0.77647 0.75294 0.80392 edgecolor
newpath 253.1013 236.9146 moveto
251.0559 247.3101 lineto
259.1376 240.4591 lineto
closepath fill
1 setlinewidth
solid
0.77647 0.75294 0.80392 edgecolor
newpath 253.1013 236.9146 moveto
251.0559 247.3101 lineto
259.1376 240.4591 lineto
closepath stroke
0 0 0 edgecolor
10 /Helvetica set_font
300 181 moveto 73 ( base_face_list) alignedtext
0 0 0 edgecolor
10 /Helvetica set_font
303 170 moveto 67 (non_ascii_list) alignedtext
grestore
% Node5
gsave
[ /Rect [ 40.5 314 117.5 334 ]
  /Border [ 0 0 0 ]
  /Action << /Subtype /URI /URI ($structM17NObject.html) >>
  /Subtype /Link
/ANN pdfmark
0 0 1 nodecolor
newpath 40.5 314.5 moveto
40.5 333.5 lineto
117.5 333.5 lineto
117.5 314.5 lineto
closepath fill
1 setlinewidth
filled
0 0 0 nodecolor
newpath 40.5 314.5 moveto
40.5 333.5 lineto
117.5 333.5 lineto
117.5 314.5 lineto
closepath stroke
0 0 0 nodecolor
10 /Helvetica set_font
48.5 321.5 moveto 61 (M17NObject) alignedtext
grestore
% Node5->Node3
gsave
1 setlinewidth
dashed
0.77647 0.75294 0.80392 edgecolor
newpath 44.7515 310.2335 moveto
23.4162 299.8211 0 282.7544 0 258 curveto
0 258 0 258 0 76 curveto
0 28.4511 362.9861 14.6866 467.9117 11.7011 curveto
stroke
0.77647 0.75294 0.80392 edgecolor
newpath 43.4505 313.4864 moveto
54.0039 314.4223 lineto
46.3375 307.1095 lineto
closepath fill
1 setlinewidth
solid
0.77647 0.75294 0.80392 edgecolor
newpath 43.4505 313.4864 moveto
54.0039 314.4223 lineto
46.3375 307.1095 lineto
closepath stroke
0 0 0 edgecolor
10 /Helvetica set_font
0 175.5 moveto 37 ( control) alignedtext
grestore
% Node5->Node4
gsave
1 setlinewidth
dashed
0.77647 0.75294 0.80392 edgecolor
newpath 110.8478 310.6041 moveto
144.0056 297.6984 195.0595 277.8272 223.998 266.5637 curveto
stroke
0.77647 0.75294 0.80392 edgecolor
newpath 109.2258 307.4796 moveto
101.1763 314.3685 lineto
111.7648 314.0029 lineto
closepath fill
1 setlinewidth
solid
0.77647 0.75294 0.80392 edgecolor
newpath 109.2258 307.4796 moveto
101.1763 314.3685 lineto
111.7648 314.0029 lineto
closepath stroke
0 0 0 edgecolor
10 /Helvetica set_font
173 288 moveto 37 ( control) alignedtext
grestore
% Node5->Node7
gsave
1 setlinewidth
dashed
0.77647 0.75294 0.80392 edgecolor
newpath 79 304.3796 moveto
79 272.9665 79 210.6284 79 187.7137 curveto
stroke
0.77647 0.75294 0.80392 edgecolor
newpath 75.5001 304.4234 moveto
79 314.4234 lineto
82.5001 304.4234 lineto
closepath fill
1 setlinewidth
solid
0.77647 0.75294 0.80392 edgecolor
newpath 75.5001 304.4234 moveto
79 314.4234 lineto
82.5001 304.4234 lineto
closepath stroke
0 0 0 edgecolor
10 /Helvetica set_font
79 254.5 moveto 37 ( control) alignedtext
grestore
% Node6
gsave
[ /Rect [ 24 381 134 401 ]
  /Border [ 0 0 0 ]
  /Action << /Subtype /URI /URI ($structM17NObjectRecord.html) >>
  /Subtype /Link
/ANN pdfmark
0 0 1 nodecolor
newpath 24 381.5 moveto
24 400.5 lineto
134 400.5 lineto
134 381.5 lineto
closepath fill
1 setlinewidth
filled
0 0 0 nodecolor
newpath 24 381.5 moveto
24 400.5 lineto
134 400.5 lineto
134 381.5 lineto
closepath stroke
0 0 0 nodecolor
10 /Helvetica set_font
32 388.5 moveto 94 (M17NObjectRecord) alignedtext
grestore
% Node6->Node5
gsave
1 setlinewidth
dashed
0.77647 0.75294 0.80392 edgecolor
newpath 79 371.037 moveto
79 358.6703 79 343.1198 79 333.6273 curveto
stroke
0.77647 0.75294 0.80392 edgecolor
newpath 75.5001 371.2338 moveto
79 381.2338 lineto
82.5001 371.2338 lineto
closepath fill
1 setlinewidth
solid
0.77647 0.75294 0.80392 edgecolor
newpath 75.5001 371.2338 moveto
79 381.2338 lineto
82.5001 371.2338 lineto
closepath stroke
0 0 0 edgecolor
10 /Helvetica set_font
79 355 moveto 34 ( record) alignedtext
grestore
% Node7->Node3
gsave
1 setlinewidth
dashed
0.77647 0.75294 0.80392 edgecolor
newpath 82.778 158.4121 moveto
87.0782 142.0018 95.7248 118.6276 112 105 curveto
167.0574 58.8993 388.6649 25.3597 467.7674 14.6473 curveto
stroke
0.77647 0.75294 0.80392 edgecolor
newpath 79.2987 157.9236 moveto
80.4551 168.4551 lineto
86.1186 159.5011 lineto
closepath fill
1 setlinewidth
solid
0.77647 0.75294 0.80392 edgecolor
newpath 79.2987 157.9236 moveto
80.4551 168.4551 lineto
86.1186 159.5011 lineto
closepath stroke
0 0 0 edgecolor
10 /Helvetica set_font
198 74.5 moveto 25 ( face) alignedtext
grestore
% Node7->Node7
gsave
1 setlinewidth
dashed
0.77647 0.75294 0.80392 edgecolor
newpath 113.0148 184.6175 moveto
117.5146 183.4908 120.5 181.2849 120.5 178 curveto
120.5 172.6094 112.4604 170.1246 102.8819 170.5458 curveto
stroke
0.77647 0.75294 0.80392 edgecolor
newpath 112.56 181.1431 moveto
102.8819 185.4542 lineto
113.1361 188.1194 lineto
closepath fill
1 setlinewidth
solid
0.77647 0.75294 0.80392 edgecolor
newpath 112.56 181.1431 moveto
102.8819 185.4542 lineto
113.1361 188.1194 lineto
closepath stroke
0 0 0 edgecolor
10 /Helvetica set_font
120.5 175.5 moveto 28 ( hook) alignedtext
grestore
% Node7->Node10
gsave
1 setlinewidth
dashed
0.77647 0.75294 0.80392 edgecolor
newpath 97.3443 162.227 moveto
119.0677 145.5469 156.9896 118.9238 194 105 curveto
233.721 90.0564 281.8081 83.3803 316.1614 80.3996 curveto
stroke
0.77647 0.75294 0.80392 edgecolor
newpath 95.0513 159.577 moveto
89.3325 168.4959 lineto
99.365 165.09 lineto
closepath fill
1 setlinewidth
solid
0.77647 0.75294 0.80392 edgecolor
newpath 95.0513 159.577 moveto
89.3325 168.4959 lineto
99.365 165.09 lineto
closepath stroke
0 0 0 edgecolor
10 /Helvetica set_font
194 124.5 moveto 25 ( face) alignedtext
grestore
% Node8
gsave
[ /Rect [ 536.5 67 625.5 87 ]
  /Border [ 0 0 0 ]
  /Action << /Subtype /URI /URI ($structMDeviceDriver.html) >>
  /Subtype /Link
/ANN pdfmark
0 0 1 nodecolor
newpath 536.5 67.5 moveto
536.5 86.5 lineto
625.5 86.5 lineto
625.5 67.5 lineto
closepath fill
1 setlinewidth
filled
0 0 0 nodecolor
newpath 536.5 67.5 moveto
536.5 86.5 lineto
625.5 86.5 lineto
625.5 67.5 lineto
closepath stroke
0 0 0 nodecolor
10 /Helvetica set_font
544.5 74.5 moveto 73 (MDeviceDriver) alignedtext
grestore
% Node8->Node3
gsave
1 setlinewidth
dashed
0.77647 0.75294 0.80392 edgecolor
newpath 561.4733 61.0678 moveto
544.6953 48.2376 521.0884 30.1853 507.2819 19.6273 curveto
stroke
0.77647 0.75294 0.80392 edgecolor
newpath 559.4668 63.9395 moveto
569.5365 67.2338 lineto
563.719 58.379 lineto
closepath fill
1 setlinewidth
solid
0.77647 0.75294 0.80392 edgecolor
newpath 559.4668 63.9395 moveto
569.5365 67.2338 lineto
563.719 58.379 lineto
closepath stroke
0 0 0 edgecolor
10 /Helvetica set_font
544 41 moveto 32 ( driver) alignedtext
grestore
% Node9
gsave
[ /Rect [ 680.5 247 727.5 267 ]
  /Border [ 0 0 0 ]
  /Action << /Subtype /URI /URI ($structMFont.html) >>
  /Subtype /Link
/ANN pdfmark
0 0 1 nodecolor
newpath 680.5 247.5 moveto
680.5 266.5 lineto
727.5 266.5 lineto
727.5 247.5 lineto
closepath fill
1 setlinewidth
filled
0 0 0 nodecolor
newpath 680.5 247.5 moveto
680.5 266.5 lineto
727.5 266.5 lineto
727.5 247.5 lineto
closepath stroke
0 0 0 nodecolor
10 /Helvetica set_font
688.5 254.5 moveto 31 (MFont) alignedtext
grestore
% Node9->Node2
gsave
1 setlinewidth
dashed
0.77647 0.75294 0.80392 edgecolor
newpath 720.3776 240.4312 moveto
737.0335 224.5978 762.2534 200.6233 775.7329 187.8094 curveto
stroke
0.77647 0.75294 0.80392 edgecolor
newpath 717.8142 238.0388 moveto
712.9779 247.4655 lineto
722.6371 243.1123 lineto
closepath fill
1 setlinewidth
solid
0.77647 0.75294 0.80392 edgecolor
newpath 717.8142 238.0388 moveto
712.9779 247.4655 lineto
722.6371 243.1123 lineto
closepath stroke
0 0 0 edgecolor
10 /Helvetica set_font
755 221 moveto 23 ( font) alignedtext
0 0 0 edgecolor
10 /Helvetica set_font
755 210 moveto 23 (spec) alignedtext
grestore
% Node9->Node3
gsave
1 setlinewidth
dashed
0.77647 0.75294 0.80392 edgecolor
newpath 737.8908 252.1726 moveto
804.2899 244.0052 948.0829 222.8094 983 189 curveto
1022.9665 150.3013 1048.1507 108.4094 1011 67 curveto
978.2302 30.4737 627.0217 15.5255 524.1552 11.9112 curveto
stroke
0.77647 0.75294 0.80392 edgecolor
newpath 737.0639 248.7467 moveto
727.5532 253.4154 lineto
737.8995 255.6967 lineto
closepath fill
1 setlinewidth
solid
0.77647 0.75294 0.80392 edgecolor
newpath 737.0639 248.7467 moveto
727.5532 253.4154 lineto
737.8995 255.6967 lineto
closepath stroke
0 0 0 edgecolor
10 /Helvetica set_font
1029 124.5 moveto 23 ( font) alignedtext
grestore
% Node9->Node10
gsave
1 setlinewidth
dashed
0.77647 0.75294 0.80392 edgecolor
newpath 671.9245 243.6232 moveto
628.3894 226.0472 549.1335 191.251 489 149 curveto
465.8514 132.7353 467.2564 119.5609 443 105 curveto
429.3785 96.8232 412.9786 90.7887 398.4366 86.5243 curveto
stroke
0.77647 0.75294 0.80392 edgecolor
newpath 670.8368 246.9574 moveto
681.4219 247.4123 lineto
673.4308 240.4558 lineto
closepath fill
1 setlinewidth
solid
0.77647 0.75294 0.80392 edgecolor
newpath 670.8368 246.9574 moveto
681.4219 247.4123 lineto
673.4308 240.4558 lineto
closepath stroke
0 0 0 edgecolor
10 /Helvetica set_font
552 175.5 moveto 23 ( font) alignedtext
grestore
% Node9->Node13
gsave
1 setlinewidth
dashed
0.77647 0.75294 0.80392 edgecolor
newpath 686.8675 240.0966 moveto
658.135 211.4651 606.2606 150.0375 637 105 curveto
644.0342 94.694 655.6441 88.3216 667.3523 84.3815 curveto
stroke
0.77647 0.75294 0.80392 edgecolor
newpath 684.6504 242.8216 moveto
694.27 247.2616 lineto
689.5188 237.7918 lineto
closepath fill
1 setlinewidth
solid
0.77647 0.75294 0.80392 edgecolor
newpath 684.6504 242.8216 moveto
694.27 247.2616 lineto
689.5188 237.7918 lineto
closepath stroke
0 0 0 edgecolor
10 /Helvetica set_font
646 175.5 moveto 33 ( select) alignedtext
grestore
% Node10->Node3
gsave
1 setlinewidth
dashed
0.77647 0.75294 0.80392 edgecolor
newpath 388.117 62.9436 moveto
414.8565 50.0691 454.9657 30.7573 477.9989 19.6672 curveto
stroke
0.77647 0.75294 0.80392 edgecolor
newpath 386.4186 59.8768 moveto
378.927 67.3685 lineto
389.4554 66.1838 lineto
closepath fill
1 setlinewidth
solid
0.77647 0.75294 0.80392 edgecolor
newpath 386.4186 59.8768 moveto
378.927 67.3685 lineto
389.4554 66.1838 lineto
closepath stroke
0 0 0 edgecolor
10 /Helvetica set_font
437 41 moveto 28 ( rface) alignedtext
grestore
% Node10->Node10
gsave
1 setlinewidth
dashed
0.77647 0.75294 0.80392 edgecolor
newpath 415.8258 81.6871 moveto
420.5493 80.6913 423.5 79.1289 423.5 77 curveto
423.5 73.5938 415.9463 71.6378 405.6631 71.1322 curveto
stroke
0.77647 0.75294 0.80392 edgecolor
newpath 415.1924 78.2371 moveto
405.6631 82.8678 lineto
416.0003 85.1903 lineto
closepath fill
1 setlinewidth
solid
0.77647 0.75294 0.80392 edgecolor
newpath 415.1924 78.2371 moveto
405.6631 82.8678 lineto
416.0003 85.1903 lineto
closepath stroke
0 0 0 edgecolor
10 /Helvetica set_font
423.5 74.5 moveto 56 ( ascii_rface) alignedtext
grestore
% Node11
gsave
[ /Rect [ 382.5 168 479.5 188 ]
  /Border [ 0 0 0 ]
  /Action << /Subtype /URI /URI ($structMFaceHLineProp.html) >>
  /Subtype /Link
/ANN pdfmark
0 0 1 nodecolor
newpath 382.5 168.5 moveto
382.5 187.5 lineto
479.5 187.5 lineto
479.5 168.5 lineto
closepath fill
1 setlinewidth
filled
0 0 0 nodecolor
newpath 382.5 168.5 moveto
382.5 187.5 lineto
479.5 187.5 lineto
479.5 168.5 lineto
closepath stroke
0 0 0 nodecolor
10 /Helvetica set_font
390.5 175.5 moveto 81 (MFaceHLineProp) alignedtext
grestore
% Node11->Node10
gsave
1 setlinewidth
dashed
0.77647 0.75294 0.80392 edgecolor
newpath 418.8253 159.7814 moveto
403.7361 138.441 378.6095 102.9048 367.0982 86.6245 curveto
stroke
0.77647 0.75294 0.80392 edgecolor
newpath 416.1568 162.07 moveto
424.788 168.2144 lineto
421.8724 158.0286 lineto
closepath fill
1 setlinewidth
solid
0.77647 0.75294 0.80392 edgecolor
newpath 416.1568 162.07 moveto
424.788 168.2144 lineto
421.8724 158.0286 lineto
closepath stroke
0 0 0 edgecolor
10 /Helvetica set_font
411 124.5 moveto 28 ( hline) alignedtext
grestore
% Node12
gsave
[ /Rect [ 167 168 255 188 ]
  /Border [ 0 0 0 ]
  /Action << /Subtype /URI /URI ($structMFaceBoxProp.html) >>
  /Subtype /Link
/ANN pdfmark
0 0 1 nodecolor
newpath 167 168.5 moveto
167 187.5 lineto
255 187.5 lineto
255 168.5 lineto
closepath fill
1 setlinewidth
filled
0 0 0 nodecolor
newpath 167 168.5 moveto
167 187.5 lineto
255 187.5 lineto
255 168.5 lineto
closepath stroke
0 0 0 nodecolor
10 /Helvetica set_font
175 175.5 moveto 72 (MFaceBoxProp) alignedtext
grestore
% Node12->Node10
gsave
1 setlinewidth
dashed
0.77647 0.75294 0.80392 edgecolor
newpath 217.4979 158.7918 moveto
224.3185 142.2959 236.6296 118.5589 255 105 curveto
272.724 91.9183 296.1497 85.1481 316.4709 81.6557 curveto
stroke
0.77647 0.75294 0.80392 edgecolor
newpath 214.1231 157.8166 moveto
213.8002 168.4066 lineto
220.6566 160.3294 lineto
closepath fill
1 setlinewidth
solid
0.77647 0.75294 0.80392 edgecolor
newpath 214.1231 157.8166 moveto
213.8002 168.4066 lineto
220.6566 160.3294 lineto
closepath stroke
0 0 0 edgecolor
10 /Helvetica set_font
255 124.5 moveto 22 ( box) alignedtext
grestore
% Node13->Node2
gsave
1 setlinewidth
dashed
0.77647 0.75294 0.80392 edgecolor
newpath 752.1904 90.9713 moveto
758.9334 94.5829 765.2064 99.1739 770 105 curveto
785.2517 123.5365 786.1921 153.6776 785.6155 168.3822 curveto
stroke
0.77647 0.75294 0.80392 edgecolor
newpath 753.3446 87.649 moveto
742.7989 86.6293 lineto
750.407 94.0028 lineto
closepath fill
1 setlinewidth
solid
0.77647 0.75294 0.80392 edgecolor
newpath 753.3446 87.649 moveto
742.7989 86.6293 lineto
750.407 94.0028 lineto
closepath stroke
0 0 0 edgecolor
10 /Helvetica set_font
786 124.5 moveto 32 ( driver) alignedtext
grestore
% Node14
gsave
[ /Rect [ 910.5 168 973.5 188 ]
  /Border [ 0 0 0 ]
  /Action << /Subtype /URI /URI ($structMFLTFont.html) >>
  /Subtype /Link
/ANN pdfmark
0 0 1 nodecolor
newpath 910.5 168.5 moveto
910.5 187.5 lineto
973.5 187.5 lineto
973.5 168.5 lineto
closepath fill
1 setlinewidth
filled
0 0 0 nodecolor
newpath 910.5 168.5 moveto
910.5 187.5 lineto
973.5 187.5 lineto
973.5 168.5 lineto
closepath stroke
0 0 0 nodecolor
10 /Helvetica set_font
918.5 175.5 moveto 47 (MFLTFont) alignedtext
grestore
% Node14->Node1
gsave
1 setlinewidth
dashed
0.77647 0.75294 0.80392 edgecolor
newpath 942 158.0287 moveto
942 136.5427 942 102.4668 942 86.6245 curveto
stroke
0.77647 0.75294 0.80392 edgecolor
newpath 938.5001 158.2144 moveto
942 168.2144 lineto
945.5001 158.2144 lineto
closepath fill
1 setlinewidth
solid
0.77647 0.75294 0.80392 edgecolor
newpath 938.5001 158.2144 moveto
942 168.2144 lineto
945.5001 158.2144 lineto
closepath stroke
0 0 0 edgecolor
10 /Helvetica set_font
942 124.5 moveto 23 ( font) alignedtext
grestore
endpage
showpage
grestore
%%PageTrailer
%%EndPage: 1
%%Trailer
%%Pages: 1
%%BoundingBox: 36 36 1096 445
end
restore
%%EOF
