%!PS-Adobe-3.0
%%Creator: graphviz version 2.43.0 (0)
%%Title: MInputContext
%%Pages: (atend)
%%BoundingBox: (atend)
%%EndComments
save
%%BeginProlog
/DotDict 200 dict def
DotDict begin

/setupLatin1 {
mark
/EncodingVector 256 array def
 EncodingVector 0

ISOLatin1Encoding 0 255 getinterval putinterval
EncodingVector 45 /hyphen put

% Set up ISO Latin 1 character encoding
/starnetISO {
        dup dup findfont dup length dict begin
        { 1 index /FID ne { def }{ pop pop } ifelse
        } forall
        /Encoding EncodingVector def
        currentdict end definefont
} def
/Times-Roman starnetISO def
/Times-Italic starnetISO def
/Times-Bold starnetISO def
/Times-BoldItalic starnetISO def
/Helvetica starnetISO def
/Helvetica-Oblique starnetISO def
/Helvetica-Bold starnetISO def
/Helvetica-BoldOblique starnetISO def
/Courier starnetISO def
/Courier-Oblique starnetISO def
/Courier-Bold starnetISO def
/Courier-BoldOblique starnetISO def
cleartomark
} bind def

%%BeginResource: procset graphviz 0 0
/coord-font-family /Times-Roman def
/default-font-family /Times-Roman def
/coordfont coord-font-family findfont 8 scalefont def

/InvScaleFactor 1.0 def
/set_scale {
       dup 1 exch div /InvScaleFactor exch def
       scale
} bind def

% styles
/solid { [] 0 setdash } bind def
/dashed { [9 InvScaleFactor mul dup ] 0 setdash } bind def
/dotted { [1 InvScaleFactor mul 6 InvScaleFactor mul] 0 setdash } bind def
/invis {/fill {newpath} def /stroke {newpath} def /show {pop newpath} def} bind def
/bold { 2 setlinewidth } bind def
/filled { } bind def
/unfilled { } bind def
/rounded { } bind def
/diagonals { } bind def
/tapered { } bind def

% hooks for setting color 
/nodecolor { sethsbcolor } bind def
/edgecolor { sethsbcolor } bind def
/graphcolor { sethsbcolor } bind def
/nopcolor {pop pop pop} bind def

/beginpage {	% i j npages
	/npages exch def
	/j exch def
	/i exch def
	/str 10 string def
	npages 1 gt {
		gsave
			coordfont setfont
			0 0 moveto
			(\() show i str cvs show (,) show j str cvs show (\)) show
		grestore
	} if
} bind def

/set_font {
	findfont exch
	scalefont setfont
} def

% draw text fitted to its expected width
/alignedtext {			% width text
	/text exch def
	/width exch def
	gsave
		width 0 gt {
			[] 0 setdash
			text stringwidth pop width exch sub text length div 0 text ashow
		} if
	grestore
} def

/boxprim {				% xcorner ycorner xsize ysize
		4 2 roll
		moveto
		2 copy
		exch 0 rlineto
		0 exch rlineto
		pop neg 0 rlineto
		closepath
} bind def

/ellipse_path {
	/ry exch def
	/rx exch def
	/y exch def
	/x exch def
	matrix currentmatrix
	newpath
	x y translate
	rx ry scale
	0 0 1 0 360 arc
	setmatrix
} bind def

/endpage { showpage } bind def
/showpage { } def

/layercolorseq
	[	% layer color sequence - darkest to lightest
		[0 0 0]
		[.2 .8 .8]
		[.4 .8 .8]
		[.6 .8 .8]
		[.8 .8 .8]
	]
def

/layerlen layercolorseq length def

/setlayer {/maxlayer exch def /curlayer exch def
	layercolorseq curlayer 1 sub layerlen mod get
	aload pop sethsbcolor
	/nodecolor {nopcolor} def
	/edgecolor {nopcolor} def
	/graphcolor {nopcolor} def
} bind def

/onlayer { curlayer ne {invis} if } def

/onlayers {
	/myupper exch def
	/mylower exch def
	curlayer mylower lt
	curlayer myupper gt
	or
	{invis} if
} def

/curlayer 0 def

%%EndResource
%%EndProlog
%%BeginSetup
14 default-font-family set_font
% /arrowlength 10 def
% /arrowwidth 5 def

% make sure pdfmark is harmless for PS-interpreters other than Distiller
/pdfmark where {pop} {userdict /pdfmark /cleartomark load put} ifelse
% make '<<' and '>>' safe on PS Level 1 devices
/languagelevel where {pop languagelevel}{1} ifelse
2 lt {
    userdict (<<) cvn ([) cvn load put
    userdict (>>) cvn ([) cvn load put
} if

%%EndSetup
setupLatin1
%%Page: 1 1
%%PageBoundingBox: 36 36 246 441
%%PageOrientation: Portrait
0 0 1 beginpage
gsave
36 36 210 405 boxprim clip newpath
1 1 set_scale 0 rotate 40 40 translate
% Node1
gsave
0 0 0.74902 nodecolor
newpath 39.3937 .5 moveto
39.3937 19.5 lineto
128.3937 19.5 lineto
128.3937 .5 lineto
closepath fill
1 setlinewidth
filled
0 0 0 nodecolor
newpath 39.3937 .5 moveto
39.3937 19.5 lineto
128.3937 19.5 lineto
128.3937 .5 lineto
closepath stroke
0 0 0 nodecolor
10 /Helvetica set_font
47.3937 7.5 moveto 73 (MInputContext) alignedtext
grestore
% Node2
gsave
[ /Rect [ 37.3937 243 84.3937 263 ]
  /Border [ 0 0 0 ]
  /Action << /Subtype /URI /URI ($structMPlist.html) >>
  /Subtype /Link
/ANN pdfmark
0 0 1 nodecolor
newpath 37.3937 243.5 moveto
37.3937 262.5 lineto
84.3937 262.5 lineto
84.3937 243.5 lineto
closepath fill
1 setlinewidth
filled
0 0 0 nodecolor
newpath 37.3937 243.5 moveto
37.3937 262.5 lineto
84.3937 262.5 lineto
84.3937 243.5 lineto
closepath stroke
0 0 0 nodecolor
10 /Helvetica set_font
45.3937 250.5 moveto 31 (MPlist) alignedtext
grestore
% Node2->Node1
gsave
1 setlinewidth
dashed
0.77647 0.75294 0.80392 edgecolor
newpath 46.3334 235.1225 moveto
24.7985 208.0373 -11.4317 153.0283 3.8937 105 curveto
16.0104 67.0274 52.7515 34.6118 71.9383 19.7236 curveto
stroke
0.77647 0.75294 0.80392 edgecolor
newpath 43.9174 237.6945 moveto
52.9774 243.187 lineto
49.3201 233.2434 lineto
closepath fill
1 setlinewidth
solid
0.77647 0.75294 0.80392 edgecolor
newpath 43.9174 237.6945 moveto
52.9774 243.187 lineto
49.3201 233.2434 lineto
closepath stroke
0 0 0 edgecolor
10 /Helvetica set_font
3.8937 130 moveto 72 ( candidate_list) alignedtext
0 0 0 edgecolor
10 /Helvetica set_font
28.8937 119 moveto 22 (plist) alignedtext
grestore
% Node2->Node2
gsave
1 setlinewidth
dashed
0.77647 0.75294 0.80392 edgecolor
newpath 94.9085 258.294 moveto
99.4083 257.3926 102.3937 255.6279 102.3937 253 curveto
102.3937 248.6875 94.3541 246.6997 84.7756 247.0366 curveto
stroke
0.77647 0.75294 0.80392 edgecolor
newpath 94.5232 254.8118 moveto
84.7756 258.9634 lineto
94.9846 261.7965 lineto
closepath fill
1 setlinewidth
solid
0.77647 0.75294 0.80392 edgecolor
newpath 94.5232 254.8118 moveto
84.7756 258.9634 lineto
94.9846 261.7965 lineto
closepath stroke
0 0 0 edgecolor
10 /Helvetica set_font
102.3937 250.5 moveto 25 ( next) alignedtext
grestore
% Node7
gsave
[ /Rect [ 37.8937 167 117.8937 187 ]
  /Border [ 0 0 0 ]
  /Action << /Subtype /URI /URI ($structMInputDriver.html) >>
  /Subtype /Link
/ANN pdfmark
0 0 1 nodecolor
newpath 37.8937 167.5 moveto
37.8937 186.5 lineto
117.8937 186.5 lineto
117.8937 167.5 lineto
closepath fill
1 setlinewidth
filled
0 0 0 nodecolor
newpath 37.8937 167.5 moveto
37.8937 186.5 lineto
117.8937 186.5 lineto
117.8937 167.5 lineto
closepath stroke
0 0 0 nodecolor
10 /Helvetica set_font
45.8937 174.5 moveto 64 (MInputDriver) alignedtext
grestore
% Node2->Node7
gsave
1 setlinewidth
dashed
0.77647 0.75294 0.80392 edgecolor
newpath 57.8764 233.4977 moveto
57.0978 224.691 57.1332 214.1173 59.8937 205 curveto
61.9181 198.314 66.2045 191.7703 70.0866 186.7998 curveto
stroke
0.77647 0.75294 0.80392 edgecolor
newpath 54.4109 233.9916 moveto
59.1541 243.4654 lineto
61.3541 233.1015 lineto
closepath fill
1 setlinewidth
solid
0.77647 0.75294 0.80392 edgecolor
newpath 54.4109 233.9916 moveto
59.1541 243.4654 lineto
61.3541 233.1015 lineto
closepath stroke
0 0 0 edgecolor
10 /Helvetica set_font
59.8937 212.5 moveto 64 ( callback_list) alignedtext
grestore
% Node3
gsave
[ /Rect [ 70.3937 310 147.3937 330 ]
  /Border [ 0 0 0 ]
  /Action << /Subtype /URI /URI ($structM17NObject.html) >>
  /Subtype /Link
/ANN pdfmark
0 0 1 nodecolor
newpath 70.3937 310.5 moveto
70.3937 329.5 lineto
147.3937 329.5 lineto
147.3937 310.5 lineto
closepath fill
1 setlinewidth
filled
0 0 0 nodecolor
newpath 70.3937 310.5 moveto
70.3937 329.5 lineto
147.3937 329.5 lineto
147.3937 310.5 lineto
closepath stroke
0 0 0 nodecolor
10 /Helvetica set_font
78.3937 317.5 moveto 61 (M17NObject) alignedtext
grestore
% Node3->Node2
gsave
1 setlinewidth
dashed
0.77647 0.75294 0.80392 edgecolor
newpath 96.2688 301.9037 moveto
86.9414 289.2729 74.6321 272.6041 67.2646 262.6273 curveto
stroke
0.77647 0.75294 0.80392 edgecolor
newpath 93.6642 304.2686 moveto
102.4202 310.2338 lineto
99.2953 300.1103 lineto
closepath fill
1 setlinewidth
solid
0.77647 0.75294 0.80392 edgecolor
newpath 93.6642 304.2686 moveto
102.4202 310.2338 lineto
99.2953 300.1103 lineto
closepath stroke
0 0 0 edgecolor
10 /Helvetica set_font
87.8937 284 moveto 37 ( control) alignedtext
grestore
% Node5
gsave
[ /Rect [ 132.8937 205 178.8937 225 ]
  /Border [ 0 0 0 ]
  /Action << /Subtype /URI /URI ($structMText.html) >>
  /Subtype /Link
/ANN pdfmark
0 0 1 nodecolor
newpath 132.8937 205.5 moveto
132.8937 224.5 lineto
178.8937 224.5 lineto
178.8937 205.5 lineto
closepath fill
1 setlinewidth
filled
0 0 0 nodecolor
newpath 132.8937 205.5 moveto
132.8937 224.5 lineto
178.8937 224.5 lineto
178.8937 205.5 lineto
closepath stroke
0 0 0 nodecolor
10 /Helvetica set_font
140.8937 212.5 moveto 30 (MText) alignedtext
grestore
% Node3->Node5
gsave
1 setlinewidth
dashed
0.77647 0.75294 0.80392 edgecolor
newpath 122.3927 302.3674 moveto
124.7435 299.0471 127.0288 295.501 128.8937 292 curveto
141.1383 269.0135 149.8431 239.3094 153.688 224.7836 curveto
stroke
0.77647 0.75294 0.80392 edgecolor
newpath 119.5209 300.3618 moveto
116.2609 310.4426 lineto
125.0958 304.595 lineto
closepath fill
1 setlinewidth
solid
0.77647 0.75294 0.80392 edgecolor
newpath 119.5209 300.3618 moveto
116.2609 310.4426 lineto
125.0958 304.595 lineto
closepath stroke
0 0 0 edgecolor
10 /Helvetica set_font
133.8937 284 moveto 37 ( control) alignedtext
grestore
% Node4
gsave
[ /Rect [ 53.8937 377 163.8937 397 ]
  /Border [ 0 0 0 ]
  /Action << /Subtype /URI /URI ($structM17NObjectRecord.html) >>
  /Subtype /Link
/ANN pdfmark
0 0 1 nodecolor
newpath 53.8937 377.5 moveto
53.8937 396.5 lineto
163.8937 396.5 lineto
163.8937 377.5 lineto
closepath fill
1 setlinewidth
filled
0 0 0 nodecolor
newpath 53.8937 377.5 moveto
53.8937 396.5 lineto
163.8937 396.5 lineto
163.8937 377.5 lineto
closepath stroke
0 0 0 nodecolor
10 /Helvetica set_font
61.8937 384.5 moveto 94 (M17NObjectRecord) alignedtext
grestore
% Node4->Node3
gsave
1 setlinewidth
dashed
0.77647 0.75294 0.80392 edgecolor
newpath 108.8937 367.037 moveto
108.8937 354.6703 108.8937 339.1198 108.8937 329.6273 curveto
stroke
0.77647 0.75294 0.80392 edgecolor
newpath 105.3938 367.2338 moveto
108.8937 377.2338 lineto
112.3938 367.2338 lineto
closepath fill
1 setlinewidth
solid
0.77647 0.75294 0.80392 edgecolor
newpath 105.3938 367.2338 moveto
108.8937 377.2338 lineto
112.3938 367.2338 lineto
closepath stroke
0 0 0 edgecolor
10 /Helvetica set_font
108.8937 351 moveto 34 ( record) alignedtext
grestore
% Node5->Node1
gsave
1 setlinewidth
dashed
0.77647 0.75294 0.80392 edgecolor
newpath 156.8713 194.8427 moveto
157.5883 165.7554 155.929 109.3595 135.8937 67 curveto
126.477 47.0909 107.4081 29.455 95.1641 19.5155 curveto
stroke
0.77647 0.75294 0.80392 edgecolor
newpath 153.3601 195.0776 moveto
156.4815 205.2022 lineto
160.3551 195.3409 lineto
closepath fill
1 setlinewidth
solid
0.77647 0.75294 0.80392 edgecolor
newpath 153.3601 195.0776 moveto
156.4815 205.2022 lineto
160.3551 195.3409 lineto
closepath stroke
0 0 0 edgecolor
10 /Helvetica set_font
170.3937 141 moveto 17 ( mt) alignedtext
0 0 0 edgecolor
10 /Helvetica set_font
161.3937 130 moveto 35 (preedit) alignedtext
0 0 0 edgecolor
10 /Helvetica set_font
155.8937 119 moveto 46 (produced) alignedtext
0 0 0 edgecolor
10 /Helvetica set_font
163.3937 108 moveto 31 (status) alignedtext
grestore
% Node6
gsave
[ /Rect [ 40.3937 67 127.3937 87 ]
  /Border [ 0 0 0 ]
  /Action << /Subtype /URI /URI ($structMInputMethod.html) >>
  /Subtype /Link
/ANN pdfmark
0 0 1 nodecolor
newpath 40.3937 67.5 moveto
40.3937 86.5 lineto
127.3937 86.5 lineto
127.3937 67.5 lineto
closepath fill
1 setlinewidth
filled
0 0 0 nodecolor
newpath 40.3937 67.5 moveto
40.3937 86.5 lineto
127.3937 86.5 lineto
127.3937 67.5 lineto
closepath stroke
0 0 0 nodecolor
10 /Helvetica set_font
48.3937 74.5 moveto 71 (MInputMethod) alignedtext
grestore
% Node6->Node1
gsave
1 setlinewidth
dashed
0.77647 0.75294 0.80392 edgecolor
newpath 83.8937 57.037 moveto
83.8937 44.6703 83.8937 29.1198 83.8937 19.6273 curveto
stroke
0.77647 0.75294 0.80392 edgecolor
newpath 80.3938 57.2338 moveto
83.8937 67.2338 lineto
87.3938 57.2338 lineto
closepath fill
1 setlinewidth
solid
0.77647 0.75294 0.80392 edgecolor
newpath 80.3938 57.2338 moveto
83.8937 67.2338 lineto
87.3938 57.2338 lineto
closepath stroke
0 0 0 edgecolor
10 /Helvetica set_font
83.8937 41 moveto 16 ( im) alignedtext
grestore
% Node7->Node6
gsave
1 setlinewidth
dashed
0.77647 0.75294 0.80392 edgecolor
newpath 79.0435 157.2203 moveto
80.3457 135.9514 82.4109 102.2197 83.371 86.5374 curveto
stroke
0.77647 0.75294 0.80392 edgecolor
newpath 75.5439 157.1079 moveto
78.4262 167.3032 lineto
82.5308 157.5358 lineto
closepath fill
1 setlinewidth
solid
0.77647 0.75294 0.80392 edgecolor
newpath 75.5439 157.1079 moveto
78.4262 167.3032 lineto
82.5308 157.5358 lineto
closepath stroke
0 0 0 edgecolor
10 /Helvetica set_font
82.8937 124.5 moveto 32 ( driver) alignedtext
grestore
endpage
showpage
grestore
%%PageTrailer
%%EndPage: 1
%%Trailer
%%Pages: 1
%%BoundingBox: 36 36 246 441
end
restore
%%EOF
