%!PS-Adobe-3.0
%%Creator: graphviz version 2.43.0 (0)
%%Title: MInputContextInfo
%%Pages: (atend)
%%BoundingBox: (atend)
%%EndComments
save
%%BeginProlog
/DotDict 200 dict def
DotDict begin

/setupLatin1 {
mark
/EncodingVector 256 array def
 EncodingVector 0

ISOLatin1Encoding 0 255 getinterval putinterval
EncodingVector 45 /hyphen put

% Set up ISO Latin 1 character encoding
/starnetISO {
        dup dup findfont dup length dict begin
        { 1 index /FID ne { def }{ pop pop } ifelse
        } forall
        /Encoding EncodingVector def
        currentdict end definefont
} def
/Times-Roman starnetISO def
/Times-Italic starnetISO def
/Times-Bold starnetISO def
/Times-BoldItalic starnetISO def
/Helvetica starnetISO def
/Helvetica-Oblique starnetISO def
/Helvetica-Bold starnetISO def
/Helvetica-BoldOblique starnetISO def
/Courier starnetISO def
/Courier-Oblique starnetISO def
/Courier-Bold starnetISO def
/Courier-BoldOblique starnetISO def
cleartomark
} bind def

%%BeginResource: procset graphviz 0 0
/coord-font-family /Times-Roman def
/default-font-family /Times-Roman def
/coordfont coord-font-family findfont 8 scalefont def

/InvScaleFactor 1.0 def
/set_scale {
       dup 1 exch div /InvScaleFactor exch def
       scale
} bind def

% styles
/solid { [] 0 setdash } bind def
/dashed { [9 InvScaleFactor mul dup ] 0 setdash } bind def
/dotted { [1 InvScaleFactor mul 6 InvScaleFactor mul] 0 setdash } bind def
/invis {/fill {newpath} def /stroke {newpath} def /show {pop newpath} def} bind def
/bold { 2 setlinewidth } bind def
/filled { } bind def
/unfilled { } bind def
/rounded { } bind def
/diagonals { } bind def
/tapered { } bind def

% hooks for setting color 
/nodecolor { sethsbcolor } bind def
/edgecolor { sethsbcolor } bind def
/graphcolor { sethsbcolor } bind def
/nopcolor {pop pop pop} bind def

/beginpage {	% i j npages
	/npages exch def
	/j exch def
	/i exch def
	/str 10 string def
	npages 1 gt {
		gsave
			coordfont setfont
			0 0 moveto
			(\() show i str cvs show (,) show j str cvs show (\)) show
		grestore
	} if
} bind def

/set_font {
	findfont exch
	scalefont setfont
} def

% draw text fitted to its expected width
/alignedtext {			% width text
	/text exch def
	/width exch def
	gsave
		width 0 gt {
			[] 0 setdash
			text stringwidth pop width exch sub text length div 0 text ashow
		} if
	grestore
} def

/boxprim {				% xcorner ycorner xsize ysize
		4 2 roll
		moveto
		2 copy
		exch 0 rlineto
		0 exch rlineto
		pop neg 0 rlineto
		closepath
} bind def

/ellipse_path {
	/ry exch def
	/rx exch def
	/y exch def
	/x exch def
	matrix currentmatrix
	newpath
	x y translate
	rx ry scale
	0 0 1 0 360 arc
	setmatrix
} bind def

/endpage { showpage } bind def
/showpage { } def

/layercolorseq
	[	% layer color sequence - darkest to lightest
		[0 0 0]
		[.2 .8 .8]
		[.4 .8 .8]
		[.6 .8 .8]
		[.8 .8 .8]
	]
def

/layerlen layercolorseq length def

/setlayer {/maxlayer exch def /curlayer exch def
	layercolorseq curlayer 1 sub layerlen mod get
	aload pop sethsbcolor
	/nodecolor {nopcolor} def
	/edgecolor {nopcolor} def
	/graphcolor {nopcolor} def
} bind def

/onlayer { curlayer ne {invis} if } def

/onlayers {
	/myupper exch def
	/mylower exch def
	curlayer mylower lt
	curlayer myupper gt
	or
	{invis} if
} def

/curlayer 0 def

%%EndResource
%%EndProlog
%%BeginSetup
14 default-font-family set_font
% /arrowlength 10 def
% /arrowwidth 5 def

% make sure pdfmark is harmless for PS-interpreters other than Distiller
/pdfmark where {pop} {userdict /pdfmark /cleartomark load put} ifelse
% make '<<' and '>>' safe on PS Level 1 devices
/languagelevel where {pop languagelevel}{1} ifelse
2 lt {
    userdict (<<) cvn ([) cvn load put
    userdict (>>) cvn ([) cvn load put
} if

%%EndSetup
setupLatin1
%%Page: 1 1
%%PageBoundingBox: 36 36 255 320
%%PageOrientation: Portrait
0 0 1 beginpage
gsave
36 36 219 284 boxprim clip newpath
1 1 set_scale 0 rotate 40 40 translate
% Node1
gsave
0 0 0.74902 nodecolor
newpath 24 .5 moveto
24 19.5 lineto
131 19.5 lineto
131 .5 lineto
closepath fill
1 setlinewidth
filled
0 0 0 nodecolor
newpath 24 .5 moveto
24 19.5 lineto
131 19.5 lineto
131 .5 lineto
closepath stroke
0 0 0 nodecolor
10 /Helvetica set_font
32 7.5 moveto 91 (MInputContextInfo) alignedtext
grestore
% Node2
gsave
[ /Rect [ 0 122 47 142 ]
  /Border [ 0 0 0 ]
  /Action << /Subtype /URI /URI ($structMPlist.html) >>
  /Subtype /Link
/ANN pdfmark
0 0 1 nodecolor
newpath 0 122.5 moveto
0 141.5 lineto
47 141.5 lineto
47 122.5 lineto
closepath fill
1 setlinewidth
filled
0 0 0 nodecolor
newpath 0 122.5 moveto
0 141.5 lineto
47 141.5 lineto
47 122.5 lineto
closepath stroke
0 0 0 nodecolor
10 /Helvetica set_font
8 129.5 moveto 31 (MPlist) alignedtext
grestore
% Node2->Node1
gsave
1 setlinewidth
dashed
0.77647 0.75294 0.80392 edgecolor
newpath 15.468 112.9849 moveto
7.8755 92.965 -.3358 60.4991 14.5 38 curveto
20.1336 29.4565 29.0919 23.6061 38.5053 19.6035 curveto
stroke
0.77647 0.75294 0.80392 edgecolor
newpath 12.3191 114.5299 moveto
19.3643 122.4428 lineto
18.7914 111.8635 lineto
closepath fill
1 setlinewidth
solid
0.77647 0.75294 0.80392 edgecolor
newpath 12.3191 114.5299 moveto
19.3643 122.4428 lineto
18.7914 111.8635 lineto
closepath stroke
0 0 0 edgecolor
10 /Helvetica set_font
43.5 96 moveto 48 ( fallbacks) alignedtext
0 0 0 edgecolor
10 /Helvetica set_font
47.5 85 moveto 40 (markers) alignedtext
0 0 0 edgecolor
10 /Helvetica set_font
14.5 74 moveto 106 (pushing_or_switching) alignedtext
0 0 0 edgecolor
10 /Helvetica set_font
40 63 moveto 55 (state_hook) alignedtext
0 0 0 edgecolor
10 /Helvetica set_font
56.5 52 moveto 22 (vars) alignedtext
0 0 0 edgecolor
10 /Helvetica set_font
39.5 41 moveto 56 (vars_saved) alignedtext
grestore
% Node2->Node2
gsave
1 setlinewidth
dashed
0.77647 0.75294 0.80392 edgecolor
newpath 57.5148 137.294 moveto
62.0146 136.3926 65 134.6279 65 132 curveto
65 127.6875 56.9604 125.6997 47.3819 126.0366 curveto
stroke
0.77647 0.75294 0.80392 edgecolor
newpath 57.1295 133.8118 moveto
47.3819 137.9634 lineto
57.5909 140.7965 lineto
closepath fill
1 setlinewidth
solid
0.77647 0.75294 0.80392 edgecolor
newpath 57.1295 133.8118 moveto
47.3819 137.9634 lineto
57.5909 140.7965 lineto
closepath stroke
0 0 0 edgecolor
10 /Helvetica set_font
65 129.5 moveto 25 ( next) alignedtext
grestore
% Node3
gsave
[ /Rect [ 39 189 116 209 ]
  /Border [ 0 0 0 ]
  /Action << /Subtype /URI /URI ($structM17NObject.html) >>
  /Subtype /Link
/ANN pdfmark
0 0 1 nodecolor
newpath 39 189.5 moveto
39 208.5 lineto
116 208.5 lineto
116 189.5 lineto
closepath fill
1 setlinewidth
filled
0 0 0 nodecolor
newpath 39 189.5 moveto
39 208.5 lineto
116 208.5 lineto
116 189.5 lineto
closepath stroke
0 0 0 nodecolor
10 /Helvetica set_font
47 196.5 moveto 61 (M17NObject) alignedtext
grestore
% Node3->Node2
gsave
1 setlinewidth
dashed
0.77647 0.75294 0.80392 edgecolor
newpath 63.6016 181.2705 moveto
53.0731 168.5972 39.0362 151.701 30.6673 141.6273 curveto
stroke
0.77647 0.75294 0.80392 edgecolor
newpath 61.1349 183.7785 moveto
70.2173 189.2338 lineto
66.5193 179.3053 lineto
closepath fill
1 setlinewidth
solid
0.77647 0.75294 0.80392 edgecolor
newpath 61.1349 183.7785 moveto
70.2173 189.2338 lineto
66.5193 179.3053 lineto
closepath stroke
0 0 0 edgecolor
10 /Helvetica set_font
54.5 163 moveto 37 ( control) alignedtext
grestore
% Node5
gsave
[ /Rect [ 113.5 122 159.5 142 ]
  /Border [ 0 0 0 ]
  /Action << /Subtype /URI /URI ($structMText.html) >>
  /Subtype /Link
/ANN pdfmark
0 0 1 nodecolor
newpath 113.5 122.5 moveto
113.5 141.5 lineto
159.5 141.5 lineto
159.5 122.5 lineto
closepath fill
1 setlinewidth
filled
0 0 0 nodecolor
newpath 113.5 122.5 moveto
113.5 141.5 lineto
159.5 141.5 lineto
159.5 122.5 lineto
closepath stroke
0 0 0 nodecolor
10 /Helvetica set_font
121.5 129.5 moveto 30 (MText) alignedtext
grestore
% Node3->Node5
gsave
1 setlinewidth
dashed
0.77647 0.75294 0.80392 edgecolor
newpath 92.3545 181.6348 moveto
103.8932 168.9228 119.4374 151.7978 128.6691 141.6273 curveto
stroke
0.77647 0.75294 0.80392 edgecolor
newpath 89.5865 179.4769 moveto
85.457 189.2338 lineto
94.7697 184.1816 lineto
closepath fill
1 setlinewidth
solid
0.77647 0.75294 0.80392 edgecolor
newpath 89.5865 179.4769 moveto
85.457 189.2338 lineto
94.7697 184.1816 lineto
closepath stroke
0 0 0 edgecolor
10 /Helvetica set_font
111.5 163 moveto 37 ( control) alignedtext
grestore
% Node4
gsave
[ /Rect [ 22.5 256 132.5 276 ]
  /Border [ 0 0 0 ]
  /Action << /Subtype /URI /URI ($structM17NObjectRecord.html) >>
  /Subtype /Link
/ANN pdfmark
0 0 1 nodecolor
newpath 22.5 256.5 moveto
22.5 275.5 lineto
132.5 275.5 lineto
132.5 256.5 lineto
closepath fill
1 setlinewidth
filled
0 0 0 nodecolor
newpath 22.5 256.5 moveto
22.5 275.5 lineto
132.5 275.5 lineto
132.5 256.5 lineto
closepath stroke
0 0 0 nodecolor
10 /Helvetica set_font
30.5 263.5 moveto 94 (M17NObjectRecord) alignedtext
grestore
% Node4->Node3
gsave
1 setlinewidth
dashed
0.77647 0.75294 0.80392 edgecolor
newpath 77.5 246.037 moveto
77.5 233.6703 77.5 218.1198 77.5 208.6273 curveto
stroke
0.77647 0.75294 0.80392 edgecolor
newpath 74.0001 246.2338 moveto
77.5 256.2338 lineto
81.0001 246.2338 lineto
closepath fill
1 setlinewidth
solid
0.77647 0.75294 0.80392 edgecolor
newpath 74.0001 246.2338 moveto
77.5 256.2338 lineto
81.0001 246.2338 lineto
closepath stroke
0 0 0 edgecolor
10 /Helvetica set_font
77.5 230 moveto 34 ( record) alignedtext
grestore
% Node5->Node1
gsave
1 setlinewidth
dashed
0.77647 0.75294 0.80392 edgecolor
newpath 137.5805 112.1914 moveto
137.81 92.1506 135.4396 60.301 120.5 38 curveto
115.2015 30.0906 106.7205 24.0494 98.6853 19.7077 curveto
stroke
0.77647 0.75294 0.80392 edgecolor
newpath 134.073 112.3486 moveto
137.2204 122.4651 lineto
141.0687 112.5939 lineto
closepath fill
1 setlinewidth
solid
0.77647 0.75294 0.80392 edgecolor
newpath 134.073 112.3486 moveto
137.2204 122.4651 lineto
141.0687 112.5939 lineto
closepath stroke
0 0 0 edgecolor
10 /Helvetica set_font
137.5 79.5 moveto 73 ( following_text) alignedtext
0 0 0 edgecolor
10 /Helvetica set_font
137.5 68.5 moveto 73 (preceding_text) alignedtext
0 0 0 edgecolor
10 /Helvetica set_font
139 57.5 moveto 70 (preedit_saved) alignedtext
grestore
endpage
showpage
grestore
%%PageTrailer
%%EndPage: 1
%%Trailer
%%Pages: 1
%%BoundingBox: 36 36 255 320
end
restore
%%EOF
