%!PS-Adobe-3.0
%%Creator: graphviz version 2.43.0 (0)
%%Title: MFrame
%%Pages: (atend)
%%BoundingBox: (atend)
%%EndComments
save
%%BeginProlog
/DotDict 200 dict def
DotDict begin

/setupLatin1 {
mark
/EncodingVector 256 array def
 EncodingVector 0

ISOLatin1Encoding 0 255 getinterval putinterval
EncodingVector 45 /hyphen put

% Set up ISO Latin 1 character encoding
/starnetISO {
        dup dup findfont dup length dict begin
        { 1 index /FID ne { def }{ pop pop } ifelse
        } forall
        /Encoding EncodingVector def
        currentdict end definefont
} def
/Times-Roman starnetISO def
/Times-Italic starnetISO def
/Times-Bold starnetISO def
/Times-BoldItalic starnetISO def
/Helvetica starnetISO def
/Helvetica-Oblique starnetISO def
/Helvetica-Bold starnetISO def
/Helvetica-BoldOblique starnetISO def
/Courier starnetISO def
/Courier-Oblique starnetISO def
/Courier-Bold starnetISO def
/Courier-BoldOblique starnetISO def
cleartomark
} bind def

%%BeginResource: procset graphviz 0 0
/coord-font-family /Times-Roman def
/default-font-family /Times-Roman def
/coordfont coord-font-family findfont 8 scalefont def

/InvScaleFactor 1.0 def
/set_scale {
       dup 1 exch div /InvScaleFactor exch def
       scale
} bind def

% styles
/solid { [] 0 setdash } bind def
/dashed { [9 InvScaleFactor mul dup ] 0 setdash } bind def
/dotted { [1 InvScaleFactor mul 6 InvScaleFactor mul] 0 setdash } bind def
/invis {/fill {newpath} def /stroke {newpath} def /show {pop newpath} def} bind def
/bold { 2 setlinewidth } bind def
/filled { } bind def
/unfilled { } bind def
/rounded { } bind def
/diagonals { } bind def
/tapered { } bind def

% hooks for setting color 
/nodecolor { sethsbcolor } bind def
/edgecolor { sethsbcolor } bind def
/graphcolor { sethsbcolor } bind def
/nopcolor {pop pop pop} bind def

/beginpage {	% i j npages
	/npages exch def
	/j exch def
	/i exch def
	/str 10 string def
	npages 1 gt {
		gsave
			coordfont setfont
			0 0 moveto
			(\() show i str cvs show (,) show j str cvs show (\)) show
		grestore
	} if
} bind def

/set_font {
	findfont exch
	scalefont setfont
} def

% draw text fitted to its expected width
/alignedtext {			% width text
	/text exch def
	/width exch def
	gsave
		width 0 gt {
			[] 0 setdash
			text stringwidth pop width exch sub text length div 0 text ashow
		} if
	grestore
} def

/boxprim {				% xcorner ycorner xsize ysize
		4 2 roll
		moveto
		2 copy
		exch 0 rlineto
		0 exch rlineto
		pop neg 0 rlineto
		closepath
} bind def

/ellipse_path {
	/ry exch def
	/rx exch def
	/y exch def
	/x exch def
	matrix currentmatrix
	newpath
	x y translate
	rx ry scale
	0 0 1 0 360 arc
	setmatrix
} bind def

/endpage { showpage } bind def
/showpage { } def

/layercolorseq
	[	% layer color sequence - darkest to lightest
		[0 0 0]
		[.2 .8 .8]
		[.4 .8 .8]
		[.6 .8 .8]
		[.8 .8 .8]
	]
def

/layerlen layercolorseq length def

/setlayer {/maxlayer exch def /curlayer exch def
	layercolorseq curlayer 1 sub layerlen mod get
	aload pop sethsbcolor
	/nodecolor {nopcolor} def
	/edgecolor {nopcolor} def
	/graphcolor {nopcolor} def
} bind def

/onlayer { curlayer ne {invis} if } def

/onlayers {
	/myupper exch def
	/mylower exch def
	curlayer mylower lt
	curlayer myupper gt
	or
	{invis} if
} def

/curlayer 0 def

%%EndResource
%%EndProlog
%%BeginSetup
14 default-font-family set_font
% /arrowlength 10 def
% /arrowwidth 5 def

% make sure pdfmark is harmless for PS-interpreters other than Distiller
/pdfmark where {pop} {userdict /pdfmark /cleartomark load put} ifelse
% make '<<' and '>>' safe on PS Level 1 devices
/languagelevel where {pop languagelevel}{1} ifelse
2 lt {
    userdict (<<) cvn ([) cvn load put
    userdict (>>) cvn ([) cvn load put
} if

%%EndSetup
setupLatin1
%%Page: 1 1
%%PageBoundingBox: 36 36 860 503
%%PageOrientation: Portrait
0 0 1 beginpage
gsave
36 36 824 467 boxprim clip newpath
1 1 set_scale 0 rotate 40 40 translate
% Node1
gsave
0 0 0.74902 nodecolor
newpath 504.5 146.5 moveto
504.5 165.5 lineto
560.5 165.5 lineto
560.5 146.5 lineto
closepath fill
1 setlinewidth
filled
0 0 0 nodecolor
newpath 504.5 146.5 moveto
504.5 165.5 lineto
560.5 165.5 lineto
560.5 146.5 lineto
closepath stroke
0 0 0 nodecolor
10 /Helvetica set_font
512.5 153.5 moveto 40 (MFrame) alignedtext
grestore
% Node8
gsave
[ /Rect [ 357 0 446 20 ]
  /Border [ 0 0 0 ]
  /Action << /Subtype /URI /URI ($structMRealizedFace.html) >>
  /Subtype /Link
/ANN pdfmark
0 0 1 nodecolor
newpath 357 .5 moveto
357 19.5 lineto
446 19.5 lineto
446 .5 lineto
closepath fill
1 setlinewidth
filled
0 0 0 nodecolor
newpath 357 .5 moveto
357 19.5 lineto
446 19.5 lineto
446 .5 lineto
closepath stroke
0 0 0 nodecolor
10 /Helvetica set_font
365 7.5 moveto 73 (MRealizedFace) alignedtext
grestore
% Node1->Node8
gsave
1 setlinewidth
dashed
0.77647 0.75294 0.80392 edgecolor
newpath 525.9 136.6021 moveto
519.3782 120.0932 508.2451 95.7943 493.5 78 curveto
471.9417 51.9837 438.1352 30.8293 418.0622 19.6497 curveto
stroke
0.77647 0.75294 0.80392 edgecolor
newpath 522.7081 138.0573 moveto
529.5115 146.1792 lineto
529.2579 135.5874 lineto
closepath fill
1 setlinewidth
solid
0.77647 0.75294 0.80392 edgecolor
newpath 522.7081 138.0573 moveto
529.5115 146.1792 lineto
529.2579 135.5874 lineto
closepath stroke
0 0 0 edgecolor
10 /Helvetica set_font
507.5 85.5 moveto 33 ( frame) alignedtext
grestore
% Node10
gsave
[ /Rect [ 646 78 735 98 ]
  /Border [ 0 0 0 ]
  /Action << /Subtype /URI /URI ($structMRealizedFont.html) >>
  /Subtype /Link
/ANN pdfmark
0 0 1 nodecolor
newpath 646 78.5 moveto
646 97.5 lineto
735 97.5 lineto
735 78.5 lineto
closepath fill
1 setlinewidth
filled
0 0 0 nodecolor
newpath 646 78.5 moveto
646 97.5 lineto
735 97.5 lineto
735 78.5 lineto
closepath stroke
0 0 0 nodecolor
10 /Helvetica set_font
654 85.5 moveto 73 (MRealizedFont) alignedtext
grestore
% Node1->Node10
gsave
1 setlinewidth
dashed
0.77647 0.75294 0.80392 edgecolor
newpath 547.5973 139.0338 moveto
555.9922 131.0269 567.0395 121.82 578.5 116 curveto
599.3654 105.4039 624.5528 98.8536 645.7533 94.8643 curveto
stroke
0.77647 0.75294 0.80392 edgecolor
newpath 545.033 136.6484 moveto
540.4345 146.1932 lineto
549.9815 141.5993 lineto
closepath fill
1 setlinewidth
solid
0.77647 0.75294 0.80392 edgecolor
newpath 545.033 136.6484 moveto
540.4345 146.1932 lineto
549.9815 141.5993 lineto
closepath stroke
0 0 0 edgecolor
10 /Helvetica set_font
578.5 119 moveto 33 ( frame) alignedtext
grestore
% Node2
gsave
[ /Rect [ 274 305 321 325 ]
  /Border [ 0 0 0 ]
  /Action << /Subtype /URI /URI ($structMPlist.html) >>
  /Subtype /Link
/ANN pdfmark
0 0 1 nodecolor
newpath 274 305.5 moveto
274 324.5 lineto
321 324.5 lineto
321 305.5 lineto
closepath fill
1 setlinewidth
filled
0 0 0 nodecolor
newpath 274 305.5 moveto
274 324.5 lineto
321 324.5 lineto
321 305.5 lineto
closepath stroke
0 0 0 nodecolor
10 /Helvetica set_font
282 312.5 moveto 31 (MPlist) alignedtext
grestore
% Node2->Node1
gsave
1 setlinewidth
dashed
0.77647 0.75294 0.80392 edgecolor
newpath 329.594 300.9545 moveto
336.9273 297.1087 344.3609 292.4434 350.5 287 curveto
379.7377 261.0757 369.4194 238.9414 399.5 214 curveto
430.7318 188.1041 475.4896 172.1965 504.2778 163.9809 curveto
stroke
0.77647 0.75294 0.80392 edgecolor
newpath 327.9328 297.8703 moveto
320.4638 305.3846 lineto
330.9886 304.1681 lineto
closepath fill
1 setlinewidth
solid
0.77647 0.75294 0.80392 edgecolor
newpath 327.9328 297.8703 moveto
320.4638 305.3846 lineto
330.9886 304.1681 lineto
closepath stroke
0 0 0 edgecolor
10 /Helvetica set_font
411 250 moveto 77 ( font_driver_list) alignedtext
0 0 0 edgecolor
10 /Helvetica set_font
406.5 239 moveto 86 (realized_face_list) alignedtext
0 0 0 edgecolor
10 /Helvetica set_font
407 228 moveto 85 (realized_font_list) alignedtext
0 0 0 edgecolor
10 /Helvetica set_font
399.5 217 moveto 100 (realized_fontset_list) alignedtext
grestore
% Node2->Node2
gsave
1 setlinewidth
dashed
0.77647 0.75294 0.80392 edgecolor
newpath 331.5148 320.294 moveto
336.0146 319.3926 339 317.6279 339 315 curveto
339 310.6875 330.9604 308.6997 321.3819 309.0366 curveto
stroke
0.77647 0.75294 0.80392 edgecolor
newpath 331.1295 316.8118 moveto
321.3819 320.9634 lineto
331.5909 323.7965 lineto
closepath fill
1 setlinewidth
solid
0.77647 0.75294 0.80392 edgecolor
newpath 331.1295 316.8118 moveto
321.3819 320.9634 lineto
331.5909 323.7965 lineto
closepath stroke
0 0 0 edgecolor
10 /Helvetica set_font
339 312.5 moveto 25 ( next) alignedtext
grestore
% Node5
gsave
[ /Rect [ 260 226 307 246 ]
  /Border [ 0 0 0 ]
  /Action << /Subtype /URI /URI ($structMFace.html) >>
  /Subtype /Link
/ANN pdfmark
0 0 1 nodecolor
newpath 260 226.5 moveto
260 245.5 lineto
307 245.5 lineto
307 226.5 lineto
closepath fill
1 setlinewidth
filled
0 0 0 nodecolor
newpath 260 226.5 moveto
260 245.5 lineto
307 245.5 lineto
307 226.5 lineto
closepath stroke
0 0 0 nodecolor
10 /Helvetica set_font
268 233.5 moveto 31 (MFace) alignedtext
grestore
% Node2->Node5
gsave
1 setlinewidth
dashed
0.77647 0.75294 0.80392 edgecolor
newpath 294.1026 295.3145 moveto
291.2439 279.5917 287.2833 257.8079 285.1017 245.8094 curveto
stroke
0.77647 0.75294 0.80392 edgecolor
newpath 290.7158 296.2529 moveto
295.9483 305.4655 lineto
297.6029 295.0006 lineto
closepath fill
1 setlinewidth
solid
0.77647 0.75294 0.80392 edgecolor
newpath 290.7158 296.2529 moveto
295.9483 305.4655 lineto
297.6029 295.0006 lineto
closepath stroke
0 0 0 edgecolor
10 /Helvetica set_font
293.5 279 moveto 53 ( frame_list) alignedtext
grestore
% Node2->Node8
gsave
1 setlinewidth
dashed
0.77647 0.75294 0.80392 edgecolor
newpath 273.9709 299.6653 moveto
255.0134 286.1229 231.5 263.9033 231.5 237 curveto
231.5 237 231.5 237 231.5 87 curveto
231.5 32.0407 306.4664 16.5598 356.8345 12.361 curveto
stroke
0.77647 0.75294 0.80392 edgecolor
newpath 272.2753 302.7432 moveto
282.5236 305.4308 lineto
276.188 296.9389 lineto
closepath fill
1 setlinewidth
solid
0.77647 0.75294 0.80392 edgecolor
newpath 272.2753 302.7432 moveto
282.5236 305.4308 lineto
276.188 296.9389 lineto
closepath stroke
0 0 0 edgecolor
10 /Helvetica set_font
231.5 159 moveto 73 ( base_face_list) alignedtext
0 0 0 edgecolor
10 /Helvetica set_font
234.5 148 moveto 67 (non_ascii_list) alignedtext
grestore
% Node3
gsave
[ /Rect [ 376 372 453 392 ]
  /Border [ 0 0 0 ]
  /Action << /Subtype /URI /URI ($structM17NObject.html) >>
  /Subtype /Link
/ANN pdfmark
0 0 1 nodecolor
newpath 376 372.5 moveto
376 391.5 lineto
453 391.5 lineto
453 372.5 lineto
closepath fill
1 setlinewidth
filled
0 0 0 nodecolor
newpath 376 372.5 moveto
376 391.5 lineto
453 391.5 lineto
453 372.5 lineto
closepath stroke
0 0 0 nodecolor
10 /Helvetica set_font
384 379.5 moveto 61 (M17NObject) alignedtext
grestore
% Node3->Node1
gsave
1 setlinewidth
dashed
0.77647 0.75294 0.80392 edgecolor
newpath 452.6676 369.0302 moveto
498.4663 352.3713 573.1257 317.3549 605.5 258 curveto
614.864 240.8321 612.6599 232.1977 605.5 214 curveto
596.316 190.6579 571.2173 174.5977 553.0104 165.6124 curveto
stroke
0.77647 0.75294 0.80392 edgecolor
newpath 451.3521 365.7826 moveto
443.0804 372.4031 lineto
453.6753 372.3859 lineto
closepath fill
1 setlinewidth
solid
0.77647 0.75294 0.80392 edgecolor
newpath 451.3521 365.7826 moveto
443.0804 372.4031 lineto
453.6753 372.3859 lineto
closepath stroke
0 0 0 edgecolor
10 /Helvetica set_font
592.5 279 moveto 37 ( control) alignedtext
grestore
% Node3->Node2
gsave
1 setlinewidth
dashed
0.77647 0.75294 0.80392 edgecolor
newpath 388.8352 367.6402 moveto
380.7007 363.3451 371.6941 358.5261 363.5 354 curveto
345.6766 344.1551 325.4131 332.4035 312.0951 324.6019 curveto
stroke
0.77647 0.75294 0.80392 edgecolor
newpath 387.4022 370.8409 moveto
397.8828 372.3928 lineto
390.6575 364.6439 lineto
closepath fill
1 setlinewidth
solid
0.77647 0.75294 0.80392 edgecolor
newpath 387.4022 370.8409 moveto
397.8828 372.3928 lineto
390.6575 364.6439 lineto
closepath stroke
0 0 0 edgecolor
10 /Helvetica set_font
363.5 346 moveto 37 ( control) alignedtext
grestore
% Node3->Node5
gsave
1 setlinewidth
dashed
0.77647 0.75294 0.80392 edgecolor
newpath 408.8623 362.5018 moveto
406.6221 356.1505 403.7889 349.1069 400.5 343 curveto
382.8823 310.2867 378.324 300.6246 350.5 276 curveto
336.0873 263.2446 316.8705 252.5703 302.7138 245.6322 curveto
stroke
0.77647 0.75294 0.80392 edgecolor
newpath 405.6147 363.8318 moveto
412.0485 372.2495 lineto
412.2683 361.6569 lineto
closepath fill
1 setlinewidth
solid
0.77647 0.75294 0.80392 edgecolor
newpath 405.6147 363.8318 moveto
412.0485 372.2495 lineto
412.2683 361.6569 lineto
closepath stroke
0 0 0 edgecolor
10 /Helvetica set_font
390.5 312.5 moveto 37 ( control) alignedtext
grestore
% Node4
gsave
[ /Rect [ 359.5 439 469.5 459 ]
  /Border [ 0 0 0 ]
  /Action << /Subtype /URI /URI ($structM17NObjectRecord.html) >>
  /Subtype /Link
/ANN pdfmark
0 0 1 nodecolor
newpath 359.5 439.5 moveto
359.5 458.5 lineto
469.5 458.5 lineto
469.5 439.5 lineto
closepath fill
1 setlinewidth
filled
0 0 0 nodecolor
newpath 359.5 439.5 moveto
359.5 458.5 lineto
469.5 458.5 lineto
469.5 439.5 lineto
closepath stroke
0 0 0 nodecolor
10 /Helvetica set_font
367.5 446.5 moveto 94 (M17NObjectRecord) alignedtext
grestore
% Node4->Node3
gsave
1 setlinewidth
dashed
0.77647 0.75294 0.80392 edgecolor
newpath 414.5 429.037 moveto
414.5 416.6703 414.5 401.1198 414.5 391.6273 curveto
stroke
0.77647 0.75294 0.80392 edgecolor
newpath 411.0001 429.2338 moveto
414.5 439.2338 lineto
418.0001 429.2338 lineto
closepath fill
1 setlinewidth
solid
0.77647 0.75294 0.80392 edgecolor
newpath 411.0001 429.2338 moveto
414.5 439.2338 lineto
418.0001 429.2338 lineto
closepath stroke
0 0 0 edgecolor
10 /Helvetica set_font
414.5 413 moveto 34 ( record) alignedtext
grestore
% Node5->Node1
gsave
1 setlinewidth
dashed
0.77647 0.75294 0.80392 edgecolor
newpath 301.4349 219.8008 moveto
315.9 208.3805 337.2663 193.3282 358.5 185 curveto
407.4931 165.7842 469.1981 159.75 504.4171 157.8589 curveto
stroke
0.77647 0.75294 0.80392 edgecolor
newpath 298.9326 217.3245 moveto
293.3831 226.3496 lineto
303.3495 222.7551 lineto
closepath fill
1 setlinewidth
solid
0.77647 0.75294 0.80392 edgecolor
newpath 298.9326 217.3245 moveto
293.3831 226.3496 lineto
303.3495 222.7551 lineto
closepath stroke
0 0 0 edgecolor
10 /Helvetica set_font
358.5 188 moveto 25 ( face) alignedtext
grestore
% Node5->Node5
gsave
1 setlinewidth
dashed
0.77647 0.75294 0.80392 edgecolor
newpath 317.5148 243.2793 moveto
322.0146 242.0398 325 239.6134 325 236 curveto
325 230.0703 316.9604 227.3371 307.3819 227.8004 curveto
stroke
0.77647 0.75294 0.80392 edgecolor
newpath 317.0243 239.8093 moveto
307.3819 244.1996 lineto
317.6576 246.7806 lineto
closepath fill
1 setlinewidth
solid
0.77647 0.75294 0.80392 edgecolor
newpath 317.0243 239.8093 moveto
307.3819 244.1996 lineto
317.6576 246.7806 lineto
closepath stroke
0 0 0 edgecolor
10 /Helvetica set_font
325 233.5 moveto 28 ( hook) alignedtext
grestore
% Node5->Node8
gsave
1 setlinewidth
dashed
0.77647 0.75294 0.80392 edgecolor
newpath 292.6729 217.5871 moveto
316.4859 172.3827 379.6288 52.5182 397.0139 19.516 curveto
stroke
0.77647 0.75294 0.80392 edgecolor
newpath 289.5458 216.0137 moveto
287.9816 226.4925 lineto
295.739 219.2763 lineto
closepath fill
1 setlinewidth
solid
0.77647 0.75294 0.80392 edgecolor
newpath 289.5458 216.0137 moveto
287.9816 226.4925 lineto
295.739 219.2763 lineto
closepath stroke
0 0 0 edgecolor
10 /Helvetica set_font
345.5 119 moveto 25 ( face) alignedtext
grestore
% Node6
gsave
[ /Rect [ 508 226 597 246 ]
  /Border [ 0 0 0 ]
  /Action << /Subtype /URI /URI ($structMDeviceDriver.html) >>
  /Subtype /Link
/ANN pdfmark
0 0 1 nodecolor
newpath 508 226.5 moveto
508 245.5 lineto
597 245.5 lineto
597 226.5 lineto
closepath fill
1 setlinewidth
filled
0 0 0 nodecolor
newpath 508 226.5 moveto
508 245.5 lineto
597 245.5 lineto
597 226.5 lineto
closepath stroke
0 0 0 nodecolor
10 /Helvetica set_font
516 233.5 moveto 73 (MDeviceDriver) alignedtext
grestore
% Node6->Node1
gsave
1 setlinewidth
dashed
0.77647 0.75294 0.80392 edgecolor
newpath 547.7651 216.534 moveto
543.6729 200.5742 537.9349 178.1961 534.7882 165.9238 curveto
stroke
0.77647 0.75294 0.80392 edgecolor
newpath 544.4091 217.5373 moveto
550.2832 226.3546 lineto
551.1897 215.7986 lineto
closepath fill
1 setlinewidth
solid
0.77647 0.75294 0.80392 edgecolor
newpath 544.4091 217.5373 moveto
550.2832 226.3546 lineto
551.1897 215.7986 lineto
closepath stroke
0 0 0 edgecolor
10 /Helvetica set_font
542.5 188 moveto 32 ( driver) alignedtext
grestore
% Node7
gsave
[ /Rect [ 663 226 710 246 ]
  /Border [ 0 0 0 ]
  /Action << /Subtype /URI /URI ($structMFont.html) >>
  /Subtype /Link
/ANN pdfmark
0 0 1 nodecolor
newpath 663 226.5 moveto
663 245.5 lineto
710 245.5 lineto
710 226.5 lineto
closepath fill
1 setlinewidth
filled
0 0 0 nodecolor
newpath 663 226.5 moveto
663 245.5 lineto
710 245.5 lineto
710 226.5 lineto
closepath stroke
0 0 0 nodecolor
10 /Helvetica set_font
671 233.5 moveto 31 (MFont) alignedtext
grestore
% Node7->Node1
gsave
1 setlinewidth
dashed
0.77647 0.75294 0.80392 edgecolor
newpath 665.7278 220.6766 moveto
649.7206 210.0138 626.795 195.5411 605.5 185 curveto
590.2937 177.4728 572.5327 170.6206 558.3373 165.579 curveto
stroke
0.77647 0.75294 0.80392 edgecolor
newpath 664.042 223.7614 moveto
674.2885 226.4559 lineto
667.9587 217.9597 lineto
closepath fill
1 setlinewidth
solid
0.77647 0.75294 0.80392 edgecolor
newpath 664.042 223.7614 moveto
674.2885 226.4559 lineto
667.9587 217.9597 lineto
closepath stroke
0 0 0 edgecolor
10 /Helvetica set_font
623.5 188 moveto 23 ( font) alignedtext
grestore
% Node7->Node8
gsave
1 setlinewidth
dashed
0.77647 0.75294 0.80392 edgecolor
newpath 678.5041 216.8254 moveto
666.7452 191.7058 642.7562 146.077 611.5 116 curveto
558.3375 64.8431 475.3725 33.5365 431.3232 19.5836 curveto
stroke
0.77647 0.75294 0.80392 edgecolor
newpath 675.4551 218.5758 moveto
682.7804 226.2302 lineto
681.8273 215.6783 lineto
closepath fill
1 setlinewidth
solid
0.77647 0.75294 0.80392 edgecolor
newpath 675.4551 218.5758 moveto
682.7804 226.2302 lineto
681.8273 215.6783 lineto
closepath stroke
0 0 0 edgecolor
10 /Helvetica set_font
621.5 119 moveto 23 ( font) alignedtext
grestore
% Node7->Node10
gsave
1 setlinewidth
dashed
0.77647 0.75294 0.80392 edgecolor
newpath 687.0172 216.121 moveto
687.8898 184.2716 689.6214 121.0677 690.258 97.8348 curveto
stroke
0.77647 0.75294 0.80392 edgecolor
newpath 683.5135 216.2121 moveto
686.7382 226.3043 lineto
690.5109 216.4039 lineto
closepath fill
1 setlinewidth
solid
0.77647 0.75294 0.80392 edgecolor
newpath 683.5135 216.2121 moveto
686.7382 226.3043 lineto
690.5109 216.4039 lineto
closepath stroke
0 0 0 edgecolor
10 /Helvetica set_font
688.5 159 moveto 23 ( font) alignedtext
0 0 0 edgecolor
10 /Helvetica set_font
688.5 148 moveto 23 (spec) alignedtext
grestore
% Node11
gsave
[ /Rect [ 710 0 787 20 ]
  /Border [ 0 0 0 ]
  /Action << /Subtype /URI /URI ($structMFontDriver.html) >>
  /Subtype /Link
/ANN pdfmark
0 0 1 nodecolor
newpath 710 .5 moveto
710 19.5 lineto
787 19.5 lineto
787 .5 lineto
closepath fill
1 setlinewidth
filled
0 0 0 nodecolor
newpath 710 .5 moveto
710 19.5 lineto
787 19.5 lineto
787 .5 lineto
closepath stroke
0 0 0 nodecolor
10 /Helvetica set_font
718 7.5 moveto 61 (MFontDriver) alignedtext
grestore
% Node7->Node11
gsave
1 setlinewidth
dashed
0.77647 0.75294 0.80392 edgecolor
newpath 703.4589 219.3302 moveto
732.5351 190.9883 790.2487 127.824 805.5 60 curveto
807.6451 50.4604 810.7287 46.2623 805.5 38 curveto
800.113 29.4874 791.2363 23.6062 782.0739 19.5645 curveto
stroke
0.77647 0.75294 0.80392 edgecolor
newpath 700.8943 216.9396 moveto
696.0764 226.3756 lineto
705.7271 222.0036 lineto
closepath fill
1 setlinewidth
solid
0.77647 0.75294 0.80392 edgecolor
newpath 700.8943 216.9396 moveto
696.0764 226.3756 lineto
705.7271 222.0036 lineto
closepath stroke
0 0 0 edgecolor
10 /Helvetica set_font
782.5 119 moveto 33 ( select) alignedtext
grestore
% Node8->Node1
gsave
1 setlinewidth
dashed
0.77647 0.75294 0.80392 edgecolor
newpath 412.3434 28.0818 moveto
424.2918 46.3029 444.6014 75.5694 465.5 98 curveto
483.1979 116.9952 506.9364 135.8982 520.8884 146.455 curveto
stroke
0.77647 0.75294 0.80392 edgecolor
newpath 415.2653 26.1547 moveto
406.8985 19.6549 lineto
409.3858 29.9536 lineto
closepath fill
1 setlinewidth
solid
0.77647 0.75294 0.80392 edgecolor
newpath 415.2653 26.1547 moveto
406.8985 19.6549 lineto
409.3858 29.9536 lineto
closepath stroke
0 0 0 edgecolor
10 /Helvetica set_font
465.5 85.5 moveto 28 ( rface) alignedtext
grestore
% Node8->Node8
gsave
1 setlinewidth
dashed
0.77647 0.75294 0.80392 edgecolor
newpath 456.3258 15.566 moveto
461.0493 14.3834 464 12.5281 464 10 curveto
464 5.9551 456.4463 3.6324 446.1631 3.032 curveto
stroke
0.77647 0.75294 0.80392 edgecolor
newpath 455.591 12.1341 moveto
446.1631 16.968 lineto
456.5477 19.0684 lineto
closepath fill
1 setlinewidth
solid
0.77647 0.75294 0.80392 edgecolor
newpath 455.591 12.1341 moveto
446.1631 16.968 lineto
456.5477 19.0684 lineto
closepath stroke
0 0 0 edgecolor
10 /Helvetica set_font
464 7.5 moveto 56 ( ascii_rface) alignedtext
grestore
% Node9
gsave
[ /Rect [ 0 78 97 98 ]
  /Border [ 0 0 0 ]
  /Action << /Subtype /URI /URI ($structMFaceHLineProp.html) >>
  /Subtype /Link
/ANN pdfmark
0 0 1 nodecolor
newpath 0 78.5 moveto
0 97.5 lineto
97 97.5 lineto
97 78.5 lineto
closepath fill
1 setlinewidth
filled
0 0 0 nodecolor
newpath 0 78.5 moveto
0 97.5 lineto
97 97.5 lineto
97 78.5 lineto
closepath stroke
0 0 0 nodecolor
10 /Helvetica set_font
8 85.5 moveto 81 (MFaceHLineProp) alignedtext
grestore
% Node9->Node8
gsave
1 setlinewidth
dashed
0.77647 0.75294 0.80392 edgecolor
newpath 69.6984 72.9727 moveto
88.128 61.524 115.9656 45.9818 142.5 38 curveto
215.4482 16.0566 304.5738 11.3024 356.9774 10.616 curveto
stroke
0.77647 0.75294 0.80392 edgecolor
newpath 67.7741 70.0486 moveto
61.2146 78.3687 lineto
71.5309 75.9551 lineto
closepath fill
1 setlinewidth
solid
0.77647 0.75294 0.80392 edgecolor
newpath 67.7741 70.0486 moveto
61.2146 78.3687 lineto
71.5309 75.9551 lineto
closepath stroke
0 0 0 edgecolor
10 /Helvetica set_font
142.5 46.5 moveto 28 ( hline) alignedtext
grestore
% Node10->Node8
gsave
1 setlinewidth
dashed
0.77647 0.75294 0.80392 edgecolor
newpath 671.7068 72.0549 moveto
655.1676 59.207 632.1158 42.1152 621.5 38 curveto
563.7339 15.6073 491.6117 10.7013 446.0384 10.1438 curveto
stroke
0.77647 0.75294 0.80392 edgecolor
newpath 669.6336 74.8769 moveto
679.6618 78.2955 lineto
673.9542 69.3694 lineto
closepath fill
1 setlinewidth
solid
0.77647 0.75294 0.80392 edgecolor
newpath 669.6336 74.8769 moveto
679.6618 78.2955 lineto
673.9542 69.3694 lineto
closepath stroke
0 0 0 edgecolor
10 /Helvetica set_font
654.5 46.5 moveto 27 ( rfont) alignedtext
grestore
% Node10->Node10
gsave
1 setlinewidth
dashed
0.77647 0.75294 0.80392 edgecolor
newpath 745.3258 92.6871 moveto
750.0493 91.6913 753 90.1289 753 88 curveto
753 84.5938 745.4463 82.6378 735.1631 82.1322 curveto
stroke
0.77647 0.75294 0.80392 edgecolor
newpath 744.6924 89.2371 moveto
735.1631 93.8678 lineto
745.5003 96.1903 lineto
closepath fill
1 setlinewidth
solid
0.77647 0.75294 0.80392 edgecolor
newpath 744.6924 89.2371 moveto
735.1631 93.8678 lineto
745.5003 96.1903 lineto
closepath stroke
0 0 0 edgecolor
10 /Helvetica set_font
753 85.5 moveto 25 ( next) alignedtext
grestore
% Node10->Node11
gsave
1 setlinewidth
dashed
0.77647 0.75294 0.80392 edgecolor
newpath 713.5521 72.4566 moveto
718.2348 68.7878 722.8401 64.5757 726.5 60 curveto
736.4019 47.6203 742.8544 30.0744 746.0722 19.6829 curveto
stroke
0.77647 0.75294 0.80392 edgecolor
newpath 711.3083 69.7588 moveto
705.2273 78.4347 lineto
715.3914 75.4446 lineto
closepath fill
1 setlinewidth
solid
0.77647 0.75294 0.80392 edgecolor
newpath 711.3083 69.7588 moveto
705.2273 78.4347 lineto
715.3914 75.4446 lineto
closepath stroke
0 0 0 edgecolor
10 /Helvetica set_font
738.5 52 moveto 63 ( encapsulate) alignedtext
0 0 0 edgecolor
10 /Helvetica set_font
757.5 41 moveto 25 (open) alignedtext
grestore
% Node11->Node10
gsave
1 setlinewidth
dashed
0.77647 0.75294 0.80392 edgecolor
newpath 709.5932 24.2067 moveto
703.7021 27.8123 698.3249 32.3402 694.5 38 curveto
686.3755 50.022 687.2774 67.6853 688.8003 78.196 curveto
stroke
0.77647 0.75294 0.80392 edgecolor
newpath 711.2347 27.298 moveto
718.4714 19.5597 lineto
707.9885 21.0962 lineto
closepath fill
1 setlinewidth
solid
0.77647 0.75294 0.80392 edgecolor
newpath 711.2347 27.298 moveto
718.4714 19.5597 lineto
707.9885 21.0962 lineto
closepath stroke
0 0 0 edgecolor
10 /Helvetica set_font
694.5 46.5 moveto 32 ( driver) alignedtext
grestore
% Node12
gsave
[ /Rect [ 115.5 78 203.5 98 ]
  /Border [ 0 0 0 ]
  /Action << /Subtype /URI /URI ($structMFaceBoxProp.html) >>
  /Subtype /Link
/ANN pdfmark
0 0 1 nodecolor
newpath 115.5 78.5 moveto
115.5 97.5 lineto
203.5 97.5 lineto
203.5 78.5 lineto
closepath fill
1 setlinewidth
filled
0 0 0 nodecolor
newpath 115.5 78.5 moveto
115.5 97.5 lineto
203.5 97.5 lineto
203.5 78.5 lineto
closepath stroke
0 0 0 nodecolor
10 /Helvetica set_font
123.5 85.5 moveto 72 (MFaceBoxProp) alignedtext
grestore
% Node12->Node8
gsave
1 setlinewidth
dashed
0.77647 0.75294 0.80392 edgecolor
newpath 167.8362 69.3064 moveto
173.9257 58.4312 183.2542 45.2368 195.5 38 curveto
221.9725 22.3559 304.5596 15.5736 356.7723 12.7884 curveto
stroke
0.77647 0.75294 0.80392 edgecolor
newpath 164.6189 67.91 moveto
163.1637 78.4044 lineto
170.8457 71.108 lineto
closepath fill
1 setlinewidth
solid
0.77647 0.75294 0.80392 edgecolor
newpath 164.6189 67.91 moveto
163.1637 78.4044 lineto
170.8457 71.108 lineto
closepath stroke
0 0 0 edgecolor
10 /Helvetica set_font
195.5 46.5 moveto 22 ( box) alignedtext
grestore
endpage
showpage
grestore
%%PageTrailer
%%EndPage: 1
%%Trailer
%%Pages: 1
%%BoundingBox: 36 36 860 503
end
restore
%%EOF
