%!PS-Adobe-3.0
%%Creator: graphviz version 2.43.0 (0)
%%Title: MRealizedFont
%%Pages: (atend)
%%BoundingBox: (atend)
%%EndComments
save
%%BeginProlog
/DotDict 200 dict def
DotDict begin

/setupLatin1 {
mark
/EncodingVector 256 array def
 EncodingVector 0

ISOLatin1Encoding 0 255 getinterval putinterval
EncodingVector 45 /hyphen put

% Set up ISO Latin 1 character encoding
/starnetISO {
        dup dup findfont dup length dict begin
        { 1 index /FID ne { def }{ pop pop } ifelse
        } forall
        /Encoding EncodingVector def
        currentdict end definefont
} def
/Times-Roman starnetISO def
/Times-Italic starnetISO def
/Times-Bold starnetISO def
/Times-BoldItalic starnetISO def
/Helvetica starnetISO def
/Helvetica-Oblique starnetISO def
/Helvetica-Bold starnetISO def
/Helvetica-BoldOblique starnetISO def
/Courier starnetISO def
/Courier-Oblique starnetISO def
/Courier-Bold starnetISO def
/Courier-BoldOblique starnetISO def
cleartomark
} bind def

%%BeginResource: procset graphviz 0 0
/coord-font-family /Times-Roman def
/default-font-family /Times-Roman def
/coordfont coord-font-family findfont 8 scalefont def

/InvScaleFactor 1.0 def
/set_scale {
       dup 1 exch div /InvScaleFactor exch def
       scale
} bind def

% styles
/solid { [] 0 setdash } bind def
/dashed { [9 InvScaleFactor mul dup ] 0 setdash } bind def
/dotted { [1 InvScaleFactor mul 6 InvScaleFactor mul] 0 setdash } bind def
/invis {/fill {newpath} def /stroke {newpath} def /show {pop newpath} def} bind def
/bold { 2 setlinewidth } bind def
/filled { } bind def
/unfilled { } bind def
/rounded { } bind def
/diagonals { } bind def
/tapered { } bind def

% hooks for setting color 
/nodecolor { sethsbcolor } bind def
/edgecolor { sethsbcolor } bind def
/graphcolor { sethsbcolor } bind def
/nopcolor {pop pop pop} bind def

/beginpage {	% i j npages
	/npages exch def
	/j exch def
	/i exch def
	/str 10 string def
	npages 1 gt {
		gsave
			coordfont setfont
			0 0 moveto
			(\() show i str cvs show (,) show j str cvs show (\)) show
		grestore
	} if
} bind def

/set_font {
	findfont exch
	scalefont setfont
} def

% draw text fitted to its expected width
/alignedtext {			% width text
	/text exch def
	/width exch def
	gsave
		width 0 gt {
			[] 0 setdash
			text stringwidth pop width exch sub text length div 0 text ashow
		} if
	grestore
} def

/boxprim {				% xcorner ycorner xsize ysize
		4 2 roll
		moveto
		2 copy
		exch 0 rlineto
		0 exch rlineto
		pop neg 0 rlineto
		closepath
} bind def

/ellipse_path {
	/ry exch def
	/rx exch def
	/y exch def
	/x exch def
	matrix currentmatrix
	newpath
	x y translate
	rx ry scale
	0 0 1 0 360 arc
	setmatrix
} bind def

/endpage { showpage } bind def
/showpage { } def

/layercolorseq
	[	% layer color sequence - darkest to lightest
		[0 0 0]
		[.2 .8 .8]
		[.4 .8 .8]
		[.6 .8 .8]
		[.8 .8 .8]
	]
def

/layerlen layercolorseq length def

/setlayer {/maxlayer exch def /curlayer exch def
	layercolorseq curlayer 1 sub layerlen mod get
	aload pop sethsbcolor
	/nodecolor {nopcolor} def
	/edgecolor {nopcolor} def
	/graphcolor {nopcolor} def
} bind def

/onlayer { curlayer ne {invis} if } def

/onlayers {
	/myupper exch def
	/mylower exch def
	curlayer mylower lt
	curlayer myupper gt
	or
	{invis} if
} def

/curlayer 0 def

%%EndResource
%%EndProlog
%%BeginSetup
14 default-font-family set_font
% /arrowlength 10 def
% /arrowwidth 5 def

% make sure pdfmark is harmless for PS-interpreters other than Distiller
/pdfmark where {pop} {userdict /pdfmark /cleartomark load put} ifelse
% make '<<' and '>>' safe on PS Level 1 devices
/languagelevel where {pop languagelevel}{1} ifelse
2 lt {
    userdict (<<) cvn ([) cvn load put
    userdict (>>) cvn ([) cvn load put
} if

%%EndSetup
setupLatin1
%%Page: 1 1
%%PageBoundingBox: 36 36 937 445
%%PageOrientation: Portrait
0 0 1 beginpage
gsave
36 36 901 409 boxprim clip newpath
1 1 set_scale 0 rotate 40 40 translate
% Node1
gsave
0 0 0.74902 nodecolor
newpath 543.8736 168.5 moveto
543.8736 187.5 lineto
632.8736 187.5 lineto
632.8736 168.5 lineto
closepath fill
1 setlinewidth
filled
0 0 0 nodecolor
newpath 543.8736 168.5 moveto
543.8736 187.5 lineto
632.8736 187.5 lineto
632.8736 168.5 lineto
closepath stroke
0 0 0 nodecolor
10 /Helvetica set_font
551.8736 175.5 moveto 73 (MRealizedFont) alignedtext
grestore
% Node1->Node1
gsave
1 setlinewidth
dashed
0.77647 0.75294 0.80392 edgecolor
newpath 643.1994 183.8589 moveto
647.923 182.6141 650.8736 180.6611 650.8736 178 curveto
650.8736 173.7422 643.3199 171.2973 633.0368 170.6653 curveto
stroke
0.77647 0.75294 0.80392 edgecolor
newpath 642.43 180.4339 moveto
633.0368 185.3347 lineto
643.436 187.3612 lineto
closepath fill
1 setlinewidth
solid
0.77647 0.75294 0.80392 edgecolor
newpath 642.43 180.4339 moveto
633.0368 185.3347 lineto
643.436 187.3612 lineto
closepath stroke
0 0 0 edgecolor
10 /Helvetica set_font
650.8736 175.5 moveto 25 ( next) alignedtext
grestore
% Node9
gsave
[ /Rect [ 346.8736 67 435.8736 87 ]
  /Border [ 0 0 0 ]
  /Action << /Subtype /URI /URI ($structMRealizedFace.html) >>
  /Subtype /Link
/ANN pdfmark
0 0 1 nodecolor
newpath 346.8736 67.5 moveto
346.8736 86.5 lineto
435.8736 86.5 lineto
435.8736 67.5 lineto
closepath fill
1 setlinewidth
filled
0 0 0 nodecolor
newpath 346.8736 67.5 moveto
346.8736 86.5 lineto
435.8736 86.5 lineto
435.8736 67.5 lineto
closepath stroke
0 0 0 nodecolor
10 /Helvetica set_font
354.8736 74.5 moveto 73 (MRealizedFace) alignedtext
grestore
% Node1->Node9
gsave
1 setlinewidth
dashed
0.77647 0.75294 0.80392 edgecolor
newpath 534.2628 165.4193 moveto
523.8949 161.4371 513.6933 156.1112 505.3736 149 curveto
488.6 134.6627 499.4092 119.0252 482.3736 105 curveto
469.2696 94.2116 451.9791 87.7337 435.9922 83.8441 curveto
stroke
0.77647 0.75294 0.80392 edgecolor
newpath 533.1871 168.7507 moveto
543.7819 168.7114 lineto
535.4751 162.1351 lineto
closepath fill
1 setlinewidth
solid
0.77647 0.75294 0.80392 edgecolor
newpath 533.1871 168.7507 moveto
543.7819 168.7114 lineto
535.4751 162.1351 lineto
closepath stroke
0 0 0 edgecolor
10 /Helvetica set_font
505.3736 124.5 moveto 27 ( rfont) alignedtext
grestore
% Node12
gsave
[ /Rect [ 597.8736 67 674.8736 87 ]
  /Border [ 0 0 0 ]
  /Action << /Subtype /URI /URI ($structMFontDriver.html) >>
  /Subtype /Link
/ANN pdfmark
0 0 1 nodecolor
newpath 597.8736 67.5 moveto
597.8736 86.5 lineto
674.8736 86.5 lineto
674.8736 67.5 lineto
closepath fill
1 setlinewidth
filled
0 0 0 nodecolor
newpath 597.8736 67.5 moveto
597.8736 86.5 lineto
674.8736 86.5 lineto
674.8736 67.5 lineto
closepath stroke
0 0 0 nodecolor
10 /Helvetica set_font
605.8736 74.5 moveto 61 (MFontDriver) alignedtext
grestore
% Node1->Node12
gsave
1 setlinewidth
dashed
0.77647 0.75294 0.80392 edgecolor
newpath 578.9402 159.1915 moveto
572.1537 143.6954 565.8751 121.2369 576.3736 105 curveto
581.8936 96.4629 590.8274 90.5984 600.1341 86.58 curveto
stroke
0.77647 0.75294 0.80392 edgecolor
newpath 575.8048 160.7476 moveto
583.302 168.2339 lineto
582.1097 157.7063 lineto
closepath fill
1 setlinewidth
solid
0.77647 0.75294 0.80392 edgecolor
newpath 575.8048 160.7476 moveto
583.302 168.2339 lineto
582.1097 157.7063 lineto
closepath stroke
0 0 0 edgecolor
10 /Helvetica set_font
576.3736 130 moveto 63 ( encapsulate) alignedtext
0 0 0 edgecolor
10 /Helvetica set_font
595.3736 119 moveto 25 (open) alignedtext
grestore
% Node2
gsave
[ /Rect [ 505.3736 0 561.3736 20 ]
  /Border [ 0 0 0 ]
  /Action << /Subtype /URI /URI ($structMFrame.html) >>
  /Subtype /Link
/ANN pdfmark
0 0 1 nodecolor
newpath 505.3736 .5 moveto
505.3736 19.5 lineto
561.3736 19.5 lineto
561.3736 .5 lineto
closepath fill
1 setlinewidth
filled
0 0 0 nodecolor
newpath 505.3736 .5 moveto
505.3736 19.5 lineto
561.3736 19.5 lineto
561.3736 .5 lineto
closepath stroke
0 0 0 nodecolor
10 /Helvetica set_font
513.3736 7.5 moveto 40 (MFrame) alignedtext
grestore
% Node2->Node1
gsave
1 setlinewidth
dashed
0.77647 0.75294 0.80392 edgecolor
newpath 535.2551 29.5974 moveto
538.5757 56.9279 547.0463 109.0246 566.3736 149 curveto
569.818 156.1241 575.318 163.1241 579.9569 168.3431 curveto
stroke
0.77647 0.75294 0.80392 edgecolor
newpath 538.7168 29.0589 moveto
534.1306 19.5081 lineto
531.7599 29.8343 lineto
closepath fill
1 setlinewidth
solid
0.77647 0.75294 0.80392 edgecolor
newpath 538.7168 29.0589 moveto
534.1306 19.5081 lineto
531.7599 29.8343 lineto
closepath stroke
0 0 0 edgecolor
10 /Helvetica set_font
544.3736 74.5 moveto 33 ( frame) alignedtext
grestore
% Node2->Node9
gsave
1 setlinewidth
dashed
0.77647 0.75294 0.80392 edgecolor
newpath 495.0151 12.6368 moveto
470.6329 15.3228 439.4326 21.9575 416.3736 38 curveto
405.8721 45.3061 398.6503 58.5826 394.7626 67.3474 curveto
stroke
0.77647 0.75294 0.80392 edgecolor
newpath 495.3691 16.1191 moveto
505.0036 11.7115 lineto
494.7233 9.1489 lineto
closepath fill
1 setlinewidth
solid
0.77647 0.75294 0.80392 edgecolor
newpath 495.3691 16.1191 moveto
505.0036 11.7115 lineto
494.7233 9.1489 lineto
closepath stroke
0 0 0 edgecolor
10 /Helvetica set_font
416.3736 41 moveto 33 ( frame) alignedtext
grestore
% Node3
gsave
[ /Rect [ 149.8736 247 196.8736 267 ]
  /Border [ 0 0 0 ]
  /Action << /Subtype /URI /URI ($structMPlist.html) >>
  /Subtype /Link
/ANN pdfmark
0 0 1 nodecolor
newpath 149.8736 247.5 moveto
149.8736 266.5 lineto
196.8736 266.5 lineto
196.8736 247.5 lineto
closepath fill
1 setlinewidth
filled
0 0 0 nodecolor
newpath 149.8736 247.5 moveto
149.8736 266.5 lineto
196.8736 266.5 lineto
196.8736 247.5 lineto
closepath stroke
0 0 0 nodecolor
10 /Helvetica set_font
157.8736 254.5 moveto 31 (MPlist) alignedtext
grestore
% Node3->Node2
gsave
1 setlinewidth
dashed
0.77647 0.75294 0.80392 edgecolor
newpath 139.9344 247.1786 moveto
108.8464 237.4718 63.0005 219.1139 33.3736 189 curveto
6.308 161.4894 -11.9928 135.7147 11.3736 105 curveto
71.9352 25.3931 405.6405 13.2036 505.2769 11.3373 curveto
stroke
0.77647 0.75294 0.80392 edgecolor
newpath 139.2834 250.6368 moveto
149.8668 250.1433 lineto
141.2856 243.9292 lineto
closepath fill
1 setlinewidth
solid
0.77647 0.75294 0.80392 edgecolor
newpath 139.2834 250.6368 moveto
149.8668 250.1433 lineto
141.2856 243.9292 lineto
closepath stroke
0 0 0 edgecolor
10 /Helvetica set_font
22.8736 141 moveto 77 ( font_driver_list) alignedtext
0 0 0 edgecolor
10 /Helvetica set_font
18.3736 130 moveto 86 (realized_face_list) alignedtext
0 0 0 edgecolor
10 /Helvetica set_font
18.8736 119 moveto 85 (realized_font_list) alignedtext
0 0 0 edgecolor
10 /Helvetica set_font
11.3736 108 moveto 100 (realized_fontset_list) alignedtext
grestore
% Node3->Node3
gsave
1 setlinewidth
dashed
0.77647 0.75294 0.80392 edgecolor
newpath 207.3884 262.294 moveto
211.8882 261.3926 214.8736 259.6279 214.8736 257 curveto
214.8736 252.6875 206.834 250.6997 197.2556 251.0366 curveto
stroke
0.77647 0.75294 0.80392 edgecolor
newpath 207.0031 258.8118 moveto
197.2556 262.9634 lineto
207.4646 265.7965 lineto
closepath fill
1 setlinewidth
solid
0.77647 0.75294 0.80392 edgecolor
newpath 207.0031 258.8118 moveto
197.2556 262.9634 lineto
207.4646 265.7965 lineto
closepath stroke
0 0 0 edgecolor
10 /Helvetica set_font
214.8736 254.5 moveto 25 ( next) alignedtext
grestore
% Node6
gsave
[ /Rect [ 42.8736 168 89.8736 188 ]
  /Border [ 0 0 0 ]
  /Action << /Subtype /URI /URI ($structMFace.html) >>
  /Subtype /Link
/ANN pdfmark
0 0 1 nodecolor
newpath 42.8736 168.5 moveto
42.8736 187.5 lineto
89.8736 187.5 lineto
89.8736 168.5 lineto
closepath fill
1 setlinewidth
filled
0 0 0 nodecolor
newpath 42.8736 168.5 moveto
42.8736 187.5 lineto
89.8736 187.5 lineto
89.8736 168.5 lineto
closepath stroke
0 0 0 nodecolor
10 /Helvetica set_font
50.8736 175.5 moveto 31 (MFace) alignedtext
grestore
% Node3->Node6
gsave
1 setlinewidth
dashed
0.77647 0.75294 0.80392 edgecolor
newpath 153.1731 241.4632 moveto
131.0756 225.5612 96.3959 200.6048 78.2865 187.5728 curveto
stroke
0.77647 0.75294 0.80392 edgecolor
newpath 151.3528 244.4652 moveto
161.5139 247.4655 lineto
155.4415 238.7835 lineto
closepath fill
1 setlinewidth
solid
0.77647 0.75294 0.80392 edgecolor
newpath 151.3528 244.4652 moveto
161.5139 247.4655 lineto
155.4415 238.7835 lineto
closepath stroke
0 0 0 edgecolor
10 /Helvetica set_font
136.3736 215.5 moveto 53 ( frame_list) alignedtext
grestore
% Node3->Node9
gsave
1 setlinewidth
dashed
0.77647 0.75294 0.80392 edgecolor
newpath 192.909 241.1123 moveto
210.4468 227.6685 236.8248 207.2538 259.3736 189 curveto
305.4532 151.6976 359.2166 105.6965 381.2128 86.7671 curveto
stroke
0.77647 0.75294 0.80392 edgecolor
newpath 190.4278 238.6036 moveto
184.6108 247.4587 lineto
194.6803 244.1638 lineto
closepath fill
1 setlinewidth
solid
0.77647 0.75294 0.80392 edgecolor
newpath 190.4278 238.6036 moveto
184.6108 247.4587 lineto
194.6803 244.1638 lineto
closepath stroke
0 0 0 edgecolor
10 /Helvetica set_font
285.3736 181 moveto 73 ( base_face_list) alignedtext
0 0 0 edgecolor
10 /Helvetica set_font
288.3736 170 moveto 67 (non_ascii_list) alignedtext
grestore
% Node4
gsave
[ /Rect [ 273.8736 314 350.8736 334 ]
  /Border [ 0 0 0 ]
  /Action << /Subtype /URI /URI ($structM17NObject.html) >>
  /Subtype /Link
/ANN pdfmark
0 0 1 nodecolor
newpath 273.8736 314.5 moveto
273.8736 333.5 lineto
350.8736 333.5 lineto
350.8736 314.5 lineto
closepath fill
1 setlinewidth
filled
0 0 0 nodecolor
newpath 273.8736 314.5 moveto
273.8736 333.5 lineto
350.8736 333.5 lineto
350.8736 314.5 lineto
closepath stroke
0 0 0 nodecolor
10 /Helvetica set_font
281.8736 321.5 moveto 61 (M17NObject) alignedtext
grestore
% Node4->Node2
gsave
1 setlinewidth
dashed
0.77647 0.75294 0.80392 edgecolor
newpath 361.4154 322.2417 moveto
495.1709 319.5268 856.3736 307.6033 856.3736 258 curveto
856.3736 258 856.3736 258 856.3736 76 curveto
856.3736 16.0824 640.0566 10.7018 561.4727 10.724 curveto
stroke
0.77647 0.75294 0.80392 edgecolor
newpath 360.9909 318.7492 moveto
351.0607 322.4426 lineto
361.1267 325.7478 lineto
closepath fill
1 setlinewidth
solid
0.77647 0.75294 0.80392 edgecolor
newpath 360.9909 318.7492 moveto
351.0607 322.4426 lineto
361.1267 325.7478 lineto
closepath stroke
0 0 0 edgecolor
10 /Helvetica set_font
856.3736 175.5 moveto 37 ( control) alignedtext
grestore
% Node4->Node3
gsave
1 setlinewidth
dashed
0.77647 0.75294 0.80392 edgecolor
newpath 284.8146 310.1127 moveto
257.284 297.2387 215.7278 277.8059 191.9081 266.6672 curveto
stroke
0.77647 0.75294 0.80392 edgecolor
newpath 283.3744 313.3029 moveto
293.9155 314.3685 lineto
286.3396 306.962 lineto
closepath fill
1 setlinewidth
solid
0.77647 0.75294 0.80392 edgecolor
newpath 283.3744 313.3029 moveto
293.9155 314.3685 lineto
286.3396 306.962 lineto
closepath stroke
0 0 0 edgecolor
10 /Helvetica set_font
251.3736 288 moveto 37 ( control) alignedtext
grestore
% Node4->Node6
gsave
1 setlinewidth
dashed
0.77647 0.75294 0.80392 edgecolor
newpath 304.5406 304.8262 moveto
301.2709 298.2487 297.1219 290.9754 292.3736 285 curveto
257.5246 241.1443 244.4547 229.9892 193.3736 207 curveto
159.4017 191.7108 116.4633 184.4986 90.2294 181.303 curveto
stroke
0.77647 0.75294 0.80392 edgecolor
newpath 301.5461 306.6902 moveto
308.9147 314.303 lineto
307.9018 303.7567 lineto
closepath fill
1 setlinewidth
solid
0.77647 0.75294 0.80392 edgecolor
newpath 301.5461 306.6902 moveto
308.9147 314.303 lineto
307.9018 303.7567 lineto
closepath stroke
0 0 0 edgecolor
10 /Helvetica set_font
278.3736 254.5 moveto 37 ( control) alignedtext
grestore
% Node5
gsave
[ /Rect [ 257.3736 381 367.3736 401 ]
  /Border [ 0 0 0 ]
  /Action << /Subtype /URI /URI ($structM17NObjectRecord.html) >>
  /Subtype /Link
/ANN pdfmark
0 0 1 nodecolor
newpath 257.3736 381.5 moveto
257.3736 400.5 lineto
367.3736 400.5 lineto
367.3736 381.5 lineto
closepath fill
1 setlinewidth
filled
0 0 0 nodecolor
newpath 257.3736 381.5 moveto
257.3736 400.5 lineto
367.3736 400.5 lineto
367.3736 381.5 lineto
closepath stroke
0 0 0 nodecolor
10 /Helvetica set_font
265.3736 388.5 moveto 94 (M17NObjectRecord) alignedtext
grestore
% Node5->Node4
gsave
1 setlinewidth
dashed
0.77647 0.75294 0.80392 edgecolor
newpath 312.3736 371.037 moveto
312.3736 358.6703 312.3736 343.1198 312.3736 333.6273 curveto
stroke
0.77647 0.75294 0.80392 edgecolor
newpath 308.8737 371.2338 moveto
312.3736 381.2338 lineto
315.8737 371.2338 lineto
closepath fill
1 setlinewidth
solid
0.77647 0.75294 0.80392 edgecolor
newpath 308.8737 371.2338 moveto
312.3736 381.2338 lineto
315.8737 371.2338 lineto
closepath stroke
0 0 0 edgecolor
10 /Helvetica set_font
312.3736 355 moveto 34 ( record) alignedtext
grestore
% Node6->Node2
gsave
1 setlinewidth
dashed
0.77647 0.75294 0.80392 edgecolor
newpath 95.6772 163.332 moveto
102.5937 159.3057 109.6211 154.4852 115.3736 149 curveto
132.1492 133.0043 124.6314 118.6386 143.3736 105 curveto
257.9746 21.6055 436.8192 11.3965 505.3537 10.7166 curveto
stroke
0.77647 0.75294 0.80392 edgecolor
newpath 93.5803 160.4866 moveto
86.4445 168.318 lineto
96.9066 166.6459 lineto
closepath fill
1 setlinewidth
solid
0.77647 0.75294 0.80392 edgecolor
newpath 93.5803 160.4866 moveto
86.4445 168.318 lineto
96.9066 166.6459 lineto
closepath stroke
0 0 0 edgecolor
10 /Helvetica set_font
206.3736 74.5 moveto 25 ( face) alignedtext
grestore
% Node6->Node6
gsave
1 setlinewidth
dashed
0.77647 0.75294 0.80392 edgecolor
newpath 100.3884 184.6175 moveto
104.8882 183.4908 107.8736 181.2849 107.8736 178 curveto
107.8736 172.6094 99.834 170.1246 90.2556 170.5458 curveto
stroke
0.77647 0.75294 0.80392 edgecolor
newpath 99.9336 181.1431 moveto
90.2556 185.4542 lineto
100.5097 188.1194 lineto
closepath fill
1 setlinewidth
solid
0.77647 0.75294 0.80392 edgecolor
newpath 99.9336 181.1431 moveto
90.2556 185.4542 lineto
100.5097 188.1194 lineto
closepath stroke
0 0 0 edgecolor
10 /Helvetica set_font
107.8736 175.5 moveto 28 ( hook) alignedtext
grestore
% Node6->Node9
gsave
1 setlinewidth
dashed
0.77647 0.75294 0.80392 edgecolor
newpath 99.6366 167.7639 moveto
112.9132 163.2423 127.9613 157.0185 140.3736 149 curveto
163.6037 133.9932 159.5627 117.217 184.3736 105 curveto
212.0918 91.3515 294.7089 83.9067 346.8027 80.4562 curveto
stroke
0.77647 0.75294 0.80392 edgecolor
newpath 98.3523 164.5002 moveto
89.9021 170.8912 lineto
100.4934 171.1647 lineto
closepath fill
1 setlinewidth
solid
0.77647 0.75294 0.80392 edgecolor
newpath 98.3523 164.5002 moveto
89.9021 170.8912 lineto
100.4934 171.1647 lineto
closepath stroke
0 0 0 edgecolor
10 /Helvetica set_font
184.3736 124.5 moveto 25 ( face) alignedtext
grestore
% Node7
gsave
[ /Rect [ 692.8736 67 781.8736 87 ]
  /Border [ 0 0 0 ]
  /Action << /Subtype /URI /URI ($structMDeviceDriver.html) >>
  /Subtype /Link
/ANN pdfmark
0 0 1 nodecolor
newpath 692.8736 67.5 moveto
692.8736 86.5 lineto
781.8736 86.5 lineto
781.8736 67.5 lineto
closepath fill
1 setlinewidth
filled
0 0 0 nodecolor
newpath 692.8736 67.5 moveto
692.8736 86.5 lineto
781.8736 86.5 lineto
781.8736 67.5 lineto
closepath stroke
0 0 0 nodecolor
10 /Helvetica set_font
700.8736 74.5 moveto 73 (MDeviceDriver) alignedtext
grestore
% Node7->Node2
gsave
1 setlinewidth
dashed
0.77647 0.75294 0.80392 edgecolor
newpath 700.545 64.2654 moveto
660.1241 51.3862 596.2099 31.0214 560.2504 19.5637 curveto
stroke
0.77647 0.75294 0.80392 edgecolor
newpath 699.6934 67.6674 moveto
710.284 67.3685 lineto
701.8186 60.9977 lineto
closepath fill
1 setlinewidth
solid
0.77647 0.75294 0.80392 edgecolor
newpath 699.6934 67.6674 moveto
710.284 67.3685 lineto
701.8186 60.9977 lineto
closepath stroke
0 0 0 edgecolor
10 /Helvetica set_font
647.3736 41 moveto 32 ( driver) alignedtext
grestore
% Node8
gsave
[ /Rect [ 648.8736 247 695.8736 267 ]
  /Border [ 0 0 0 ]
  /Action << /Subtype /URI /URI ($structMFont.html) >>
  /Subtype /Link
/ANN pdfmark
0 0 1 nodecolor
newpath 648.8736 247.5 moveto
648.8736 266.5 lineto
695.8736 266.5 lineto
695.8736 247.5 lineto
closepath fill
1 setlinewidth
filled
0 0 0 nodecolor
newpath 648.8736 247.5 moveto
648.8736 266.5 lineto
695.8736 266.5 lineto
695.8736 247.5 lineto
closepath stroke
0 0 0 nodecolor
10 /Helvetica set_font
656.8736 254.5 moveto 31 (MFont) alignedtext
grestore
% Node8->Node1
gsave
1 setlinewidth
dashed
0.77647 0.75294 0.80392 edgecolor
newpath 655.3444 240.3898 moveto
637.9641 224.4579 611.6266 200.3152 597.7258 187.5728 curveto
stroke
0.77647 0.75294 0.80392 edgecolor
newpath 653.3266 243.2882 moveto
663.0632 247.4655 lineto
658.0567 238.1281 lineto
closepath fill
1 setlinewidth
solid
0.77647 0.75294 0.80392 edgecolor
newpath 653.3266 243.2882 moveto
663.0632 247.4655 lineto
658.0567 238.1281 lineto
closepath stroke
0 0 0 edgecolor
10 /Helvetica set_font
642.3736 221 moveto 23 ( font) alignedtext
0 0 0 edgecolor
10 /Helvetica set_font
642.3736 210 moveto 23 (spec) alignedtext
grestore
% Node8->Node2
gsave
1 setlinewidth
dashed
0.77647 0.75294 0.80392 edgecolor
newpath 693.9545 241.5066 moveto
739.6983 209.0265 838.4928 128.4406 791.3736 67 curveto
763.5507 30.7204 622.4081 16.977 561.4621 12.6777 curveto
stroke
0.77647 0.75294 0.80392 edgecolor
newpath 691.78 238.7558 moveto
685.572 247.3413 lineto
695.7791 244.501 lineto
closepath fill
1 setlinewidth
solid
0.77647 0.75294 0.80392 edgecolor
newpath 691.78 238.7558 moveto
685.572 247.3413 lineto
695.7791 244.501 lineto
closepath stroke
0 0 0 edgecolor
10 /Helvetica set_font
803.3736 124.5 moveto 23 ( font) alignedtext
grestore
% Node8->Node9
gsave
1 setlinewidth
dashed
0.77647 0.75294 0.80392 edgecolor
newpath 638.8089 246.8215 moveto
604.7978 236.4506 551.7272 217.2487 512.3736 189 curveto
471.9548 159.9866 476.9034 136.4787 438.3736 105 curveto
429.6288 97.8555 418.7551 91.4763 409.6698 86.7148 curveto
stroke
0.77647 0.75294 0.80392 edgecolor
newpath 638.1337 250.2718 moveto
648.716 249.7568 lineto
640.1222 243.5601 lineto
closepath fill
1 setlinewidth
solid
0.77647 0.75294 0.80392 edgecolor
newpath 638.1337 250.2718 moveto
648.716 249.7568 lineto
640.1222 243.5601 lineto
closepath stroke
0 0 0 edgecolor
10 /Helvetica set_font
512.3736 175.5 moveto 23 ( font) alignedtext
grestore
% Node8->Node12
gsave
1 setlinewidth
dashed
0.77647 0.75294 0.80392 edgecolor
newpath 680.1636 237.7982 moveto
691.7025 207.7847 709.4264 147.0544 684.3736 105 curveto
679.4314 96.7037 670.9174 90.751 662.4194 86.5841 curveto
stroke
0.77647 0.75294 0.80392 edgecolor
newpath 676.795 236.7921 moveto
676.283 247.3745 lineto
683.2825 239.4211 lineto
closepath fill
1 setlinewidth
solid
0.77647 0.75294 0.80392 edgecolor
newpath 676.795 236.7921 moveto
676.283 247.3745 lineto
683.2825 239.4211 lineto
closepath stroke
0 0 0 edgecolor
10 /Helvetica set_font
696.3736 175.5 moveto 33 ( select) alignedtext
grestore
% Node9->Node2
gsave
1 setlinewidth
dashed
0.77647 0.75294 0.80392 edgecolor
newpath 419.5275 63.1127 moveto
447.6523 50.2387 490.1054 30.8059 514.4392 19.6672 curveto
stroke
0.77647 0.75294 0.80392 edgecolor
newpath 417.8661 60.0239 moveto
410.2301 67.3685 lineto
420.7796 66.3887 lineto
closepath fill
1 setlinewidth
solid
0.77647 0.75294 0.80392 edgecolor
newpath 417.8661 60.0239 moveto
410.2301 67.3685 lineto
420.7796 66.3887 lineto
closepath stroke
0 0 0 edgecolor
10 /Helvetica set_font
470.3736 41 moveto 28 ( rface) alignedtext
grestore
% Node9->Node9
gsave
1 setlinewidth
dashed
0.77647 0.75294 0.80392 edgecolor
newpath 446.1994 81.6871 moveto
450.923 80.6913 453.8736 79.1289 453.8736 77 curveto
453.8736 73.5938 446.3199 71.6378 436.0368 71.1322 curveto
stroke
0.77647 0.75294 0.80392 edgecolor
newpath 445.566 78.2371 moveto
436.0368 82.8678 lineto
446.3739 85.1903 lineto
closepath fill
1 setlinewidth
solid
0.77647 0.75294 0.80392 edgecolor
newpath 445.566 78.2371 moveto
436.0368 82.8678 lineto
446.3739 85.1903 lineto
closepath stroke
0 0 0 edgecolor
10 /Helvetica set_font
453.8736 74.5 moveto 56 ( ascii_rface) alignedtext
grestore
% Node10
gsave
[ /Rect [ 153.8736 168 250.8736 188 ]
  /Border [ 0 0 0 ]
  /Action << /Subtype /URI /URI ($structMFaceHLineProp.html) >>
  /Subtype /Link
/ANN pdfmark
0 0 1 nodecolor
newpath 153.8736 168.5 moveto
153.8736 187.5 lineto
250.8736 187.5 lineto
250.8736 168.5 lineto
closepath fill
1 setlinewidth
filled
0 0 0 nodecolor
newpath 153.8736 168.5 moveto
153.8736 187.5 lineto
250.8736 187.5 lineto
250.8736 168.5 lineto
closepath stroke
0 0 0 nodecolor
10 /Helvetica set_font
161.8736 175.5 moveto 81 (MFaceHLineProp) alignedtext
grestore
% Node10->Node9
gsave
1 setlinewidth
dashed
0.77647 0.75294 0.80392 edgecolor
newpath 208.4129 158.515 moveto
214.8594 141.8242 226.7433 117.9559 245.3736 105 curveto
261.4574 93.8151 309.9124 86.3937 346.6276 82.2098 curveto
stroke
0.77647 0.75294 0.80392 edgecolor
newpath 205.0004 157.6653 moveto
204.9455 168.26 lineto
211.5953 160.0119 lineto
closepath fill
1 setlinewidth
solid
0.77647 0.75294 0.80392 edgecolor
newpath 205.0004 157.6653 moveto
204.9455 168.26 lineto
211.5953 160.0119 lineto
closepath stroke
0 0 0 edgecolor
10 /Helvetica set_font
245.3736 124.5 moveto 28 ( hline) alignedtext
grestore
% Node11
gsave
[ /Rect [ 378.3736 168 466.3736 188 ]
  /Border [ 0 0 0 ]
  /Action << /Subtype /URI /URI ($structMFaceBoxProp.html) >>
  /Subtype /Link
/ANN pdfmark
0 0 1 nodecolor
newpath 378.3736 168.5 moveto
378.3736 187.5 lineto
466.3736 187.5 lineto
466.3736 168.5 lineto
closepath fill
1 setlinewidth
filled
0 0 0 nodecolor
newpath 378.3736 168.5 moveto
378.3736 187.5 lineto
466.3736 187.5 lineto
466.3736 168.5 lineto
closepath stroke
0 0 0 nodecolor
10 /Helvetica set_font
386.3736 175.5 moveto 72 (MFaceBoxProp) alignedtext
grestore
% Node11->Node9
gsave
1 setlinewidth
dashed
0.77647 0.75294 0.80392 edgecolor
newpath 416.6182 158.6196 moveto
409.9024 137.1724 399.0807 102.6128 394.0743 86.6245 curveto
stroke
0.77647 0.75294 0.80392 edgecolor
newpath 413.2942 159.7172 moveto
419.6226 168.2144 lineto
419.9744 157.6254 lineto
closepath fill
1 setlinewidth
solid
0.77647 0.75294 0.80392 edgecolor
newpath 413.2942 159.7172 moveto
419.6226 168.2144 lineto
419.9744 157.6254 lineto
closepath stroke
0 0 0 edgecolor
10 /Helvetica set_font
412.3736 124.5 moveto 22 ( box) alignedtext
grestore
% Node12->Node1
gsave
1 setlinewidth
dashed
0.77647 0.75294 0.80392 edgecolor
newpath 644.0077 96.3907 moveto
649.0295 111.6015 653.0628 133.1949 643.3736 149 curveto
637.8856 157.9522 628.5394 164.1536 619.0931 168.3985 curveto
stroke
0.77647 0.75294 0.80392 edgecolor
newpath 647.1352 94.7609 moveto
640.3584 86.6169 lineto
640.5774 97.2095 lineto
closepath fill
1 setlinewidth
solid
0.77647 0.75294 0.80392 edgecolor
newpath 647.1352 94.7609 moveto
640.3584 86.6169 lineto
640.5774 97.2095 lineto
closepath stroke
0 0 0 edgecolor
10 /Helvetica set_font
648.3736 124.5 moveto 32 ( driver) alignedtext
grestore
endpage
showpage
grestore
%%PageTrailer
%%EndPage: 1
%%Trailer
%%Pages: 1
%%BoundingBox: 36 36 937 445
end
restore
%%EOF
