%!PS-Adobe-3.0
%%Creator: graphviz version 2.43.0 (0)
%%Title: MDrawTextItem
%%Pages: (atend)
%%BoundingBox: (atend)
%%EndComments
save
%%BeginProlog
/DotDict 200 dict def
DotDict begin

/setupLatin1 {
mark
/EncodingVector 256 array def
 EncodingVector 0

ISOLatin1Encoding 0 255 getinterval putinterval
EncodingVector 45 /hyphen put

% Set up ISO Latin 1 character encoding
/starnetISO {
        dup dup findfont dup length dict begin
        { 1 index /FID ne { def }{ pop pop } ifelse
        } forall
        /Encoding EncodingVector def
        currentdict end definefont
} def
/Times-Roman starnetISO def
/Times-Italic starnetISO def
/Times-Bold starnetISO def
/Times-BoldItalic starnetISO def
/Helvetica starnetISO def
/Helvetica-Oblique starnetISO def
/Helvetica-Bold starnetISO def
/Helvetica-BoldOblique starnetISO def
/Courier starnetISO def
/Courier-Oblique starnetISO def
/Courier-Bold starnetISO def
/Courier-BoldOblique starnetISO def
cleartomark
} bind def

%%BeginResource: procset graphviz 0 0
/coord-font-family /Times-Roman def
/default-font-family /Times-Roman def
/coordfont coord-font-family findfont 8 scalefont def

/InvScaleFactor 1.0 def
/set_scale {
       dup 1 exch div /InvScaleFactor exch def
       scale
} bind def

% styles
/solid { [] 0 setdash } bind def
/dashed { [9 InvScaleFactor mul dup ] 0 setdash } bind def
/dotted { [1 InvScaleFactor mul 6 InvScaleFactor mul] 0 setdash } bind def
/invis {/fill {newpath} def /stroke {newpath} def /show {pop newpath} def} bind def
/bold { 2 setlinewidth } bind def
/filled { } bind def
/unfilled { } bind def
/rounded { } bind def
/diagonals { } bind def
/tapered { } bind def

% hooks for setting color 
/nodecolor { sethsbcolor } bind def
/edgecolor { sethsbcolor } bind def
/graphcolor { sethsbcolor } bind def
/nopcolor {pop pop pop} bind def

/beginpage {	% i j npages
	/npages exch def
	/j exch def
	/i exch def
	/str 10 string def
	npages 1 gt {
		gsave
			coordfont setfont
			0 0 moveto
			(\() show i str cvs show (,) show j str cvs show (\)) show
		grestore
	} if
} bind def

/set_font {
	findfont exch
	scalefont setfont
} def

% draw text fitted to its expected width
/alignedtext {			% width text
	/text exch def
	/width exch def
	gsave
		width 0 gt {
			[] 0 setdash
			text stringwidth pop width exch sub text length div 0 text ashow
		} if
	grestore
} def

/boxprim {				% xcorner ycorner xsize ysize
		4 2 roll
		moveto
		2 copy
		exch 0 rlineto
		0 exch rlineto
		pop neg 0 rlineto
		closepath
} bind def

/ellipse_path {
	/ry exch def
	/rx exch def
	/y exch def
	/x exch def
	matrix currentmatrix
	newpath
	x y translate
	rx ry scale
	0 0 1 0 360 arc
	setmatrix
} bind def

/endpage { showpage } bind def
/showpage { } def

/layercolorseq
	[	% layer color sequence - darkest to lightest
		[0 0 0]
		[.2 .8 .8]
		[.4 .8 .8]
		[.6 .8 .8]
		[.8 .8 .8]
	]
def

/layerlen layercolorseq length def

/setlayer {/maxlayer exch def /curlayer exch def
	layercolorseq curlayer 1 sub layerlen mod get
	aload pop sethsbcolor
	/nodecolor {nopcolor} def
	/edgecolor {nopcolor} def
	/graphcolor {nopcolor} def
} bind def

/onlayer { curlayer ne {invis} if } def

/onlayers {
	/myupper exch def
	/mylower exch def
	curlayer mylower lt
	curlayer myupper gt
	or
	{invis} if
} def

/curlayer 0 def

%%EndResource
%%EndProlog
%%BeginSetup
14 default-font-family set_font
% /arrowlength 10 def
% /arrowwidth 5 def

% make sure pdfmark is harmless for PS-interpreters other than Distiller
/pdfmark where {pop} {userdict /pdfmark /cleartomark load put} ifelse
% make '<<' and '>>' safe on PS Level 1 devices
/languagelevel where {pop languagelevel}{1} ifelse
2 lt {
    userdict (<<) cvn ([) cvn load put
    userdict (>>) cvn ([) cvn load put
} if

%%EndSetup
setupLatin1
%%Page: 1 1
%%PageBoundingBox: 36 36 301 341
%%PageOrientation: Portrait
0 0 1 beginpage
gsave
36 36 265 305 boxprim clip newpath
1 1 set_scale 0 rotate 40 40 translate
% Node1
gsave
0 0 0.74902 nodecolor
newpath 81 .5 moveto
81 19.5 lineto
175 19.5 lineto
175 .5 lineto
closepath fill
1 setlinewidth
filled
0 0 0 nodecolor
newpath 81 .5 moveto
81 19.5 lineto
175 19.5 lineto
175 .5 lineto
closepath stroke
0 0 0 nodecolor
10 /Helvetica set_font
89 7.5 moveto 78 (MDrawTextItem) alignedtext
grestore
% Node2
gsave
[ /Rect [ 0 67 86 87 ]
  /Border [ 0 0 0 ]
  /Action << /Subtype /URI /URI ($structMDrawControl.html) >>
  /Subtype /Link
/ANN pdfmark
0 0 1 nodecolor
newpath 0 67.5 moveto
0 86.5 lineto
86 86.5 lineto
86 67.5 lineto
closepath fill
1 setlinewidth
filled
0 0 0 nodecolor
newpath 0 67.5 moveto
0 86.5 lineto
86 86.5 lineto
86 67.5 lineto
closepath stroke
0 0 0 nodecolor
10 /Helvetica set_font
8 74.5 moveto 70 (MDrawControl) alignedtext
grestore
% Node2->Node1
gsave
1 setlinewidth
dashed
0.77647 0.75294 0.80392 edgecolor
newpath 59.7507 60.6308 moveto
67.7881 53.4933 77.6781 45.0477 87 38 curveto
95.7021 31.4208 105.9521 24.6708 114.0266 19.5656 curveto
stroke
0.77647 0.75294 0.80392 edgecolor
newpath 57.2333 58.1878 moveto
52.1469 67.4818 lineto
61.919 63.3883 lineto
closepath fill
1 setlinewidth
solid
0.77647 0.75294 0.80392 edgecolor
newpath 57.2333 58.1878 moveto
52.1469 67.4818 lineto
61.919 63.3883 lineto
closepath stroke
0 0 0 edgecolor
10 /Helvetica set_font
87 41 moveto 37 ( control) alignedtext
grestore
% Node3
gsave
[ /Rect [ 104.5 67 151.5 87 ]
  /Border [ 0 0 0 ]
  /Action << /Subtype /URI /URI ($structMFace.html) >>
  /Subtype /Link
/ANN pdfmark
0 0 1 nodecolor
newpath 104.5 67.5 moveto
104.5 86.5 lineto
151.5 86.5 lineto
151.5 67.5 lineto
closepath fill
1 setlinewidth
filled
0 0 0 nodecolor
newpath 104.5 67.5 moveto
104.5 86.5 lineto
151.5 86.5 lineto
151.5 67.5 lineto
closepath stroke
0 0 0 nodecolor
10 /Helvetica set_font
112.5 74.5 moveto 31 (MFace) alignedtext
grestore
% Node3->Node1
gsave
1 setlinewidth
dashed
0.77647 0.75294 0.80392 edgecolor
newpath 128 57.037 moveto
128 44.6703 128 29.1198 128 19.6273 curveto
stroke
0.77647 0.75294 0.80392 edgecolor
newpath 124.5001 57.2338 moveto
128 67.2338 lineto
131.5001 57.2338 lineto
closepath fill
1 setlinewidth
solid
0.77647 0.75294 0.80392 edgecolor
newpath 124.5001 57.2338 moveto
128 67.2338 lineto
131.5001 57.2338 lineto
closepath stroke
0 0 0 edgecolor
10 /Helvetica set_font
128 41 moveto 25 ( face) alignedtext
grestore
% Node3->Node3
gsave
1 setlinewidth
dashed
0.77647 0.75294 0.80392 edgecolor
newpath 162.0148 82.294 moveto
166.5146 81.3926 169.5 79.6279 169.5 77 curveto
169.5 72.6875 161.4604 70.6997 151.8819 71.0366 curveto
stroke
0.77647 0.75294 0.80392 edgecolor
newpath 161.6295 78.8118 moveto
151.8819 82.9634 lineto
162.0909 85.7965 lineto
closepath fill
1 setlinewidth
solid
0.77647 0.75294 0.80392 edgecolor
newpath 161.6295 78.8118 moveto
151.8819 82.9634 lineto
162.0909 85.7965 lineto
closepath stroke
0 0 0 edgecolor
10 /Helvetica set_font
169.5 74.5 moveto 28 ( hook) alignedtext
grestore
% Node4
gsave
[ /Rect [ 115.5 143 162.5 163 ]
  /Border [ 0 0 0 ]
  /Action << /Subtype /URI /URI ($structMPlist.html) >>
  /Subtype /Link
/ANN pdfmark
0 0 1 nodecolor
newpath 115.5 143.5 moveto
115.5 162.5 lineto
162.5 162.5 lineto
162.5 143.5 lineto
closepath fill
1 setlinewidth
filled
0 0 0 nodecolor
newpath 115.5 143.5 moveto
115.5 162.5 lineto
162.5 162.5 lineto
162.5 143.5 lineto
closepath stroke
0 0 0 nodecolor
10 /Helvetica set_font
123.5 150.5 moveto 31 (MPlist) alignedtext
grestore
% Node4->Node3
gsave
1 setlinewidth
dashed
0.77647 0.75294 0.80392 edgecolor
newpath 136.1864 133.0722 moveto
133.9728 118.1803 130.9895 98.1111 129.3033 86.7679 curveto
stroke
0.77647 0.75294 0.80392 edgecolor
newpath 132.7626 133.844 moveto
137.695 143.2206 lineto
139.6865 132.8147 lineto
closepath fill
1 setlinewidth
solid
0.77647 0.75294 0.80392 edgecolor
newpath 132.7626 133.844 moveto
137.695 143.2206 lineto
139.6865 132.8147 lineto
closepath stroke
0 0 0 edgecolor
10 /Helvetica set_font
134 112.5 moveto 53 ( frame_list) alignedtext
grestore
% Node4->Node4
gsave
1 setlinewidth
dashed
0.77647 0.75294 0.80392 edgecolor
newpath 173.0148 158.294 moveto
177.5146 157.3926 180.5 155.6279 180.5 153 curveto
180.5 148.6875 172.4604 146.6997 162.8819 147.0366 curveto
stroke
0.77647 0.75294 0.80392 edgecolor
newpath 172.6295 154.8118 moveto
162.8819 158.9634 lineto
173.0909 161.7965 lineto
closepath fill
1 setlinewidth
solid
0.77647 0.75294 0.80392 edgecolor
newpath 172.6295 154.8118 moveto
162.8819 158.9634 lineto
173.0909 161.7965 lineto
closepath stroke
0 0 0 edgecolor
10 /Helvetica set_font
180.5 150.5 moveto 25 ( next) alignedtext
grestore
% Node5
gsave
[ /Rect [ 100.5 210 177.5 230 ]
  /Border [ 0 0 0 ]
  /Action << /Subtype /URI /URI ($structM17NObject.html) >>
  /Subtype /Link
/ANN pdfmark
0 0 1 nodecolor
newpath 100.5 210.5 moveto
100.5 229.5 lineto
177.5 229.5 lineto
177.5 210.5 lineto
closepath fill
1 setlinewidth
filled
0 0 0 nodecolor
newpath 100.5 210.5 moveto
100.5 229.5 lineto
177.5 229.5 lineto
177.5 210.5 lineto
closepath stroke
0 0 0 nodecolor
10 /Helvetica set_font
108.5 217.5 moveto 61 (M17NObject) alignedtext
grestore
% Node5->Node3
gsave
1 setlinewidth
dashed
0.77647 0.75294 0.80392 edgecolor
newpath 112.308 205.2701 moveto
96.85 195.7169 78.7625 181.3967 70 163 curveto
55.6341 132.8388 93.2038 101.3866 114.4998 86.6229 curveto
stroke
0.77647 0.75294 0.80392 edgecolor
newpath 110.612 208.3326 moveto
121.0152 210.3387 lineto
114.1337 202.2829 lineto
closepath fill
1 setlinewidth
solid
0.77647 0.75294 0.80392 edgecolor
newpath 110.612 208.3326 moveto
121.0152 210.3387 lineto
114.1337 202.2829 lineto
closepath stroke
0 0 0 edgecolor
10 /Helvetica set_font
70 150.5 moveto 37 ( control) alignedtext
grestore
% Node5->Node4
gsave
1 setlinewidth
dashed
0.77647 0.75294 0.80392 edgecolor
newpath 139 200.037 moveto
139 187.6703 139 172.1198 139 162.6273 curveto
stroke
0.77647 0.75294 0.80392 edgecolor
newpath 135.5001 200.2338 moveto
139 210.2338 lineto
142.5001 200.2338 lineto
closepath fill
1 setlinewidth
solid
0.77647 0.75294 0.80392 edgecolor
newpath 135.5001 200.2338 moveto
139 210.2338 lineto
142.5001 200.2338 lineto
closepath stroke
0 0 0 edgecolor
10 /Helvetica set_font
139 184 moveto 37 ( control) alignedtext
grestore
% Node7
gsave
[ /Rect [ 211 105 257 125 ]
  /Border [ 0 0 0 ]
  /Action << /Subtype /URI /URI ($structMText.html) >>
  /Subtype /Link
/ANN pdfmark
0 0 1 nodecolor
newpath 211 105.5 moveto
211 124.5 lineto
257 124.5 lineto
257 105.5 lineto
closepath fill
1 setlinewidth
filled
0 0 0 nodecolor
newpath 211 105.5 moveto
211 124.5 lineto
257 124.5 lineto
257 105.5 lineto
closepath stroke
0 0 0 nodecolor
10 /Helvetica set_font
219 112.5 moveto 30 (MText) alignedtext
grestore
% Node5->Node7
gsave
1 setlinewidth
dashed
0.77647 0.75294 0.80392 edgecolor
newpath 165.2822 205.1731 moveto
181.6421 195.3653 201.9776 180.8036 215 163 curveto
223.7293 151.0657 229.184 134.554 231.9026 124.6123 curveto
stroke
0.77647 0.75294 0.80392 edgecolor
newpath 163.1265 202.3747 moveto
156.1944 210.387 lineto
166.61 208.4464 lineto
closepath fill
1 setlinewidth
solid
0.77647 0.75294 0.80392 edgecolor
newpath 163.1265 202.3747 moveto
156.1944 210.387 lineto
166.61 208.4464 lineto
closepath stroke
0 0 0 edgecolor
10 /Helvetica set_font
197 184 moveto 37 ( control) alignedtext
grestore
% Node6
gsave
[ /Rect [ 84 277 194 297 ]
  /Border [ 0 0 0 ]
  /Action << /Subtype /URI /URI ($structM17NObjectRecord.html) >>
  /Subtype /Link
/ANN pdfmark
0 0 1 nodecolor
newpath 84 277.5 moveto
84 296.5 lineto
194 296.5 lineto
194 277.5 lineto
closepath fill
1 setlinewidth
filled
0 0 0 nodecolor
newpath 84 277.5 moveto
84 296.5 lineto
194 296.5 lineto
194 277.5 lineto
closepath stroke
0 0 0 nodecolor
10 /Helvetica set_font
92 284.5 moveto 94 (M17NObjectRecord) alignedtext
grestore
% Node6->Node5
gsave
1 setlinewidth
dashed
0.77647 0.75294 0.80392 edgecolor
newpath 139 267.037 moveto
139 254.6703 139 239.1198 139 229.6273 curveto
stroke
0.77647 0.75294 0.80392 edgecolor
newpath 135.5001 267.2338 moveto
139 277.2338 lineto
142.5001 267.2338 lineto
closepath fill
1 setlinewidth
solid
0.77647 0.75294 0.80392 edgecolor
newpath 135.5001 267.2338 moveto
139 277.2338 lineto
142.5001 267.2338 lineto
closepath stroke
0 0 0 edgecolor
10 /Helvetica set_font
139 251 moveto 34 ( record) alignedtext
grestore
% Node7->Node1
gsave
1 setlinewidth
dashed
0.77647 0.75294 0.80392 edgecolor
newpath 226.0567 96.144 moveto
221.3627 86.8175 214.8095 75.5909 207 67 curveto
188.4542 46.5986 161.2486 29.3541 144.0897 19.5944 curveto
stroke
0.77647 0.75294 0.80392 edgecolor
newpath 222.9504 97.7624 moveto
230.3919 105.304 lineto
229.2775 94.7679 lineto
closepath fill
1 setlinewidth
solid
0.77647 0.75294 0.80392 edgecolor
newpath 222.9504 97.7624 moveto
230.3919 105.304 lineto
229.2775 94.7679 lineto
closepath stroke
0 0 0 edgecolor
10 /Helvetica set_font
221 74.5 moveto 17 ( mt) alignedtext
grestore
endpage
showpage
grestore
%%PageTrailer
%%EndPage: 1
%%Trailer
%%Pages: 1
%%BoundingBox: 36 36 301 341
end
restore
%%EOF
